HTTP/1.1 200 OK
Content-Type: text/xml
Content-Length: 1901
Connection: keep-alive
Date: Tue, 03 Oct 2017 02:43:05 GMT
Last-Modified: Mon, 05 Dec 2016 13:04:44 GMT
ETag: "40598e7146de804feaadf126c4bd90c1"
Accept-Ranges: bytes
Server: AmazonS3
Age: 53227
X-Cache: Hit from cloudfront
Via: 1.1 3da3508da5df5956549a94ec250a7674.cloudfront.net (CloudFront)
X-Amz-Cf-Id: u97wLaCoaYfIKMbKvzplDdoe5RtjUlgzY4CvG6J_AUzkZvVODoTp5A==

