<!DOCTYPE HTML PUBLIC "-//IETF//DTD HTML 2.0//EN">
<html><head>
<title>301 Moved Permanently</title>
</head><body>
<h1>Moved Permanently</h1><p>The document has moved <a href="http://www.soapui.org/Appindex/soapui-starterpage.html?version=5.2.1">here</a>.</p>
</body></html>