Start auto log messages stack - Iteration 1.	[MsgId: MMSG-10545]
Action.c(49): 52283768	[MsgId: MMSG-17999]
Action.c(51): web_custom_request("returnList") started  	[MsgId: MMSG-26355]
Action.c(51): Notify: Parameter Substitution: parameter "pURL" =  "http://njitldomapp01.tcphq.tcpcorp.local.com:30000"	[MsgId: MMSG-13992]
Action.c(51): Notify: Parameter Substitution: parameter "pURL" =  "http://njitldomapp01.tcphq.tcpcorp.local.com:30000"	[MsgId: MMSG-13992]
Action.c(51): Notify: Parameter Substitution: parameter "p1" =  "{"returnOrderSearchCriteria":{"entityType":"All","orderNumber":""	[MsgId: MMSG-13992]
Action.c(51): Notify: Parameter Substitution: parameter "pReturn_Order" =  "000000759"	[MsgId: MMSG-13992]
Action.c(51): Notify: Parameter Substitution: parameter "p2" =  "","parentOrderNumber":"","createdFromDate":"","createdToDate":"","noOfRecordsPerPage":10,"customerInfo":"","customerBasicInfo":"","sortingCriterion":{"sortField":"createdDTTM","sortDirection":"DESC"},"currentPageNumber":0}}"	[MsgId: MMSG-13992]
Action.c(51): Error -26547: Authentication required, please use web_set_user, e.g. web_set_user("user", "password", "host:port");, Snapshot Info [MSH 1 6]  	[MsgId: MERR-26547]
Action.c(51): Error -26630: HTTP Status-Code=401 (Unauthorized) for "http://njitldomapp01.tcphq.tcpcorp.local.com:30000/services/olm/returns/returnList?_dc=1465983121126&page=1&start=0&limit=50&sort=%5B%7B%22property%22%3A%22orderCreatedDate%22%2C%22direction%22%3A%22DESC%22%7D%5D", Snapshot Info [MSH 1 6]  	[MsgId: MERR-26630]
Action.c(51): Error -26377: No match found for the requested parameter "c_First_Name". Either the specified boundaries were not found in the response or the matched text is longer than current max html parameter size of 9999 bytes. The total length of the response is 108 bytes. You can use web_set_max_html_param_len to increase the max parameter size., Snapshot Info [MSH 1 6]  	[MsgId: MERR-26377]
End auto log messages stack.	[MsgId: MMSG-10544]


Start auto log messages stack - Iteration 1.	[MsgId: MMSG-10545]
Action.c(51): Notify: Saving Parameter "c_First_Name = ".	[MsgId: MMSG-13798]
Action.c(51): Error -26377: No match found for the requested parameter "c_Last_Name". Either the specified boundaries were not found in the response or the matched text is longer than current max html parameter size of 9999 bytes. The total length of the response is 108 bytes. You can use web_set_max_html_param_len to increase the max parameter size., Snapshot Info [MSH 1 6]  	[MsgId: MERR-26377]
End auto log messages stack.	[MsgId: MMSG-10544]


Start auto log messages stack - Iteration 1.	[MsgId: MMSG-10545]
Action.c(51): Notify: Saving Parameter "c_Last_Name = ".	[MsgId: MMSG-13798]
Action.c(51): Error -26377: No match found for the requested parameter "c_Phone_Number". Either the specified boundaries were not found in the response or the matched text is longer than current max html parameter size of 9999 bytes. The total length of the response is 108 bytes. You can use web_set_max_html_param_len to increase the max parameter size., Snapshot Info [MSH 1 6]  	[MsgId: MERR-26377]
End auto log messages stack.	[MsgId: MMSG-10544]


Start auto log messages stack - Iteration 1.	[MsgId: MMSG-10545]
Action.c(51): Notify: Saving Parameter "c_Phone_Number = ".	[MsgId: MMSG-13798]
Action.c(51): Error -26377: No match found for the requested parameter "c_Email_Id". Either the specified boundaries were not found in the response or the matched text is longer than current max html parameter size of 9999 bytes. The total length of the response is 108 bytes. You can use web_set_max_html_param_len to increase the max parameter size., Snapshot Info [MSH 1 6]  	[MsgId: MERR-26377]
End auto log messages stack.	[MsgId: MMSG-10544]


Start auto log messages stack - Iteration 1.	[MsgId: MMSG-10545]
Action.c(51): Notify: Saving Parameter "c_Email_Id = ".	[MsgId: MMSG-13798]
Action.c(51): Error -26377: No match found for the requested parameter "c_externalCustomerId". Either the specified boundaries were not found in the response or the matched text is longer than current max html parameter size of 9999 bytes. The total length of the response is 108 bytes. You can use web_set_max_html_param_len to increase the max parameter size., Snapshot Info [MSH 1 6]  	[MsgId: MERR-26377]
End auto log messages stack.	[MsgId: MMSG-10544]


Start auto log messages stack - Iteration 1.	[MsgId: MMSG-10545]
Action.c(51): Notify: Saving Parameter "c_externalCustomerId = ".	[MsgId: MMSG-13798]
Action.c(51): Error -26377: No match found for the requested parameter "c_OrderNumber". Either the specified boundaries were not found in the response or the matched text is longer than current max html parameter size of 9999 bytes. The total length of the response is 108 bytes. You can use web_set_max_html_param_len to increase the max parameter size., Snapshot Info [MSH 1 6]  	[MsgId: MERR-26377]
End auto log messages stack.	[MsgId: MMSG-10544]


Start auto log messages stack.	[MsgId: MMSG-10546]
vuser_end.c(17): 1-byte undetermined data (before an HTTP Status Line has been identified) received for "https://njitldomapp01.tcphq.tcpcorp.local.com:15001/miplogout", and will be handled and printed (or ignored) when determined  	[MsgId: MMSG-26568]
vuser_end.c(17): Redirecting "https://njitldomapp01.tcphq.tcpcorp.local.com:15001/miplogout" (redirection depth is 0)  	[MsgId: MMSG-26694]
vuser_end.c(17): To location "https://njitldomapp01.tcphq.tcpcorp.local.com:15001/SLOServlet?finish"  	[MsgId: MMSG-26693]
vuser_end.c(17): 1-byte undetermined data (before an HTTP Status Line has been identified) received for "https://njitldomapp01.tcphq.tcpcorp.local.com:15001/SLOServlet?finish", and will be handled and printed (or ignored) when determined  	[MsgId: MMSG-26568]
vuser_end.c(17): Error -26627: HTTP Status-Code=404 (Not Found) for "https://njitldomapp01.tcphq.tcpcorp.local.com:15001/SLOServlet?finish", Snapshot Info [MSH 1 8]  	[MsgId: MERR-26627]
End auto log messages stack.	[MsgId: MMSG-10544]


