421
{"ThemeViewObjectList":{"elements":{"collection":[{"current":false,"iconColor":"#00C681","metadata":{"actionCodes":"","memos":""},"name":"Impressions","success":false,"themeId":45,"themeTypeId":4,"viewId":0},{"current":false,"iconColor":"#4FC9F1","metadata":{"actionCodes":"","memos":""},"name":"Phoenix","success":false,"themeId":61,"themeTypeId":4,"viewId":0},{"current":false,"iconColor":"#002E5F","metadata":{"actionCodes":"","memos":""},"name":"MA-Blue","success":false,"themeId":24,"themeTypeId":4,"viewId":0},{"current":false,"iconColor":"#157fcc","metadata":{"actionCodes":"","memos":""},"name":"Neptune","success":false,"themeId":41,"themeTypeId":4,"viewId":0},{"current":true,"iconColor":"#333333","metadata":{"actionCodes":"","memos":""},"name":"Gray","success":false,"themeId":42,"themeTypeId":4,"viewId":0},{"current":false,"iconColor":"#2E5620","metadata":{"actionCodes":"","memos":""},"name":"Elemental","success":false,"themeId":44,"themeTypeId":4,"viewId":0}]},"metadata":{"actionCodes":"","memos":""},"success":false,"total":0,"viewId":0}}
0

