2bf
{"ProductClass":[{"productClassId":64,"productClass":"APC"},{"productClassId":71,"productClass":"SWM"},{"productClassId":62,"productClass":"AHN"},{"productClassId":66,"productClass":"FWR"},{"productClassId":61,"productClass":"ACC"},{"productClassId":69,"productClass":"SCH"},{"productClassId":82,"productClass":"BNK"},{"productClassId":86,"productClass":"OTH"},{"productClassId":21,"productClass":1},{"productClassId":67,"productClass":"JWL"},{"productClassId":70,"productClass":"SUN"},{"productClassId":68,"productClass":"PUR"},{"productClassId":81,"productClass":"AHG"},{"productClassId":63,"productClass":"APA"},{"productClassId":100,"productClass":"UNI"},{"productClassId":65,"productClass":"COS"}]}
0

