"{\n"
"   "availabilityRequest":{\n"
"      "viewName":"US BOPIS",\n"
"      "availabilityCriteria":{\n"
"         "itemNames":{\n"
"            "itemName":[\n"
"               "1123198002"\n"
"            ]\n"
"         },\n"
"         "facilityNames":{\n"
"            "facilityName":[\n"
"               "4269",\n"
"               "4270",\n"
"               "4271",\n"
"               "4272",\n"
"               "4273",\n"
"               "4274",\n"
"               "4275",\n"
"               "4276",\n"
"               "4277",\n"
"               "4278",\n"
"               "4280",\n"
"               "4281",\n"
"               "4282",\n"
"               "4283",\n"
"               "4285",\n"
"               "4287",\n"
"               "4289",\n"
"               "4290",\n"
"               "4291",\n"
"               "4294",\n"
"               "4295",\n"
"               "4297",\n"
"               "4299",\n"
"               "4300",\n"
"               "4301"\n"
"            ]\n"
"         }\n"
"      }\n"
"   }\n"
"}"
