HTTP/1.1 200 OK
Content-Type: text/xml
Content-Length: 1876
Connection: keep-alive
Date: Sat, 06 Aug 2016 05:17:41 GMT
Last-Modified: Tue, 06 Oct 2015 07:07:14 GMT
ETag: "da8b7b6f1283ec2dca0923b3d7e300f0"
Accept-Ranges: bytes
Server: AmazonS3
Age: 4612
X-Cache: Hit from cloudfront
Via: 1.1 cbce93bae14c2990d9c172c1090b26cd.cloudfront.net (CloudFront)
X-Amz-Cf-Id: V_0n1nku6ByjXK8uYIUNHsW17OX8Mikl-_WO0ykpZrt74bWVOljHqA==

