fca
{"LabelList":{"labels":{"collection":[{"caption":"PAYMENT INFO.","name":"paymentInfoUC"},{"caption":"Return type","name":"returnType"},{"caption":"ORDERED","name":"orderedUC"},{"caption":"INVOICED","name":"invoicedUC"},{"caption":"SHIP RETURN TO","name":"shipReturnToUC"},{"caption":"Fees","name":"fees"},{"caption":"BACK ORDERED","name":"backOrderedUC"},{"caption":"SHIPPED","name":"shippedUC"},{"caption":"RELEASED","name":"releasedUC"},{"caption":"ESTIMATED PAYMENTS","name":"totalSummaryTitleUC"},{"caption":"Cancelled qty.","name":"cancelledQty"},{"caption":"Shipped Qty.","name":"shippedQty"},{"caption":"Action reasoning","name":"actionReasoning"},{"caption":"Original ordered qty.","name":"originalOrderedQty"},{"caption":"Line total","name":"lineTotal"},{"caption":"RECEIVED","name":"receivedUC"},{"caption":"SHIP TO STORE","name":"shipToStoreUC"},{"caption":"PICKED UP","name":"pickedUpUC"},{"caption":"RETURN QTY","name":"returnQtyUC"},{"caption":"EXCHANGE ORDER","name":"exchangeOrderUC"},{"caption":"ESTIMATED CHARGE","name":"estimatedChargeUC"},{"caption":"Return Amt.","name":"returnAmount"},{"caption":"Style","name":"style"},{"caption":"PAYMENT INFORMATION NOT AVAILABLE","name":"paymentInformationNotAvailableUC"},{"caption":"Charge","name":"charge"},{"caption":"PICK UP AT STORE","name":"pickUpAtStoreUC"},{"caption":"SHIPPED","name":"shippedQtyUC"},{"caption":"Color","name":"color"},{"caption":"RETURNS & EXCHANGES","name":"returnsAndExchangesUC"},{"caption":"SKU","name":"itemIdUC"},{"caption":"Total exchange Amt.","name":"totalExchangeAmount"},{"caption":"Return No.","name":"returnNumber"},{"caption":"Return Ref. No.","name":"returnRefNumber"},{"caption":"Item condition","name":"itemCondition"},{"caption":"Identified variance","name":"identifiedVariance"},{"caption":"Exchange Amt.","name":"exchangeAmt"},{"caption":"Received on","name":"receivedOn"},{"caption":"NO SHIPMENTS EXIST FOR THIS RETURN","name":"shipmentNotExist"},{"caption":"Receipt not expected. Verify return and approve.","name":"receiptNotExpectedVerifyReturnAndApprove"},{"caption":"Refund","name":"refundamount"},{"caption":"Received Qty.","name":"receivedQty"},{"caption":"ESTIMATED REFUND","name":"estimatedRefundUC"},{"caption":"PENDING APPROVAL","name":"pendingApproval"},{"caption":"Tracking No.","name":"trackingNo"},{"caption":"No. of packages","name":"nbrOfPackages"},{"caption":"SHIP TO ADDRESS","name":"shipToAddressUC"},{"caption":"UNEXPECTED ITEMS","name":"unexpectedItems"},{"caption":"APPROVE RETURN","name":"approveReturnUC"},{"caption":"REFUNDS","name":"refundHeader"},{"caption":"XO needs user action","name":"exchangeOrderNeedsUserAction"},{"caption":"ESTIMATED REFUND","name":"estimatedrefund"},{"caption":"Refund","name":"refundSC"},{"caption":"New effective qty.","name":"effectiveQty"},{"caption":"Total fees","name":"totalfees"},{"caption":"INBOUND","name":"inboundUC"},{"caption":"UNEXPECTED ITEM","name":"unexpectedItemUC"},{"caption":"Size","name":"size"},{"caption":"Status","name":"status"},{"caption":"SHIPMENT TOTAL","name":"shipmentTotalUC"},{"caption":"Received condition","name":"receivedCondition"},{"caption":"Created","name":"created"},{"caption":"SHIP FROM","name":"shipFromUC"},{"caption":"NO VARIANCES EXIST FOR THIS RETURN","name":"noVariancesExistForThisReturnUC"},{"caption":"Return Qty.","name":"returnQty"},{"caption":"Order No.","name":"orderNumber"},{"caption":"NO PAYMENTS EXIST FOR THIS RETURN","name":"paymentNotPresentForReturn"},{"caption":"STATUS SUMMARY","name":"statusSummaryUC"},{"caption":"RETURN STATUS","name":"returnStatusUC"},{"caption":"CHARGES","name":"chargeHeader"},{"caption":"APPROVED","name":"approved"},{"caption":"ALLOCATED","name":"allocatedUC"},{"caption":"Not yet received","name":"notyetReceived"},{"caption":"Invalid item: This item is not part of the original return","name":"invalidItemThisItemIsNotPartOfTheOriginalReturn"},{"caption":"CANCELED","name":"canceledUC"},{"caption":"Total return Amt.","name":"totalAmt"},{"caption":"Action taken","name":"actionTaken"}]}}}
0

