/*
 * File: mps/store/Notifications.js
 *
 */

Ext.define('Manh.mps.store.Notifications', {
    extend : 'Ext.data.Store',
    
    autoLoad : true,
    
    model : 'Manh.mps.model.Notification',
    
    sorters : [{
            property : 'notificationStatus',
            direction : 'DESC'
        }, {
            property : 'timeStamp',
            direction : 'DESC'
        }
    ],
    
    proxy : {
        type : 'rest',
        url : '/services/rest/lps/NotificationService/notifications',
        reader : {
            type : 'json',
            root : 'NotificationViewObjectList.elements.collection'
        }
    }
});