Start auto log messages stack - Iteration 5.	[MsgId: MMSG-10545]
Starting action Action.	[MsgId: MMSG-15919]
Action.c(6): Notify: Parameter Substitution: parameter "sTestCaseName" =  "TCP_09_ECOM_US_Cancel_Order"	[MsgId: MMSG-13992]
Action.c(6): Notify: Transaction "TCP_09_ECOM_US_Cancel_Order_03_Goto_Order_tile_enter_order_and_click_on_search" started.	[MsgId: MMSG-16999]
Action.c(8): web_url("ping.jsp_4") started  	[MsgId: MMSG-26355]
Action.c(8): Notify: Parameter Substitution: parameter "pURL" =  "http://eom-ca-perf.tcphq.tcpcorp.local.com:30000"	[MsgId: MMSG-13992]
Action.c(8): Notify: Parameter Substitution: parameter "pURL" =  "http://eom-ca-perf.tcphq.tcpcorp.local.com:30000"	[MsgId: MMSG-13992]
Action.c(8): Notify: Parameter Substitution: parameter "pURL" =  "http://eom-ca-perf.tcphq.tcpcorp.local.com:30000"	[MsgId: MMSG-13992]
Action.c(8): Notify: Parameter Substitution: parameter "pURL" =  "http://eom-ca-perf.tcphq.tcpcorp.local.com:30000"	[MsgId: MMSG-13992]
Action.c(8): Error -27790: Failed to transmit data to network: [10054] Connection reset by peer, Snapshot Info [MSH 5 7]  	[MsgId: MERR-27790]
End auto log messages stack.	[MsgId: MMSG-10544]


Start auto log messages stack - Iteration 9.	[MsgId: MMSG-10545]
Action.c(932): web_convert_from_formatted was successful  	[MsgId: MMSG-26392]
Action.c(958): web_custom_request("createOrUpdate") started  	[MsgId: MMSG-26355]
Action.c(958): Notify: Parameter Substitution: parameter "pURL" =  "http://eom-ca-perf.tcphq.tcpcorp.local.com:30000"	[MsgId: MMSG-13992]
Action.c(958): Notify: Parameter Substitution: parameter "pURL" =  "http://eom-ca-perf.tcphq.tcpcorp.local.com:30000"	[MsgId: MMSG-13992]
Action.c(958): Notify: Parameter Substitution: parameter "DFE_BODY_7" =  "{"customerOrder":{"orderNumber":70460000111,"orderType":"USECOM","enteredLocation":"","orderConfirmed":true,"customerOrderNotes":{"customerOrderNote":{"noteType":"Cancellation","noteSeq":"","noteText":"Performance Testing","visibility":""}},"lastUpdatedDTTM":"2015-12-11 03:00:35.18","orderCancelled":"true","reasonCode":"Customer Req.","customerPhone":0000000000}}"	[MsgId: MMSG-13992]
Action.c(958): Notify: Parameter Substitution: parameter "pURL" =  "http://eom-ca-perf.tcphq.tcpcorp.local.com:30000"	[MsgId: MMSG-13992]
Action.c(958): Error -27789: Server "eom-ca-perf.tcphq.tcpcorp.local.com" has shut down the connection prematurely, Snapshot Info [MSH 9 36]  	[MsgId: MERR-27789]
End auto log messages stack.	[MsgId: MMSG-10544]


