pItemName
1097633005
1097633004
2006941004
1097633006
1097633005
2045087004
1150075004
2046120030
1097633004
1097633005
2006941005
2044038003
2003376003
2003376004
2003376015
2003376016
2054386003
1123198005
1123196004
2003376003
1124491005
1150075005
2046642007
1097633004
2006941004
1097633005
1097633004
1150075007
1119518020
1125063010
1097633006
1125063009
2026236005
2009057006
2026236004
2026236003
1097633004
1150075004
2050204002
1097633005
1097633005
1097633003
2025798005
1097633004
1097633004
2046687013
1150075006
2044038004
2045652013
1123196006
2045652012
2045652014
2054923001
2054920005
2056240007
2054942007
1124494005
1097633004
1150075004
1124491006
2051784013
1119519005
2026236005
2027914004
1097633006
1097633004
1097633005
2025798003
1097633004
1097633005
1101084006
1097633006
1123196003
2027914004
2027913005
2027914005
1125068001
1125066001
2073562003
2073562002
2027913002
2027913003
2027913005
1123198006
1124494005
1097633007
1125063004
1150075006
1097633005
2007643021
2050204004
1124491004
1101084013
1124491007
1123198002
2052038003
1097633005
1124491005
1124491006
1150075004
2006941004
2059773001
2059890001
2055055002
2006941004
2059773001
2059890001
2055055002
2006941004
2059773001
2059890001
2055055002
2007591015
1124756016
1097633005
2054418003
2044038003
2045133012
2027918004
2006941005
2009982007
2003376016
2049400001
2002556008
2009982005
2007791004
1125063005
1150075002
1123196009
2052612003
2051882011
1124491004
2044346008
2053678001
2007643022
1124491007
2054835008
2057035007
2007643020
1124491005
1101084013
1125063006
2042407002
1150075008
2045087006
2055669001
2046120030
1124491009
2042407008
2046644003
1125063010
1097633007
2007636013
2046644006
2009057006
1097633004
2007636006
2046688004
2050204002
1097633008
2045567001
1125063009
2045652013
1097633006
2046687014
2003382004
2045652014
2006941004
2007643013
2007643021
2054923001
1150075005
2057878001
2046641006
2054920005
1150075004
2042407007
1123196007
2054942007
2025798003
2050828003
2057784002
2051784013
1124491008
2050833003
2057790001
1119519005
2006941008
2046644005
2038961011
1101084006
2002556006
1124494007
1124756071
2027913002
2002556007
2054387002
2003385005
2050204004
1150075006
2009982004
2003385007
1123198002
2025798005
1123198007
2027914006
2052038003
2025798004
2045652012
1124495004
2059773001
2009417005
2046198004
1124495005
2059890001
2009417008
2052612002
1101084012
2055055002
2009417006
1124756016
1119518019
1097633005
1124491003
2045133012
1119518020
2006941005
2025798002
2003376016
2027918004
2002556008
2002556005
2007791004
1119518010
1150075002
2002556009
2052612003
2049400001
1124491004
2009417004
2053678001
1125063005
1124491007
1097633009
2057035007
2051882011
1124491005
2009417003
1125063006
2007643022
1150075008
1119519023
2055669001
2007643020
1124491009
2042407003
1124494005
2042407002
1150075007
1119519021
2027914004
2046120030
1124491006
2002556003
2046644003
2054386003
1097633007
2009417007
2046644006
2046642007
1097633004
2002556002
2046688004
1125063010
1097633008
2009417002
1107430003
1125063009
2050204002
1097633006
2003382004
2046687013
2006941004
2006963008
2007643021
2045652013
1150075005
2025798001
2046641006
2045652014
1150075004
1124756003
2027913005
2054923001
2006941003
1124756015
1123196007
2054920005
2025798003
1124756005
1124756071
1119519005
2002556007
2046644007
2003385005
2027913002
1150075006
2069293003
2003385007
1125063004
2025798005
2046644008
2027914006
2050204004
2025798004
2045087007
1124495004
1123198002
2009417005
2007636005
1101084012
2059773001
2009417006
1124756002
2054418003
1097633005
2006941007
2044038002
2027918004
2006941005
2002556005
2007636015
2049400001
2002556008
2009417004
2066665005
1125063005
1150075002
1097633009
2036320002
2051882011
1124491004
2009417003
1101084009
2007643022
1124491007
1119519023
1124756004
2007643020
1124491005
2042407003
2046644048
2042407002
1150075008
1119519021
2057033012
2046120030
1124491009
2002556003
2044344004
2054386003
1150075007
2009417007
2014169002
2046642007
1124491006
2002556002
2044344003
1125063010
1097633007
2009417002
2026236003
2009057006
1097633004
1097633002
1123198005
1107430003
2050204002
1097633008
1123198004
2046687013
1097633003
2006963008
2003376003
2045652014
2006941004
1124756003
2003376004
2054923001
1150075005
1124756015
2003376015
2054920005
1150075004
1124756005
1069518004
1119519005
2006941008
2046644007
2044038004
1101084006
2002556006
2046687015
2045144012
2027913002
2002556007
2069293003
2045087004
1125063004
2002556004
2046644008
2051614003
2050204004
1150075006
2045087007
2044346005
1123198002
2025798005
2007636005
1123196005
2059773001
2009417005
1124756002
2053763018
1097633005
1124491003
2044038002
1125066001
2006941005
2025798002
2007636015
1123196008
1124491004
2009417004
1101084009
2047287002
1124491007
1097633009
1124756004
2057879001
1124491005
2009417003
2046644048
1125070006
1150075008
1119519023
2057033012
2045087005
1124491009
2042407003
2044344004
2038577002
1150075007
1119519021
2014169002
1119518018
1124491006
2002556003
2044344003
2027913004
1097633007
2009417007
2026236003
2046640004
1097633004
2002556002
1123198005
2046688006
1097633008
2009417002
1123198004
2046639004
1097633003
1097633002
2003376003
2016681004
1107430003
1097633006
1123198006
2052659001
2006941004
2006963008
2003376004
2052661003
1150075005
2025798001
2003376015
2057762001
1150075004
1124756003
1069518004
2044755005
2002556007
2046644007
2045087004
1125063003
2002556004
2046687015
2051614003
2007643026
2025798005
2046644008
1123196005
2026236004
2025798004
2045087007
2044985001
2046120008
2009417006
1124756002
2066909021
1123196004
2006941007
2044038002
2026236005
2007643012
2009417004
2066665005
2047287002
2068684029
1097633009
2036320002
2057879001
2055113002
1119519023
1124756004
2045087005
1123196003
2042407003
2046644048
2038577002
2003385004
2002556002
2044344003
2046688006
2059593007
2009417002
2026236003
2046639004
2055120003
1097633002
1123198005
2016681004
2055116004
1107430003
1123198004
2052659001
2052657001
1124756003
2003376004
2044755005
2027914003
1124756015
2003376015
2056027006
2027914005
2046644007
2044038004
1125063003
2009982005
2046687015
2045144012
2007643026
1123196009
2069293003
2045087004
2026236006
2044346008
2046644008
2051614003
2026236004
2054835008
2045087007
2044346005
2046120008
1101084013
2044985001
1123196006
2007785005
2007785005
1124756002
2053763018
1123196004
1101084004
2044038002
1125066001
2007643012
2007636006
2007636015
1123196008
2055027007
2045115023
1101084009
2047287002
2025343001
2057878001
1124756004
2057879001
1123196003
2046120028
2046644048
1125070006
2003385004
2042407007
2057033012
2045087005
2003385003
2050828003
2044344004
2038577002
2055116003
2050833003
2044344003
2027913004
2059593007
1124494007
2026236003
2046640004
2055120003
2044765013
1123198005
2046688006
2055116004
2054387002
1123198004
2046639004
2052657001
2009982004
2003376003
2016681004
2051825002
1123198007
1123198006
2052659001
2052711002
2045652012
2003376004
2052661003
2027914003
2046198004
2003376015
2057762001
2027914005
2052612002
2044344005
2056027006
2044038003
2045133012
2045715003
1124494003
2009982007
2003376016
2045144012
1125063002
1123196009
2052612003
2045087004
1125063003
2044346008
2053678001
2044346005
2026236006
1101084013
1125063006
1123196005
2026236004
2045087006
2055669001
2044985001
2046120008
2007785005
2007785005
1125068001
1123196006
2042407008
2046644003
2066909021
1123196004
2007636013
2046644006
1125066001
2044346003
2007636006
2046688004
2026236005
2007643012
2045567001
1125063009
2047287002
2068684029
2057878001
2046641006
2057879001
2055113002
2046120028
2027913005
1125070006
2025343001
2042407007
1123196007
2038577002
2003385004
2050833003
2057790001
2027913004
2055116003
1124494007
1124756071
2046640004
2055116002
2044765013
2052684001
2046639004
2055120003
2009982004
2003385007
2016681004
2055116004
1123198007
2027914006
2052659001
2052657001
2045652012
1124495004
2052661003
2051825002
2046198004
1124495005
2044755005
2027914003
1124756016
1119518019
2056027006
2027914005
2045133012
1119518020
2046120012
2009982006
2007791004
1119518010
1125063002
2009982007
2052612003
2049400001
1125063003
2009982005
2053678001
1125063005
2007643026
1123196009
2057035007
2051882011
2026236006
2044346008
1125063006
2007643022
2026236004
2054835008
2055669001
2007643020
1123196004
1101084004
2046644006
2046642007
2044346003
2042407008
2046688004
1125063010
2007643012
2007636006
1125063009
2050204002
2068684032
2045567001
2007643021
2045652013
2068684029
2046687014
2046641006
2045652014
2025343001
2057878001
1123196007
2054920005
1123196003
2046120028
2057784002
2056240007
2003385004
2042407007
2057790001
2054942007
2055116003
2050833003
1124756071
1119519005
2055116002
2046644005
2052684001
1101084006
2059593007
1124494007
2003385005
2027913002
2055120003
2044765013
2003385007
1125063004
2055116004
2054387002
2027914006
2050204004
2052657001
2009982004
1124495004
1123198002
2051825002
1123198007
1124495005
2052038003
2027914003
2046198004
1119518019
2059890001
2027914005
2052612002
1119518020
2055055002
2007591015
1124756016
2054418003
1097633005
2044038003
2045133012
2027918004
2006941005
2009982005
2007791004
1125063005
1150075002
1123196009
2052612003
2051882011
1124491004
1101084013
1125063006
2042407002
1150075008
2045087006
2055669001
2046120030
1124491009
2007785005
2007785005
2007785005
2007785005
1101084004
2027914004
2046642007
1124491006
2042407008
2046644003
1125063010
1097633007
2007636006
2046688004
2050204002
1097633008
2045567001
1125063009
2045652013
1097633006
2046687014
2003382004
2045652014
2006941004
2057878001
2046641006
2054920005
1150075004
2050828003
2057784002
2051784013
1124491008
2054387002
2003385005
2050204004
1150075006
2045652012
1124495004
2059773001
2009417005
2046198004
1124495005
2059890001
2009417008
1124756016
1119518019
1097633005
1124491003
2003376016
2027918004
2006941005
2002556005
2007791004
1119518010
1093506007
2002556009
2052612003
2049400001
2002556008
2009417004
2057035007
2051882011
1124491004
2009417003
1125063006
2007643022
1124491007
1119519023
2055669001
2007643020
1124491005
2042407003
1124494005
2042407002
1150075008
1119519021
2027914004
2046120030
1124491009
2002556003
2046644003
2054386003
1150075007
2009417007
2046644006
2046642007
1124491006
2002556002
2046688004
1125063010
1097633007
2009417002
2003382004
2046687013
1097633003
2006963008
2007643021
2045652013
1097633006
2025798001
2046641006
2045652014
2006941004
1124756003
1124756071
1119519005
2006941008
2046644007
2003385005
2027913002
2002556007
2069293003
1124495004
1123198002
2025798005
2007636005
1101084012
2059773001
2009417005
1124756002
2054418003
1097633005
1124491003
2044038002
2049400001
2002556008
2002556005
2066665005
2051882011
1124491004
2009417004
1101084009
2007643022
1124491007
1097633009
1124756004
2007643020
1124491005
2009417003
2046644048
2042407002
1150075008
1119519023
2057033012
2046120030
1124491009
2042407003
2044344004
2054386003
1150075007
1119519021
2014169002
2046642007
1124491006
2002556003
2044344003
1125063010
1097633007
2009417007
2026236003
2009057006
1097633004
2002556002
1123198005
2046687013
1097633003
1097633002
2003376003
2054923001
1150075005
2025798001
2003376015
2054920005
1150075004
1124756003
1069518004
2056240007
2006941003
1124756015
2044344005
2054942007
2025798003
1124756005
2027913003
2052038003
2025798004
2045087007
2044985001
2055055002
2009417006
1124756002
2066909021
1097633007
2009417007
2014169002
2046640004
1097633003
1097633002
1123198005
2016681004
1097633006
1107430003
1123198004
2052659001
2006941004
2006963008
2003376003
2052661003
2006941003
1124756015
2003376015
2056027006
2002556007
2046644007
2044038004
1125063003
2002556004
2046687015
2045144012
2007643026
1150075006
2069293003
2045087004
2026236006
2025798005
2046644008
2051614003
2026236004
2009417006
1124756002
2053763018
1123196004
2006941007
2044038002
1125066001
2007643012
2002556005
2007636015
1123196008
2055027007
1119519023
1124756004
2057879001
1123196003
2042407003
2046644048
1125070006
2003385004
1119519021
2057033012
2045087005
2003385003
2002556003
2044344004
2038577002
2055116003
2009417002
2026236003
2046640004
2055120003
1097633002
1123198005
2046688006
2055116004
1107430003
1123198004
2046639004
2052657001
2006963008
2003376003
2016681004
2051825002
1124756003
2003376004
2052661003
2027914003
1124756015
2003376015
2057762001
2027914005
1124756005
1069518004
2044755005
2007591015
2046644007
2044038004
2046120012
2009982005
2046644008
2051614003
2007643026
2054835008
2007636005
1123196005
2026236004
2045087006
2044038002
1125066001
2044346003
2007636006
2007636015
1123196008
2044346004
2045115023
1101084009
2047287002
2068684029
2057878001
1124756004
2057879001
2055113002
2046120028
2046644048
1125070006
2025343001
2042407007
2057033012
2045087005
1123196003
2050828003
2044344004
2038577002
2003385004
2050833003
2014169002
1119518018
2003385003
2046644005
2044344003
2027913004
2055116003
1124494007
2026236003
2046640004
2055116002
2044765013
1123198005
2046688006
2059593007
2054387002
1123198006
2052659001
2052657001
2045652012
1069518004
2044755005
2027914003
1124756016
2045144012
1125063002
2009982007
2052612003
2051614003
2007643026
1123196009
2057035007
1125068001
1123196006
2007785005
2007785005
2066909021
1123196004
1101084004
2046644006
2057879001
2055113002
2007643013
2027913005
1125070006
2025343001
2057878001
1123196007
2027913002
2002556007
2046644007
2045087004
1125063004
2002556004
2046687015
2051614003
1123198002
2025798005
2046644008
1123196005
2052038003
2025798004
2045087007
2044985001
2059773001
2009417005
2007636005
2053763018
2055055002
2009417006
1124756002
2066909021
1093506007
2006941007
2044038002
2026236005
1124491005
2009417003
1101084009
1125070006
1150075008
1119519023
1124756004
2045087005
1124491009
2042407003
2046644048
2038577002
1124491006
2002556003
2044344004
2027913004
1097633004
2002556002
2044344003
2046688006
1097633008
2009417002
2026236003
2046639004
1097633003
1097633002
1123198005
2016681004
1097633006
1107430003
1123198004
2052659001
2006941004
2006963008
2003376003
2052661003
2002556007
2046644007
2044038004
1125063003
2025798005
2046644008
2051614003
2026236004
2025798004
2045087007
2044346005
2046120008
2006941007
2044038002
1125066001
2007643012
2009417003
1101084009
2047287002
2025343001
1119519023
1124756004
2057879001
1123196003
2042407003
2046644048
1125070006
2003385004
1119519021
2057033012
2045087005
2003385003
2009417007
2014169002
1119518018
2055116002
2002556002
2044344003
2027913004
2059593007
2009417002
2026236003
2046640004
2055120003
1097633002
1123198005
2046688006
2055116004
1107430003
1123198004
2046639004
2052657001
1124756003
2003376004
2052661003
2027914003
1124756015
2003376015
2057762001
2027914005
1124756005
1069518004
2044755005
2007591015
2046644007
2044038004
2046120012
2009982005
2046644008
2051614003
2007643026
2054835008
1125068001
2033244008
2033244019
1124756018
2007636005
1123196005
2026236004
2045087006
2007636015
1123196008
2044346004
2045115023
1125068001
1125066001
2057327005
1124756004
1124756004
2057879001
2055113002
2046120028
2046644048
1125070006
2025343001
2042407007
2057033012
2045087005
1123196003
2050828003
2044344004
2038577002
2003385004
2050833003
2014169002
1119518018
2003385003
2046644005
2026236003
2046640004
2055116002
2044765013
1123198005
2046688006
2059593007
2054387002
1123198006
2052659001
2052657001
2045652012
2003376004
2052661003
2051825002
2046198004
2003376015
2057762001
2052711002
2052612002
1069518004
2044755005
2027914003
1124756016
2045715003
1124494003
2044038003
2003376016
2044038004
2046120012
2009982006
2007791004
2044346005
2026236006
2044346008
1125063006
2066909021
1123196004
1101084004
2046644006
1125066001
2044346003
2042407008
2046688004
2026236005
2007643012
2007636006
1125063009
2057879001
2055113002
2007643013
2027913005
1125070006
2025343001
2057878001
1123196007
2045087005
1123196003
2046120028
2057784002
2038577002
2003385004
2042407007
2057790001
2027913004
2055116003
2050833003
1124756071
2046688006
2059593007
1124494007
2003385005
2046639004
2055120003
2044765013
2003385007
2016681004
2055116004
2054387002
2027914006
2052659001
2052657001
2009982004
1124495004
2052661003
2051825002
1123198007
1124495005
2057762001
2052711002
2045652012
1101084012
2056027006
2027914005
2052612002
1119518020
1097633005
2006941005
1093506007
2002556008
1150075002
1124491004
1124491007
1124491005
1124491004
1150075008
1124491005
1124491009
1124491007
1150075007
1124491004
1124491005
1124491006
1097633007
1097633004
1097633008
1097633004
1097633005
1097633003
1097633006
1097633004
1097633005
1097633006
1124491004
1124491004
1124491005
1124491006
1097633007
1097633004
1097633005
1097633006
1097633003
1097633004
1097633005
1097633007
1097633006
1097633004
1124491004
1124491007
2006941004
1097633004
1097633005
1097633006
1150075005
1097633006
1097633004
1097633003
1097633007
1150075005
1150075004
1097633003
2006941003
1097633005
1097633006
1124491004
1124491006
1097633003
2006941004
1097633004
2006941003
1097633005
2025798003
1097633004
1124491008
1097633008
1097633003
1097633004
1124491004
1097633004
1124491005
1124491006
1124491004
1097633004
1097633007
1124491004
1150075005
1097633006
1097633004
2006941008
1097633008
2002556006
2002556008
2002556007
2002556004
1150075005
1097633004
1097633005
1124491007
1097633004
1097633006
1097633005
1150075008
1097633004
1097633005
2006941005
1097633003
1097633005
1150075004
1097633004
1150075006
1097633005
1097633006
1097633007
2025798005
1124491006
1124491004
1124491005
1097633004
1097633003
1097633005
1124491006
1124491007
1097633004
1124491004
1097633005
1124491005
1097633004
1097633005
1097633006
2006941004
2006941004
2006941005
1124491005
2006941003
1097633004
1150075005
1097633005
1097633007
1097633004
1124491005
2006941003
1097633007
1097633006
1150075005
1150075006
1097633005
1097633004
1097633005
2006941003
2025798004
1124491005
2025798004
1124491004
1124491006
1097633006
1097633005
1097633004
1097633003
1097633004
1097633005
1150075006
1150075004
1097633005
1097633006
1097633007
1097633004
2009417005
2002556006
2009417008
2009417006
1097633005
1097633004
1150075004
1097633006
2006941005
1124491008
1124491003
2025798002
1097633006
1097633004
2006941004
1097633003
1097633004
1124491006
1097633005
1124491007
2006941004
1097633003
1124491005
1097633004
1097633005
1097633006
1097633008
1097633007
1097633004
1150075008
1150075005
1097633003
1097633005
1097633004
1097633006
1150075005
1097633005
1097633007
1097633004
2025798004
2006941004
2006941003
1124491004
2006941005
1150075005
1124491005
1097633005
1124491004
1097633004
1097633005
2006941004
2025798004
1097633006
1097633005
1097633004
1097633008
1097633005
1097633008
2006941007
1097633004
1097633004
1097633005
1124491005
1150075006
1124491007
1124491005
1097633004
1124491004
1097633005
1124491007
1124491005
1124491006
1097633008
1124491005
1124491004
1124491006
1150075004
1124491005
1097633004
2025798003
2002556006
2002556005
2002556007
2002556009
1097633005
2006941005
1097633004
2025798003
1097633003
1097633005
1097633004
2006941003
1097633006
1097633005
1097633003
1097633004
1097633003
1124491004
1124491006
1150075005
1097633004
1097633005
1150075005
1124491004
1097633005
1097633004
1097633006
1097633007
2002556008
2009417006
2009417004
2002556006
1097633004
1097633006
1097633005
1124491007
1097633004
1097633005
1097633006
1097633003
1097633004
1097633003
1097633005
1124491006
1097633006
1097633008
1097633007
1097633004
1097633004
1097633003
2025798004
2006941004
1097633004
1124491006
1124491005
1097633009
1097633004
1097633005
1097633007
2006941004
2009417005
2002556005
2002556004
2009417003
2002556005
2002556006
2002556007
2009417008
1124491005
1150075007
1097633005
1124491007
1097633005
1097633004
1097633006
2006941004
2002556006
2002556005
2002556007
2009417008
1097633006
1097633004
1097633007
1097633008
2006941005
1097633004
2025798005
1097633005
1097633006
1124491005
1097633004
1097633005
2006941005
1097633004
1097633005
1097633006
2006941004
1150075006
2006941003
1097633004
1097633005
1097633004
1124491004
1124491005
1119519023
1124491004
2042407003
1119519021
2025798004
1097633005
1097633004
1097633006
2002556006
2009417005
2002556005
2009417004
2006941005
1097633003
1124491004
1124491008
2006941005
2025798003
1097633004
1097633005
1097633005
1097633004
1097633006
1097633003
2002556007
2002556009
2002556004
2002556003
2002556005
2002556006
2002556008
2002556007
2002556006
2002556005
2009417005
2009417007
2002556009
2002556002
2002556004
2009417002
2025798002
1097633006
1097633004
1097633005
2006941004
2006941003
1097633006
1097633005
1097633005
1097633008
1097633006
1097633004
2002556005
2009417006
2009417004
2009417008
1097633004
1097633006
1097633005
1124491007
2002556006
2002556007
2002556005
2009417005
2002556005
2002556008
1097633002
1097633003
2009417005
2002556005
2009417008
2002556004
2002556007
2002556005
2002556003
2002556006
1150075005
1097633005
1097633006
1124491007
1150075005
1097633006
1097633004
1124491006
2002556006
2002556008
1107430003
2002556004
2025798004
2025798003
2006941007
1097633004
1150075007
1097633004
1097633005
1124491004
2009417003
2002556005
2002556009
2009417002
1150075005
1150075006
2006941007
1124491004
2006963008
2002556004
2002556007
2025798001
2006941004
2006941003
1124491005
1124491006
2006941005
1150075006
1097633006
1124491006
1097633004
1097633006
1097633007
1124491004
1150075004
1150075005
1124491006
1097633004
1124756003
1124756015
1124756005
1097633005
1097633004
1097633006
1097633005
1097633008
2006941005
1124491004
2069501004
2069501006
1097633003
1097633005
2069501006
2075867004
1124491005
1124491007
2046644007
2046687015
1097633004
1124491003
2069501006
2069293003
1124491006
1124491004
2075867004
2046644008
1124491003
1124491006
2045087007
2007636005
1124491007
1124491006
2069503005
2069501006
2006941003
1124491004
1124756002
2069294005
1124491004
1124491006
2069294005
1124491005
2006941004
1124491004
2069501003
2044038002
1124491005
1124491006
2007636015
2069294006
1107430003
1150075005
2046687015
1124491006
1124491007
2066665005
1124491009
1124491004
1124491004
1124491005
2046644008
2036320002
1101084009
1124756004
2046644048
2057033012
1097633005
1107430003
1124491006
1097633004
1097633005
1097633006
2006941007
1097633004
1097633004
1097633007
2006941005
1097633003
1097633005
1097633006
1097633004
2025798003
2044344004
2014169002
2044344003
2026236003
1123198005
1123198004
2044344004
2003376003
1123198006
2003376003
2003376004
2003376015
1097633004
1150075005
1150075004
1124491004
2044344003
1069518004
2044344004
2044344005
2044344004
2044344003
2027913003
2045715003
1150075005
2044038004
2025798005
1150075004
1069518004
2003376003
2045144012
2044344003
1097633004
1097633006
1097633003
2045087004
2051614003
2003376015
2044346005
1123196005
1150075007
2044985001
2053763018
1097633005
1125068001
2066909021
1125066001
1123196008
2003376003
2003376004
2026236005
1123198004
1125068001
1125066001
2073562002
2073562003
1097633004
1097633005
2047287002
2057879001
1097633005
1125070006
2045087005
1097633009
2038577002
1123198006
1119518018
2027913004
1150075005
2046640004
2046688006
2046639004
2016681004
1097633008
2025798005
2045087005
1097633004
1097633005
2052659001
2052661003
2057762001
1097633005
1097633004
1150075005
1097633004
1069518004
1097633005
1097633006
2044755005
2014169002
2056027006
2053838024
1124494003
1097633005
1124491006
2046120012
1125063002
2047287002
1124756015
1125063003
1097633004
1097633006
2007643026
1097633008
2026236006
1069518004
2003376015
2026236004
1097633006
1097633005
2046120008
2006941007
1125068001
1124491005
1125066001
2075867005
1123196006
1123196004
2044346003
2044346004
2003376004
2003376003
2003376015
1123196005
1097633004
2007643012
1097633005
2045087004
2003376015
1123198004
1123196004
1123198005
1125068001
2055027007
2068684032
2068684029
2055113002
2046644008
1150075005
2025343001
1123196004
1123196003
2003385004
2003385003
2046644007
2055116003
2055116002
2059593007
1097633004
1097633005
1150075004
1097633003
2055116003
2055120003
2055116002
2055116004
1097633005
1097633006
1097633004
1150075004
2052657001
2055116002
2046644007
2055116003
1097633005
2006941004
1097633003
2006941005
1097633004
1097633005
1097633006
2006941005
1097633006
1097633003
1097633004
1097633005
2038577002
2051825002
2003376003
2052711002
2027914003
2027914005
2026236004
2007591015
1097633005
1097633004
1097633006
2006941005
2006941007
1097633005
2006941005
2047287002
1097633005
1097633004
1097633003
1097633006
1097633004
1097633005
2025798004
1097633003
1097633006
1097633004
2044038003
1097633005
2009982006
2009982007
2009982005
1124491006
1097633005
1097633004
1124491005
1150075006
1123196003
1123196008
1123196009
2044346008
2054835008
1101084013
1124756004
2006941004
1097633004
2006941004
1097633003
2047287002
1097633004
1097633005
1097633007
1124756015
1097633007
2025798005
2045087006
2007785005
2006941004
1101084004
1097633006
2042407008
1097633004
1097633005
1097633007
2047287002
2006941005
1097633005
1097633006
1097633004
1097633004
1097633005
2045087005
1097633003
1097633004
2006941005
1097633006
1097633005
1097633006
1097633005
1097633004
1097633003
1097633005
2025798005
2007636013
2006963008
1124491005
1097633004
1124491006
1124491004
1097633005
2045087005
1097633004
1097633007
1097633005
1097633004
1097633006
1097633007
1097633005
1097633004
2045087005
2044038004
1097633004
1097633006
1097633007
2006941004
1097633004
1097633006
1097633005
2044038003
2025798003
1097633004
2007636006
1097633005
2045115023
2045567001
2046644008
2046687014
1097633005
1097633004
1097633006
1150075004
1097633004
1097633007
1097633008
1124491007
1124756003
2045087005
1097633004
2045087007
1097633006
2045087005
1097633003
2045087006
1097633005
2006941003
2025798005
2025343001
2007643013
2057878001
2006941005
2044985001
2044038004
1097633005
2044038003
2006941003
1097633005
1097633004
1150075005
1097633007
1097633004
1097633005
2046120028
2042407007
1150075005
2044038004
1150075004
2044038003
1097633004
2006941005
1097633005
1097633006
1097633004
1097633005
1097633003
2045087004
1097633004
1097633005
2045087006
1150075005
2050828003
2050833003
2046640004
2047287002
1097633005
1097633007
1150075005
2046644005
1097633004
1150075004
1150075006
1097633003
1097633005
1097633003
1150075004
2006941004
2055116002
1097633005
2025798005
1097633003
1124494007
1097633005
1097633003
1097633006
1097633004
1097633006
1097633005
1097633007
1097633005
1097633004
1097633006
1097633008
1097633004
1097633003
1097633005
2044765013
1097633005
1097633004
2025798004
2006941004
2054387002
1124491005
1097633005
2009982004
1124491007
1124756004
1097633005
1124491006
1150075005
1097633005
1150075007
1150075004
1097633005
1097633004
1097633007
1097633003
1123198007
2045652012
2046198004
1123198004
1097633004
1097633005
2006941003
2006941005
1097633004
2006941004
2045087007
2052612002
1097633005
1124756004
1124756016
1097633004
1150075006
1150075005
2045087004
1097633004
2003376004
2003376003
2044344005
2045133012
1125068001
2073562002
2073562003
2073562001
1097633003
1097633004
1097633005
1124491006
1097633004
1097633005
2006941004
1124491005
1097633005
1097633004
1097633003
1150075004
2003376015
2003376003
2003376004
2003376016
1097633005
2006941005
1097633003
1097633006
1097633004
1097633005
2006941004
1097633007
1097633003
1097633004
2007791004
2045087005
1097633004
1097633005
2052612003
1150075006
1097633005
1097633004
1150075007
1124491005
1097633007
1097633005
1097633004
1150075004
1097633004
1097633005
1097633007
1097633006
1124756004
1097633005
1124756003
1150075004
1097633006
1097633004
1097633005
2045087005
1097633007
1097633004
1097633005
2025798002
1097633006
1097633007
1124491006
1097633004
1097633005
1097633004
2006941004
1150075005
2053678001
2057035007
1125063006
2055669001
1097633005
1097633007
1097633003
1097633004
1124494005
1124494007
1097633004
2006941005
2009982005
1124494005
1124756004
1124756015
1123196006
1123196005
1123198005
2027914004
1097633004
1097633006
2045087005
1097633005
1097633004
2045087005
1097633006
2045087004
1150075006
2046644008
2046644003
1124756015
2046644007
1097633005
2046644006
2046687014
1097633005
1097633004
2025798004
1097633006
2046688004
1097633005
2045087004
1101084013
1125068001
2073562002
2073562003
2069501002
1150075007
1124491005
1124491007
1150075006
1125063009
1097633007
1097633005
1097633006
1124756005
2045087005
1097633007
1097633004
1097633007
1097633006
2025798004
1097633009
1097633008
1097633006
1097633004
1097633005
1123196006
2044346004
1123196004
2003382004
1097633004
1097633005
1097633007
2025798003
1097633005
2006941004
2044038003
2009982006
1097633005
2025798005
2025798003
2025798004
1124491006
1124491005
1124491004
1150075005
1097633006
1097633008
1097633004
1124756004
2007643021
1097633004
2046641006
1097633005
2003376004
2003376003
2014169002
2027914003
1097633005
1097633006
1150075005
1097633004
1097633005
2006941005
1150075007
2044038003
1124491007
1124491005
1124491006
1124491008
1097633007
1097633004
1097633006
1097633003
1097633004
1097633005
1150075006
2025798005
1097633004
1124491007
1124491004
1124491006
2003376016
2003376015
2003376004
1123198005
2003376016
2003376004
1123196006
2027913005
1123196005
1123196007
1123196006
2002556005
1097633003
1097633007
1097633006
2007643012
1097633005
2057784002
2057790001
1124491005
2038961011
1097633005
1124756071
2052684001
1107430003
1097633005
1097633004
1097633008
2038961011
1097633005
1124756071
2052684001
2007643026
2007643012
1150075004
2025798003
2003385003
2003385004
2003385005
2003385007
1123196005
1123196007
1123196004
2027914006
1097633004
2025798003
1124491006
2045087005
1097633006
1124495004
1150075007
1124495005
1150075005
1097633004
2009982004
1097633003
1097633006
1097633005
1150075006
2052661003
1097633005
1125063003
2046644007
1101084012
1097633007
1097633005
1124756003
1124756004
1119518018
1119518019
1097633006
1119518020
1124756003
1124494007
2025798005
1097633005
1097633005
1097633004
2006941004
2054418003
2027918004
1119518010
2026236004
2026236006
2044038004
2049400001
1097633007
1150075006
1097633004
1097633006
1097633005
1125063005
1097633007
1097633005
1097633006
1097633004
1097633005
1097633004
1150075004
1124756004
1119518019
1119518020
1119518018
1119518010
1097633004
1097633005
2051882011
2044985001
2007643022
2007643020
1097633005
1097633006
1097633005
1124491006
1150075004
1124491005
1124756003
1097633005
2042407002
2025798003
1097633005
1097633004
2006941004
1097633006
1097633005
2045087004
1150075004
2046120030
1097633004
1097633005
2006941005
2044038003
2003376003
2003376004
2003376015
2003376016
2054386003
1123198005
1123196004
2003376003
1124491005
1150075005
2046642007
1097633004
2006941004
1097633005
1097633004
1150075007
1119518020
1125063010
1097633006
1125063009
2026236005
2009057006
2026236004
2026236003
1097633004
1150075004
2050204002
1097633005
1097633005
1097633003
2025798005
1097633004
1097633004
2046687013
1150075006
2044038004
2045652013
1123196006
2045652012
2045652014
2054923001
2054920005
2056240007
2054942007
1124494005
1097633004
1150075004
1124491006
2051784013
1119519005
2026236005
2027914004
1097633006
1097633004
1097633005
2025798003
1097633004
1097633005
1101084006
1097633006
1123196003
2027914004
2027913005
2027914005
1125068001
1125066001
2073562003
2073562002
2027913002
2027913003
2027913005
1123198006
1124494005
1097633007
1125063004
1150075006
1097633005
2007643021
2050204004
1124491004
1101084013
1124491007
1123198002
2052038003
1097633005
1124491005
1124491006
1150075004
2006941004
2059773001
2059890001
2055055002
2006941004
2059773001
2059890001
2055055002
2006941004
2059773001
2059890001
2055055002
