HTTP/1.1 200 OK
Content-Type: text/xml
Content-Length: 1901
Connection: keep-alive
Date: Thu, 28 Sep 2017 15:28:25 GMT
Last-Modified: Mon, 05 Dec 2016 13:04:44 GMT
ETag: "40598e7146de804feaadf126c4bd90c1"
Accept-Ranges: bytes
Server: AmazonS3
Age: 6038
X-Cache: Hit from cloudfront
Via: 1.1 f0a29e414497caed09bb87890b43388d.cloudfront.net (CloudFront)
X-Amz-Cf-Id: OTOzszoG7Jfl63JDdWINnTRrIL0n82jckJfN6ht0D7iiNpOTr4EwrA==

