pUserName,pPassword
User066,password
User067,password
User068,password
User069,password
User070,password
User071,password
User072,password
User073,password
User149,password
User150,password
User151,password
User152,password
User153,password
User154,password
User162,password
User163,password
User164,password
User165,password
User166,password
User167,password
User168,password
User169,password
User170,password
User171,password
