"{\n"
"   "availabilityRequest":{\n"
"      "viewName":"US BOPIS",\n"
"      "availabilityCriteria":{\n"
"         "itemNames":{\n"
"            "itemName":[\n"
"               "2003376003"\n"
"            ]\n"
"         },\n"
"         "facilityNames":{\n"
"            "facilityName":[\n"
"               "4260",\n"
"               "4265",\n"
"               "4286",\n"
"               "4288",\n"
"               "4292",\n"
"               "4331",\n"
"               "4344",\n"
"               "4359",\n"
"               "1836",\n"
"               "1840",\n"
"               "1841",\n"
"               "1843",\n"
"               "1845",\n"
"               "1846",\n"
"               "1847",\n"
"               "1850",\n"
"               "1851",\n"
"               "1855",\n"
"               "1857",\n"
"               "1859",\n"
"               "1860",\n"
"               "1861",\n"
"               "1864",\n"
"               "1865",\n"
"               "1870"\n"
"            ]\n"
"         }\n"
"      }\n"
"   }\n"
"}"
