1255
{"WorkspaceViewObjectList":{"elements":{"collection":{"id":1427,"isDefault":true,"metadata":{"actionCodes":"","memos":""},"name":"Untitled 1049","screenVersion":2,"solutionId":42,"success":true,"tiles":{"collection":[{"color":"#002E5F","content":"null","header":"null","icon":"default-icon","id":1071,"isShowIcon":true,"isShowTitle":true,"location":"{\"left\":397,\"top\":25}","metadata":{"actionCodes":"","memos":""},"scale":"small","screenOptionsClass":"Webtop.utils.CompatibilityScreen","screenOptionsScreenCfg":"{\"title\":\"Manage Payment Transactions\",\"icon\":\"default-icon\",\"color\":\"#002E5F\",\"mode\":0,\"url\":\"\/doms\/dom\/selling\/payment\/ViewPaymentTransactionList.jsflps\"}","screenOptionsViewCfg":"null","screenOptionsWindowCfg":"null","success":false,"tileClass":"Webtop.view.Tile","title":"Manage Payment Transactions - Payment Transactions","viewId":0,"workspaceId":1427},{"color":"blue","icon":"default-icon","id":1038,"isShowIcon":false,"isShowTitle":false,"location":"{\"left\":25,\"top\":149}","metadata":{"actionCodes":"","memos":""},"scale":"large","screenOptionsScreenCfg":"null","screenOptionsViewCfg":"null","screenOptionsWindowCfg":"null","success":false,"tileClass":"DS.view.tile.ItemTile","title":"NOT-USED","viewId":0,"workspaceId":1427},{"color":"blue","icon":"default-icon","id":1043,"isShowIcon":false,"isShowTitle":false,"location":"{\"left\":149,\"top\":149}","metadata":{"actionCodes":"","memos":""},"scale":"large","screenOptionsScreenCfg":"null","screenOptionsViewCfg":"null","screenOptionsWindowCfg":"null","success":false,"tileClass":"DS.view.tile.OrderTile","title":"NOT-USED","viewId":0,"workspaceId":1427},{"color":"#002E5F","content":"null","header":"null","icon":"toolbox","id":1125,"isShowIcon":true,"isShowTitle":true,"location":"{\"left\":25,\"top\":25}","metadata":{"actionCodes":"","memos":""},"scale":"small","screenOptionsClass":"Webtop.utils.CompatibilityScreen","screenOptionsScreenCfg":"{\"title\":\"Dev Tools\",\"icon\":\"toolbox\",\"color\":\"#002E5F\",\"mode\":0,\"url\":\"\/lcom\/admin\/jsp\/DevTools.jsp\"}","screenOptionsViewCfg":"null","screenOptionsWindowCfg":"null","success":false,"tileClass":"Webtop.view.Tile","title":"Dev Tools","viewId":0,"workspaceId":1427},{"color":"#8AF03A","content":"null","header":"null","icon":"default-icon","id":1057,"isShowIcon":true,"isShowTitle":true,"location":"{\"left\":273,\"top\":25}","metadata":{"actionCodes":"","memos":""},"scale":"small","screenOptionsClass":"INV.screen.CommerceViewScreen","screenOptionsScreenCfg":"{\"title\":\"Manage Availability\",\"icon\":\"default-icon\",\"color\":\"#8AF03A\",\"mode\":0}","screenOptionsViewCfg":"{}","screenOptionsWindowCfg":"{\"allowPinAsTile\":true}","success":false,"tileClass":"Webtop.view.Tile","title":"Manage Availability","viewId":0,"workspaceId":1427},{"color":"blue","icon":"default-icon","id":1078,"isShowIcon":false,"isShowTitle":false,"location":"{\"left\":627,\"top\":92}","metadata":{"actionCodes":"","memos":""},"scale":"large","screenOptionsScreenCfg":"null","screenOptionsViewCfg":"null","screenOptionsWindowCfg":"null","success":false,"tileClass":"RLM.view.tile.ReturnTile","title":"NOT-USED","viewId":0,"workspaceId":1427},{"color":"#002E5F","content":"null","header":"null","icon":"default-icon","id":1044,"isShowIcon":true,"isShowTitle":true,"location":"{\"left\":149,\"top\":25}","metadata":{"actionCodes":"","memos":""},"scale":"small","screenOptionsClass":"INV.screen.PerpetualInventoryScreen","screenOptionsScreenCfg":"{\"title\":\"Inventory By Facility\",\"icon\":\"default-icon\",\"color\":\"#002E5F\",\"mode\":0}","screenOptionsViewCfg":"{}","screenOptionsWindowCfg":"{\"allowPinAsTile\":true}","success":false,"tileClass":"Webtop.view.Tile","title":"Inventory By Facility","viewId":0,"workspaceId":1427},{"color":"#002E5F","content":"null","header":"null","icon":"default-icon","id":1090,"isShowIcon":true,"isShowTitle":true,"location":"{\"left\":397,\"top\":149}","metadata":{"actionCodes":"","memos":""},"scale":"small","screenOptionsClass":"Webtop.utils.CompatibilityScreen","screenOptionsScreenCfg":"{\"title\":\"Sales Orders\",\"icon\":\"default-icon\",\"color\":\"#002E5F\",\"mode\":0,\"url\":\"\/olm\/salesorder\/StoreOrderList.jsflps\"}","screenOptionsViewCfg":"null","screenOptionsWindowCfg":"null","success":false,"tileClass":"Webtop.view.Tile","title":"Sales Orders","viewId":0,"workspaceId":1427}]},"uclUserId":1013,"viewId":0,"wallpaper":"lightblue.jpg"}},"metadata":{"actionCodes":"","memos":{"collection":{"actionCodes":"","code":0,"group":"","memoActions":"","message":"1 record(s) found","messageParameters":"","priority":"NORMAL","severity":"INFO"}}},"success":true,"total":1,"viewId":0}}
0

