HTTP/1.1 200 OK
Content-Type: text/xml
Content-Length: 1901
Connection: keep-alive
Date: Thu, 28 Sep 2017 15:28:25 GMT
Last-Modified: Mon, 05 Dec 2016 13:04:44 GMT
ETag: "40598e7146de804feaadf126c4bd90c1"
Accept-Ranges: bytes
Server: AmazonS3
Age: 6042
X-Cache: Hit from cloudfront
Via: 1.1 d694b48d7055cba47f14e7378d988c2a.cloudfront.net (CloudFront)
X-Amz-Cf-Id: uWAi8osJ2KQY_Gz4aZWsj99IZwLBXuApNOXcBhpG2bhPrKXKNL31ig==

