HTTP/1.1 200 OK
Content-Type: text/xml
Content-Length: 1901
Connection: keep-alive
Date: Thu, 28 Sep 2017 15:28:25 GMT
Last-Modified: Mon, 05 Dec 2016 13:04:44 GMT
ETag: "40598e7146de804feaadf126c4bd90c1"
Accept-Ranges: bytes
Server: AmazonS3
Age: 5998
X-Cache: Hit from cloudfront
Via: 1.1 681e14c46d92209afdcd71825174b409.cloudfront.net (CloudFront)
X-Amz-Cf-Id: 3KvpYpcOtLLrn0gswLCOPNAyW-3ooGkdGNsPgtb5l1bUfGCPq88JWQ==

