"{\n"
"   "availabilityRequest":{\n"
"      "viewName":"US BOPIS",\n"
"      "availabilityCriteria":{\n"
"         "itemNames":{\n"
"            "itemName":[\n"
"               "1097633005"\n"
"            ]\n"
"         },\n"
"         "facilityNames":{\n"
"            "facilityName":[\n"
"               "0715",\n"
"               "0738",\n"
"               "0752",\n"
"               "0771",\n"
"               "1070",\n"
"               "1073",\n"
"               "1075",\n"
"               "1076",\n"
"               "1079",\n"
"               "1080",\n"
"               "1083",\n"
"               "1084",\n"
"               "1085",\n"
"               "1086",\n"
"               "1088",\n"
"               "1089",\n"
"               "1091",\n"
"               "1092",\n"
"               "1094",\n"
"               "1096",\n"
"               "1097",\n"
"               "1100",\n"
"               "1102",\n"
"               "1103",\n"
"               "1106"\n"
"            ]\n"
"         }\n"
"      }\n"
"   }\n"
"}"
