Start auto log messages stack - Iteration 1.	[MsgId: MMSG-10545]
Starting action Action.	[MsgId: MMSG-15919]
Action.c(4): web_url("ping.jsp_3") started  	[MsgId: MMSG-26355]
Action.c(4): Notify: Parameter Substitution: parameter "pURL" =  "http://eom-ca-perf.tcphq.tcpcorp.local.com:30000"	[MsgId: MMSG-13992]
Action.c(4): Notify: Parameter Substitution: parameter "pURL" =  "http://eom-ca-perf.tcphq.tcpcorp.local.com:30000"	[MsgId: MMSG-13992]
Action.c(4): web_url("ping.jsp_3") was successful, 4664 body bytes, 226 header bytes  	[MsgId: MMSG-26386]
Action.c(16): Notify: Parameter Substitution: parameter "sTestCaseName" =  "TCP_06_ECOM_CA_View_Audit_Order_History"	[MsgId: MMSG-13992]
Action.c(16): Notify: Transaction "TCP_06_ECOM_CA_View_Audit_Order_History_03_Open_Sales_Order" started.	[MsgId: MMSG-16999]
Action.c(18): web_custom_request("windows") started  	[MsgId: MMSG-26355]
Action.c(18): Notify: Parameter Substitution: parameter "pURL" =  "http://eom-ca-perf.tcphq.tcpcorp.local.com:30000"	[MsgId: MMSG-13992]
Action.c(18): Notify: Parameter Substitution: parameter "pURL" =  "http://eom-ca-perf.tcphq.tcpcorp.local.com:30000"	[MsgId: MMSG-13992]
Action.c(18): Error -26547: Authentication required, please use web_set_user, e.g. web_set_user("user", "password", "host:port");, Snapshot Info [MSH 1 7]  	[MsgId: MERR-26547]
Action.c(18): Error -26630: HTTP Status-Code=401 (Unauthorized) for "http://eom-ca-perf.tcphq.tcpcorp.local.com:30000/services/rest/lps/WindowLifecycleService/windows?windowId=screen-14271268&regionId=-1&businessUnitId=-1", Snapshot Info [MSH 1 7]  	[MsgId: MERR-26630]
End auto log messages stack.	[MsgId: MMSG-10544]


Start auto log messages stack - Iteration 2.	[MsgId: MMSG-10545]
Starting action Action.	[MsgId: MMSG-15919]
Action.c(4): web_url("ping.jsp_3") started  	[MsgId: MMSG-26355]
Action.c(4): Notify: Parameter Substitution: parameter "pURL" =  "http://eom-ca-perf.tcphq.tcpcorp.local.com:30000"	[MsgId: MMSG-13992]
Action.c(4): Notify: Parameter Substitution: parameter "pURL" =  "http://eom-ca-perf.tcphq.tcpcorp.local.com:30000"	[MsgId: MMSG-13992]
Action.c(4): web_url("ping.jsp_3") was successful, 4664 body bytes, 226 header bytes  	[MsgId: MMSG-26386]
Action.c(16): Notify: Parameter Substitution: parameter "sTestCaseName" =  "TCP_06_ECOM_CA_View_Audit_Order_History"	[MsgId: MMSG-13992]
Action.c(16): Notify: Transaction "TCP_06_ECOM_CA_View_Audit_Order_History_03_Open_Sales_Order" started.	[MsgId: MMSG-16999]
Action.c(18): web_custom_request("windows") started  	[MsgId: MMSG-26355]
Action.c(18): Notify: Parameter Substitution: parameter "pURL" =  "http://eom-ca-perf.tcphq.tcpcorp.local.com:30000"	[MsgId: MMSG-13992]
Action.c(18): Notify: Parameter Substitution: parameter "pURL" =  "http://eom-ca-perf.tcphq.tcpcorp.local.com:30000"	[MsgId: MMSG-13992]
Action.c(18): Error -26547: Authentication required, please use web_set_user, e.g. web_set_user("user", "password", "host:port");, Snapshot Info [MSH 2 7]  	[MsgId: MERR-26547]
Action.c(18): Error -26630: HTTP Status-Code=401 (Unauthorized) for "http://eom-ca-perf.tcphq.tcpcorp.local.com:30000/services/rest/lps/WindowLifecycleService/windows?windowId=screen-14271268&regionId=-1&businessUnitId=-1", Snapshot Info [MSH 2 7]  	[MsgId: MERR-26630]
End auto log messages stack.	[MsgId: MMSG-10544]


Start auto log messages stack - Iteration 3.	[MsgId: MMSG-10545]
Starting action Action.	[MsgId: MMSG-15919]
Action.c(4): web_url("ping.jsp_3") started  	[MsgId: MMSG-26355]
Action.c(4): Notify: Parameter Substitution: parameter "pURL" =  "http://eom-ca-perf.tcphq.tcpcorp.local.com:30000"	[MsgId: MMSG-13992]
Action.c(4): Notify: Parameter Substitution: parameter "pURL" =  "http://eom-ca-perf.tcphq.tcpcorp.local.com:30000"	[MsgId: MMSG-13992]
Action.c(4): web_url("ping.jsp_3") was successful, 4664 body bytes, 226 header bytes  	[MsgId: MMSG-26386]
Action.c(16): Notify: Parameter Substitution: parameter "sTestCaseName" =  "TCP_06_ECOM_CA_View_Audit_Order_History"	[MsgId: MMSG-13992]
Action.c(16): Notify: Transaction "TCP_06_ECOM_CA_View_Audit_Order_History_03_Open_Sales_Order" started.	[MsgId: MMSG-16999]
Action.c(18): web_custom_request("windows") started  	[MsgId: MMSG-26355]
Action.c(18): Notify: Parameter Substitution: parameter "pURL" =  "http://eom-ca-perf.tcphq.tcpcorp.local.com:30000"	[MsgId: MMSG-13992]
Action.c(18): Notify: Parameter Substitution: parameter "pURL" =  "http://eom-ca-perf.tcphq.tcpcorp.local.com:30000"	[MsgId: MMSG-13992]
Action.c(18): Error -26547: Authentication required, please use web_set_user, e.g. web_set_user("user", "password", "host:port");, Snapshot Info [MSH 3 7]  	[MsgId: MERR-26547]
Action.c(18): Error -26630: HTTP Status-Code=401 (Unauthorized) for "http://eom-ca-perf.tcphq.tcpcorp.local.com:30000/services/rest/lps/WindowLifecycleService/windows?windowId=screen-14271268&regionId=-1&businessUnitId=-1", Snapshot Info [MSH 3 7]  	[MsgId: MERR-26630]
End auto log messages stack.	[MsgId: MMSG-10544]


Start auto log messages stack - Iteration 4.	[MsgId: MMSG-10545]
Starting action Action.	[MsgId: MMSG-15919]
Action.c(4): web_url("ping.jsp_3") started  	[MsgId: MMSG-26355]
Action.c(4): Notify: Parameter Substitution: parameter "pURL" =  "http://eom-ca-perf.tcphq.tcpcorp.local.com:30000"	[MsgId: MMSG-13992]
Action.c(4): Notify: Parameter Substitution: parameter "pURL" =  "http://eom-ca-perf.tcphq.tcpcorp.local.com:30000"	[MsgId: MMSG-13992]
Action.c(4): web_url("ping.jsp_3") was successful, 4664 body bytes, 226 header bytes  	[MsgId: MMSG-26386]
Action.c(16): Notify: Parameter Substitution: parameter "sTestCaseName" =  "TCP_06_ECOM_CA_View_Audit_Order_History"	[MsgId: MMSG-13992]
Action.c(16): Notify: Transaction "TCP_06_ECOM_CA_View_Audit_Order_History_03_Open_Sales_Order" started.	[MsgId: MMSG-16999]
Action.c(18): web_custom_request("windows") started  	[MsgId: MMSG-26355]
Action.c(18): Notify: Parameter Substitution: parameter "pURL" =  "http://eom-ca-perf.tcphq.tcpcorp.local.com:30000"	[MsgId: MMSG-13992]
Action.c(18): Notify: Parameter Substitution: parameter "pURL" =  "http://eom-ca-perf.tcphq.tcpcorp.local.com:30000"	[MsgId: MMSG-13992]
Action.c(18): Error -26547: Authentication required, please use web_set_user, e.g. web_set_user("user", "password", "host:port");, Snapshot Info [MSH 4 7]  	[MsgId: MERR-26547]
Action.c(18): Error -26630: HTTP Status-Code=401 (Unauthorized) for "http://eom-ca-perf.tcphq.tcpcorp.local.com:30000/services/rest/lps/WindowLifecycleService/windows?windowId=screen-14271268&regionId=-1&businessUnitId=-1", Snapshot Info [MSH 4 7]  	[MsgId: MERR-26630]
End auto log messages stack.	[MsgId: MMSG-10544]


Start auto log messages stack - Iteration 5.	[MsgId: MMSG-10545]
Starting action Action.	[MsgId: MMSG-15919]
Action.c(4): web_url("ping.jsp_3") started  	[MsgId: MMSG-26355]
Action.c(4): Notify: Parameter Substitution: parameter "pURL" =  "http://eom-ca-perf.tcphq.tcpcorp.local.com:30000"	[MsgId: MMSG-13992]
Action.c(4): Notify: Parameter Substitution: parameter "pURL" =  "http://eom-ca-perf.tcphq.tcpcorp.local.com:30000"	[MsgId: MMSG-13992]
Action.c(4): web_url("ping.jsp_3") was successful, 4660 body bytes, 226 header bytes  	[MsgId: MMSG-26386]
Action.c(16): Notify: Parameter Substitution: parameter "sTestCaseName" =  "TCP_06_ECOM_CA_View_Audit_Order_History"	[MsgId: MMSG-13992]
Action.c(16): Notify: Transaction "TCP_06_ECOM_CA_View_Audit_Order_History_03_Open_Sales_Order" started.	[MsgId: MMSG-16999]
Action.c(18): web_custom_request("windows") started  	[MsgId: MMSG-26355]
Action.c(18): Notify: Parameter Substitution: parameter "pURL" =  "http://eom-ca-perf.tcphq.tcpcorp.local.com:30000"	[MsgId: MMSG-13992]
Action.c(18): Notify: Parameter Substitution: parameter "pURL" =  "http://eom-ca-perf.tcphq.tcpcorp.local.com:30000"	[MsgId: MMSG-13992]
Action.c(18): Error -26547: Authentication required, please use web_set_user, e.g. web_set_user("user", "password", "host:port");, Snapshot Info [MSH 5 7]  	[MsgId: MERR-26547]
Action.c(18): Error -26630: HTTP Status-Code=401 (Unauthorized) for "http://eom-ca-perf.tcphq.tcpcorp.local.com:30000/services/rest/lps/WindowLifecycleService/windows?windowId=screen-14271268&regionId=-1&businessUnitId=-1", Snapshot Info [MSH 5 7]  	[MsgId: MERR-26630]
End auto log messages stack.	[MsgId: MMSG-10544]


Start auto log messages stack - Iteration 6.	[MsgId: MMSG-10545]
Starting action Action.	[MsgId: MMSG-15919]
Action.c(4): web_url("ping.jsp_3") started  	[MsgId: MMSG-26355]
Action.c(4): Notify: Parameter Substitution: parameter "pURL" =  "http://eom-ca-perf.tcphq.tcpcorp.local.com:30000"	[MsgId: MMSG-13992]
Action.c(4): Notify: Parameter Substitution: parameter "pURL" =  "http://eom-ca-perf.tcphq.tcpcorp.local.com:30000"	[MsgId: MMSG-13992]
Action.c(4): web_url("ping.jsp_3") was successful, 4664 body bytes, 226 header bytes  	[MsgId: MMSG-26386]
Action.c(16): Notify: Parameter Substitution: parameter "sTestCaseName" =  "TCP_06_ECOM_CA_View_Audit_Order_History"	[MsgId: MMSG-13992]
Action.c(16): Notify: Transaction "TCP_06_ECOM_CA_View_Audit_Order_History_03_Open_Sales_Order" started.	[MsgId: MMSG-16999]
Action.c(18): web_custom_request("windows") started  	[MsgId: MMSG-26355]
Action.c(18): Notify: Parameter Substitution: parameter "pURL" =  "http://eom-ca-perf.tcphq.tcpcorp.local.com:30000"	[MsgId: MMSG-13992]
Action.c(18): Notify: Parameter Substitution: parameter "pURL" =  "http://eom-ca-perf.tcphq.tcpcorp.local.com:30000"	[MsgId: MMSG-13992]
Action.c(18): Error -26547: Authentication required, please use web_set_user, e.g. web_set_user("user", "password", "host:port");, Snapshot Info [MSH 6 7]  	[MsgId: MERR-26547]
Action.c(18): Error -26630: HTTP Status-Code=401 (Unauthorized) for "http://eom-ca-perf.tcphq.tcpcorp.local.com:30000/services/rest/lps/WindowLifecycleService/windows?windowId=screen-14271268&regionId=-1&businessUnitId=-1", Snapshot Info [MSH 6 7]  	[MsgId: MERR-26630]
End auto log messages stack.	[MsgId: MMSG-10544]


Start auto log messages stack - Iteration 7.	[MsgId: MMSG-10545]
Starting action Action.	[MsgId: MMSG-15919]
Action.c(4): web_url("ping.jsp_3") started  	[MsgId: MMSG-26355]
Action.c(4): Notify: Parameter Substitution: parameter "pURL" =  "http://eom-ca-perf.tcphq.tcpcorp.local.com:30000"	[MsgId: MMSG-13992]
Action.c(4): Notify: Parameter Substitution: parameter "pURL" =  "http://eom-ca-perf.tcphq.tcpcorp.local.com:30000"	[MsgId: MMSG-13992]
Action.c(4): web_url("ping.jsp_3") was successful, 4660 body bytes, 226 header bytes  	[MsgId: MMSG-26386]
Action.c(16): Notify: Parameter Substitution: parameter "sTestCaseName" =  "TCP_06_ECOM_CA_View_Audit_Order_History"	[MsgId: MMSG-13992]
Action.c(16): Notify: Transaction "TCP_06_ECOM_CA_View_Audit_Order_History_03_Open_Sales_Order" started.	[MsgId: MMSG-16999]
Action.c(18): web_custom_request("windows") started  	[MsgId: MMSG-26355]
Action.c(18): Notify: Parameter Substitution: parameter "pURL" =  "http://eom-ca-perf.tcphq.tcpcorp.local.com:30000"	[MsgId: MMSG-13992]
Action.c(18): Notify: Parameter Substitution: parameter "pURL" =  "http://eom-ca-perf.tcphq.tcpcorp.local.com:30000"	[MsgId: MMSG-13992]
Action.c(18): Error -26547: Authentication required, please use web_set_user, e.g. web_set_user("user", "password", "host:port");, Snapshot Info [MSH 7 7]  	[MsgId: MERR-26547]
Action.c(18): Error -26630: HTTP Status-Code=401 (Unauthorized) for "http://eom-ca-perf.tcphq.tcpcorp.local.com:30000/services/rest/lps/WindowLifecycleService/windows?windowId=screen-14271268&regionId=-1&businessUnitId=-1", Snapshot Info [MSH 7 7]  	[MsgId: MERR-26630]
End auto log messages stack.	[MsgId: MMSG-10544]


Start auto log messages stack - Iteration 8.	[MsgId: MMSG-10545]
Starting action Action.	[MsgId: MMSG-15919]
Action.c(4): web_url("ping.jsp_3") started  	[MsgId: MMSG-26355]
Action.c(4): Notify: Parameter Substitution: parameter "pURL" =  "http://eom-ca-perf.tcphq.tcpcorp.local.com:30000"	[MsgId: MMSG-13992]
Action.c(4): Notify: Parameter Substitution: parameter "pURL" =  "http://eom-ca-perf.tcphq.tcpcorp.local.com:30000"	[MsgId: MMSG-13992]
Action.c(4): web_url("ping.jsp_3") was successful, 4660 body bytes, 226 header bytes  	[MsgId: MMSG-26386]
Action.c(16): Notify: Parameter Substitution: parameter "sTestCaseName" =  "TCP_06_ECOM_CA_View_Audit_Order_History"	[MsgId: MMSG-13992]
Action.c(16): Notify: Transaction "TCP_06_ECOM_CA_View_Audit_Order_History_03_Open_Sales_Order" started.	[MsgId: MMSG-16999]
Action.c(18): web_custom_request("windows") started  	[MsgId: MMSG-26355]
Action.c(18): Notify: Parameter Substitution: parameter "pURL" =  "http://eom-ca-perf.tcphq.tcpcorp.local.com:30000"	[MsgId: MMSG-13992]
Action.c(18): Notify: Parameter Substitution: parameter "pURL" =  "http://eom-ca-perf.tcphq.tcpcorp.local.com:30000"	[MsgId: MMSG-13992]
Action.c(18): Error -26547: Authentication required, please use web_set_user, e.g. web_set_user("user", "password", "host:port");, Snapshot Info [MSH 8 7]  	[MsgId: MERR-26547]
Action.c(18): Error -26630: HTTP Status-Code=401 (Unauthorized) for "http://eom-ca-perf.tcphq.tcpcorp.local.com:30000/services/rest/lps/WindowLifecycleService/windows?windowId=screen-14271268&regionId=-1&businessUnitId=-1", Snapshot Info [MSH 8 7]  	[MsgId: MERR-26630]
End auto log messages stack.	[MsgId: MMSG-10544]


Start auto log messages stack - Iteration 9.	[MsgId: MMSG-10545]
Starting action Action.	[MsgId: MMSG-15919]
Action.c(4): web_url("ping.jsp_3") started  	[MsgId: MMSG-26355]
Action.c(4): Notify: Parameter Substitution: parameter "pURL" =  "http://eom-ca-perf.tcphq.tcpcorp.local.com:30000"	[MsgId: MMSG-13992]
Action.c(4): Notify: Parameter Substitution: parameter "pURL" =  "http://eom-ca-perf.tcphq.tcpcorp.local.com:30000"	[MsgId: MMSG-13992]
Action.c(4): web_url("ping.jsp_3") was successful, 4660 body bytes, 226 header bytes  	[MsgId: MMSG-26386]
Action.c(16): Notify: Parameter Substitution: parameter "sTestCaseName" =  "TCP_06_ECOM_CA_View_Audit_Order_History"	[MsgId: MMSG-13992]
Action.c(16): Notify: Transaction "TCP_06_ECOM_CA_View_Audit_Order_History_03_Open_Sales_Order" started.	[MsgId: MMSG-16999]
Action.c(18): web_custom_request("windows") started  	[MsgId: MMSG-26355]
Action.c(18): Notify: Parameter Substitution: parameter "pURL" =  "http://eom-ca-perf.tcphq.tcpcorp.local.com:30000"	[MsgId: MMSG-13992]
Action.c(18): Notify: Parameter Substitution: parameter "pURL" =  "http://eom-ca-perf.tcphq.tcpcorp.local.com:30000"	[MsgId: MMSG-13992]
Action.c(18): Error -26547: Authentication required, please use web_set_user, e.g. web_set_user("user", "password", "host:port");, Snapshot Info [MSH 9 7]  	[MsgId: MERR-26547]
Action.c(18): Error -26630: HTTP Status-Code=401 (Unauthorized) for "http://eom-ca-perf.tcphq.tcpcorp.local.com:30000/services/rest/lps/WindowLifecycleService/windows?windowId=screen-14271268&regionId=-1&businessUnitId=-1", Snapshot Info [MSH 9 7]  	[MsgId: MERR-26630]
End auto log messages stack.	[MsgId: MMSG-10544]


Start auto log messages stack - Iteration 10.	[MsgId: MMSG-10545]
Starting action Action.	[MsgId: MMSG-15919]
Action.c(4): web_url("ping.jsp_3") started  	[MsgId: MMSG-26355]
Action.c(4): Notify: Parameter Substitution: parameter "pURL" =  "http://eom-ca-perf.tcphq.tcpcorp.local.com:30000"	[MsgId: MMSG-13992]
Action.c(4): Notify: Parameter Substitution: parameter "pURL" =  "http://eom-ca-perf.tcphq.tcpcorp.local.com:30000"	[MsgId: MMSG-13992]
Action.c(4): web_url("ping.jsp_3") was successful, 4660 body bytes, 226 header bytes  	[MsgId: MMSG-26386]
Action.c(16): Notify: Parameter Substitution: parameter "sTestCaseName" =  "TCP_06_ECOM_CA_View_Audit_Order_History"	[MsgId: MMSG-13992]
Action.c(16): Notify: Transaction "TCP_06_ECOM_CA_View_Audit_Order_History_03_Open_Sales_Order" started.	[MsgId: MMSG-16999]
Action.c(18): web_custom_request("windows") started  	[MsgId: MMSG-26355]
Action.c(18): Notify: Parameter Substitution: parameter "pURL" =  "http://eom-ca-perf.tcphq.tcpcorp.local.com:30000"	[MsgId: MMSG-13992]
Action.c(18): Notify: Parameter Substitution: parameter "pURL" =  "http://eom-ca-perf.tcphq.tcpcorp.local.com:30000"	[MsgId: MMSG-13992]
Action.c(18): Error -26547: Authentication required, please use web_set_user, e.g. web_set_user("user", "password", "host:port");, Snapshot Info [MSH 10 7]  	[MsgId: MERR-26547]
Action.c(18): Error -26630: HTTP Status-Code=401 (Unauthorized) for "http://eom-ca-perf.tcphq.tcpcorp.local.com:30000/services/rest/lps/WindowLifecycleService/windows?windowId=screen-14271268&regionId=-1&businessUnitId=-1", Snapshot Info [MSH 10 7]  	[MsgId: MERR-26630]
End auto log messages stack.	[MsgId: MMSG-10544]


Start auto log messages stack - Iteration 11.	[MsgId: MMSG-10545]
Starting action Action.	[MsgId: MMSG-15919]
Action.c(4): web_url("ping.jsp_3") started  	[MsgId: MMSG-26355]
Action.c(4): Notify: Parameter Substitution: parameter "pURL" =  "http://eom-ca-perf.tcphq.tcpcorp.local.com:30000"	[MsgId: MMSG-13992]
Action.c(4): Notify: Parameter Substitution: parameter "pURL" =  "http://eom-ca-perf.tcphq.tcpcorp.local.com:30000"	[MsgId: MMSG-13992]
Action.c(4): web_url("ping.jsp_3") was successful, 4664 body bytes, 226 header bytes  	[MsgId: MMSG-26386]
Action.c(16): Notify: Parameter Substitution: parameter "sTestCaseName" =  "TCP_06_ECOM_CA_View_Audit_Order_History"	[MsgId: MMSG-13992]
Action.c(16): Notify: Transaction "TCP_06_ECOM_CA_View_Audit_Order_History_03_Open_Sales_Order" started.	[MsgId: MMSG-16999]
Action.c(18): web_custom_request("windows") started  	[MsgId: MMSG-26355]
Action.c(18): Notify: Parameter Substitution: parameter "pURL" =  "http://eom-ca-perf.tcphq.tcpcorp.local.com:30000"	[MsgId: MMSG-13992]
Action.c(18): Notify: Parameter Substitution: parameter "pURL" =  "http://eom-ca-perf.tcphq.tcpcorp.local.com:30000"	[MsgId: MMSG-13992]
Action.c(18): Error -26547: Authentication required, please use web_set_user, e.g. web_set_user("user", "password", "host:port");, Snapshot Info [MSH 11 7]  	[MsgId: MERR-26547]
Action.c(18): Error -26630: HTTP Status-Code=401 (Unauthorized) for "http://eom-ca-perf.tcphq.tcpcorp.local.com:30000/services/rest/lps/WindowLifecycleService/windows?windowId=screen-14271268&regionId=-1&businessUnitId=-1", Snapshot Info [MSH 11 7]  	[MsgId: MERR-26630]
End auto log messages stack.	[MsgId: MMSG-10544]


Start auto log messages stack - Iteration 12.	[MsgId: MMSG-10545]
Starting action Action.	[MsgId: MMSG-15919]
Action.c(4): web_url("ping.jsp_3") started  	[MsgId: MMSG-26355]
Action.c(4): Notify: Parameter Substitution: parameter "pURL" =  "http://eom-ca-perf.tcphq.tcpcorp.local.com:30000"	[MsgId: MMSG-13992]
Action.c(4): Notify: Parameter Substitution: parameter "pURL" =  "http://eom-ca-perf.tcphq.tcpcorp.local.com:30000"	[MsgId: MMSG-13992]
Action.c(4): web_url("ping.jsp_3") was successful, 4648 body bytes, 226 header bytes  	[MsgId: MMSG-26386]
Action.c(16): Notify: Parameter Substitution: parameter "sTestCaseName" =  "TCP_06_ECOM_CA_View_Audit_Order_History"	[MsgId: MMSG-13992]
Action.c(16): Notify: Transaction "TCP_06_ECOM_CA_View_Audit_Order_History_03_Open_Sales_Order" started.	[MsgId: MMSG-16999]
Action.c(18): web_custom_request("windows") started  	[MsgId: MMSG-26355]
Action.c(18): Notify: Parameter Substitution: parameter "pURL" =  "http://eom-ca-perf.tcphq.tcpcorp.local.com:30000"	[MsgId: MMSG-13992]
Action.c(18): Notify: Parameter Substitution: parameter "pURL" =  "http://eom-ca-perf.tcphq.tcpcorp.local.com:30000"	[MsgId: MMSG-13992]
Action.c(18): Error -26547: Authentication required, please use web_set_user, e.g. web_set_user("user", "password", "host:port");, Snapshot Info [MSH 12 7]  	[MsgId: MERR-26547]
Action.c(18): Error -26630: HTTP Status-Code=401 (Unauthorized) for "http://eom-ca-perf.tcphq.tcpcorp.local.com:30000/services/rest/lps/WindowLifecycleService/windows?windowId=screen-14271268&regionId=-1&businessUnitId=-1", Snapshot Info [MSH 12 7]  	[MsgId: MERR-26630]
End auto log messages stack.	[MsgId: MMSG-10544]


Start auto log messages stack - Iteration 13.	[MsgId: MMSG-10545]
Starting action Action.	[MsgId: MMSG-15919]
Action.c(4): web_url("ping.jsp_3") started  	[MsgId: MMSG-26355]
Action.c(4): Notify: Parameter Substitution: parameter "pURL" =  "http://eom-ca-perf.tcphq.tcpcorp.local.com:30000"	[MsgId: MMSG-13992]
Action.c(4): Notify: Parameter Substitution: parameter "pURL" =  "http://eom-ca-perf.tcphq.tcpcorp.local.com:30000"	[MsgId: MMSG-13992]
Action.c(4): web_url("ping.jsp_3") was successful, 4664 body bytes, 226 header bytes  	[MsgId: MMSG-26386]
Action.c(16): Notify: Parameter Substitution: parameter "sTestCaseName" =  "TCP_06_ECOM_CA_View_Audit_Order_History"	[MsgId: MMSG-13992]
Action.c(16): Notify: Transaction "TCP_06_ECOM_CA_View_Audit_Order_History_03_Open_Sales_Order" started.	[MsgId: MMSG-16999]
Action.c(18): web_custom_request("windows") started  	[MsgId: MMSG-26355]
Action.c(18): Notify: Parameter Substitution: parameter "pURL" =  "http://eom-ca-perf.tcphq.tcpcorp.local.com:30000"	[MsgId: MMSG-13992]
Action.c(18): Notify: Parameter Substitution: parameter "pURL" =  "http://eom-ca-perf.tcphq.tcpcorp.local.com:30000"	[MsgId: MMSG-13992]
Action.c(18): Error -26547: Authentication required, please use web_set_user, e.g. web_set_user("user", "password", "host:port");, Snapshot Info [MSH 13 7]  	[MsgId: MERR-26547]
Action.c(18): Error -26630: HTTP Status-Code=401 (Unauthorized) for "http://eom-ca-perf.tcphq.tcpcorp.local.com:30000/services/rest/lps/WindowLifecycleService/windows?windowId=screen-14271268&regionId=-1&businessUnitId=-1", Snapshot Info [MSH 13 7]  	[MsgId: MERR-26630]
End auto log messages stack.	[MsgId: MMSG-10544]


Start auto log messages stack - Iteration 14.	[MsgId: MMSG-10545]
Starting action Action.	[MsgId: MMSG-15919]
Action.c(4): web_url("ping.jsp_3") started  	[MsgId: MMSG-26355]
Action.c(4): Notify: Parameter Substitution: parameter "pURL" =  "http://eom-ca-perf.tcphq.tcpcorp.local.com:30000"	[MsgId: MMSG-13992]
Action.c(4): Notify: Parameter Substitution: parameter "pURL" =  "http://eom-ca-perf.tcphq.tcpcorp.local.com:30000"	[MsgId: MMSG-13992]
Action.c(4): web_url("ping.jsp_3") was successful, 4664 body bytes, 226 header bytes  	[MsgId: MMSG-26386]
Action.c(16): Notify: Parameter Substitution: parameter "sTestCaseName" =  "TCP_06_ECOM_CA_View_Audit_Order_History"	[MsgId: MMSG-13992]
Action.c(16): Notify: Transaction "TCP_06_ECOM_CA_View_Audit_Order_History_03_Open_Sales_Order" started.	[MsgId: MMSG-16999]
Action.c(18): web_custom_request("windows") started  	[MsgId: MMSG-26355]
Action.c(18): Notify: Parameter Substitution: parameter "pURL" =  "http://eom-ca-perf.tcphq.tcpcorp.local.com:30000"	[MsgId: MMSG-13992]
Action.c(18): Notify: Parameter Substitution: parameter "pURL" =  "http://eom-ca-perf.tcphq.tcpcorp.local.com:30000"	[MsgId: MMSG-13992]
Action.c(18): Error -26547: Authentication required, please use web_set_user, e.g. web_set_user("user", "password", "host:port");, Snapshot Info [MSH 14 7]  	[MsgId: MERR-26547]
Action.c(18): Error -26630: HTTP Status-Code=401 (Unauthorized) for "http://eom-ca-perf.tcphq.tcpcorp.local.com:30000/services/rest/lps/WindowLifecycleService/windows?windowId=screen-14271268&regionId=-1&businessUnitId=-1", Snapshot Info [MSH 14 7]  	[MsgId: MERR-26630]
End auto log messages stack.	[MsgId: MMSG-10544]


Start auto log messages stack - Iteration 15.	[MsgId: MMSG-10545]
Starting action Action.	[MsgId: MMSG-15919]
Action.c(4): web_url("ping.jsp_3") started  	[MsgId: MMSG-26355]
Action.c(4): Notify: Parameter Substitution: parameter "pURL" =  "http://eom-ca-perf.tcphq.tcpcorp.local.com:30000"	[MsgId: MMSG-13992]
Action.c(4): Notify: Parameter Substitution: parameter "pURL" =  "http://eom-ca-perf.tcphq.tcpcorp.local.com:30000"	[MsgId: MMSG-13992]
Action.c(4): web_url("ping.jsp_3") was successful, 4664 body bytes, 226 header bytes  	[MsgId: MMSG-26386]
Action.c(16): Notify: Parameter Substitution: parameter "sTestCaseName" =  "TCP_06_ECOM_CA_View_Audit_Order_History"	[MsgId: MMSG-13992]
Action.c(16): Notify: Transaction "TCP_06_ECOM_CA_View_Audit_Order_History_03_Open_Sales_Order" started.	[MsgId: MMSG-16999]
Action.c(18): web_custom_request("windows") started  	[MsgId: MMSG-26355]
Action.c(18): Notify: Parameter Substitution: parameter "pURL" =  "http://eom-ca-perf.tcphq.tcpcorp.local.com:30000"	[MsgId: MMSG-13992]
Action.c(18): Notify: Parameter Substitution: parameter "pURL" =  "http://eom-ca-perf.tcphq.tcpcorp.local.com:30000"	[MsgId: MMSG-13992]
Action.c(18): Error -26547: Authentication required, please use web_set_user, e.g. web_set_user("user", "password", "host:port");, Snapshot Info [MSH 15 7]  	[MsgId: MERR-26547]
Action.c(18): Error -26630: HTTP Status-Code=401 (Unauthorized) for "http://eom-ca-perf.tcphq.tcpcorp.local.com:30000/services/rest/lps/WindowLifecycleService/windows?windowId=screen-14271268&regionId=-1&businessUnitId=-1", Snapshot Info [MSH 15 7]  	[MsgId: MERR-26630]
End auto log messages stack.	[MsgId: MMSG-10544]


Start auto log messages stack - Iteration 16.	[MsgId: MMSG-10545]
Starting action Action.	[MsgId: MMSG-15919]
Action.c(4): web_url("ping.jsp_3") started  	[MsgId: MMSG-26355]
Action.c(4): Notify: Parameter Substitution: parameter "pURL" =  "http://eom-ca-perf.tcphq.tcpcorp.local.com:30000"	[MsgId: MMSG-13992]
Action.c(4): Notify: Parameter Substitution: parameter "pURL" =  "http://eom-ca-perf.tcphq.tcpcorp.local.com:30000"	[MsgId: MMSG-13992]
Action.c(4): web_url("ping.jsp_3") was successful, 4660 body bytes, 226 header bytes  	[MsgId: MMSG-26386]
Action.c(16): Notify: Parameter Substitution: parameter "sTestCaseName" =  "TCP_06_ECOM_CA_View_Audit_Order_History"	[MsgId: MMSG-13992]
Action.c(16): Notify: Transaction "TCP_06_ECOM_CA_View_Audit_Order_History_03_Open_Sales_Order" started.	[MsgId: MMSG-16999]
Action.c(18): web_custom_request("windows") started  	[MsgId: MMSG-26355]
Action.c(18): Notify: Parameter Substitution: parameter "pURL" =  "http://eom-ca-perf.tcphq.tcpcorp.local.com:30000"	[MsgId: MMSG-13992]
Action.c(18): Notify: Parameter Substitution: parameter "pURL" =  "http://eom-ca-perf.tcphq.tcpcorp.local.com:30000"	[MsgId: MMSG-13992]
Action.c(18): Error -26547: Authentication required, please use web_set_user, e.g. web_set_user("user", "password", "host:port");, Snapshot Info [MSH 16 7]  	[MsgId: MERR-26547]
Action.c(18): Error -26630: HTTP Status-Code=401 (Unauthorized) for "http://eom-ca-perf.tcphq.tcpcorp.local.com:30000/services/rest/lps/WindowLifecycleService/windows?windowId=screen-14271268&regionId=-1&businessUnitId=-1", Snapshot Info [MSH 16 7]  	[MsgId: MERR-26630]
End auto log messages stack.	[MsgId: MMSG-10544]


Start auto log messages stack - Iteration 17.	[MsgId: MMSG-10545]
Starting action Action.	[MsgId: MMSG-15919]
Action.c(4): web_url("ping.jsp_3") started  	[MsgId: MMSG-26355]
Action.c(4): Notify: Parameter Substitution: parameter "pURL" =  "http://eom-ca-perf.tcphq.tcpcorp.local.com:30000"	[MsgId: MMSG-13992]
Action.c(4): Notify: Parameter Substitution: parameter "pURL" =  "http://eom-ca-perf.tcphq.tcpcorp.local.com:30000"	[MsgId: MMSG-13992]
Action.c(4): web_url("ping.jsp_3") was successful, 4664 body bytes, 226 header bytes  	[MsgId: MMSG-26386]
Action.c(16): Notify: Parameter Substitution: parameter "sTestCaseName" =  "TCP_06_ECOM_CA_View_Audit_Order_History"	[MsgId: MMSG-13992]
Action.c(16): Notify: Transaction "TCP_06_ECOM_CA_View_Audit_Order_History_03_Open_Sales_Order" started.	[MsgId: MMSG-16999]
Action.c(18): web_custom_request("windows") started  	[MsgId: MMSG-26355]
Action.c(18): Notify: Parameter Substitution: parameter "pURL" =  "http://eom-ca-perf.tcphq.tcpcorp.local.com:30000"	[MsgId: MMSG-13992]
Action.c(18): Notify: Parameter Substitution: parameter "pURL" =  "http://eom-ca-perf.tcphq.tcpcorp.local.com:30000"	[MsgId: MMSG-13992]
Action.c(18): Error -26547: Authentication required, please use web_set_user, e.g. web_set_user("user", "password", "host:port");, Snapshot Info [MSH 17 7]  	[MsgId: MERR-26547]
Action.c(18): Error -26630: HTTP Status-Code=401 (Unauthorized) for "http://eom-ca-perf.tcphq.tcpcorp.local.com:30000/services/rest/lps/WindowLifecycleService/windows?windowId=screen-14271268&regionId=-1&businessUnitId=-1", Snapshot Info [MSH 17 7]  	[MsgId: MERR-26630]
End auto log messages stack.	[MsgId: MMSG-10544]


Start auto log messages stack - Iteration 18.	[MsgId: MMSG-10545]
Starting action Action.	[MsgId: MMSG-15919]
Action.c(4): web_url("ping.jsp_3") started  	[MsgId: MMSG-26355]
Action.c(4): Notify: Parameter Substitution: parameter "pURL" =  "http://eom-ca-perf.tcphq.tcpcorp.local.com:30000"	[MsgId: MMSG-13992]
Action.c(4): Notify: Parameter Substitution: parameter "pURL" =  "http://eom-ca-perf.tcphq.tcpcorp.local.com:30000"	[MsgId: MMSG-13992]
Action.c(4): web_url("ping.jsp_3") was successful, 4664 body bytes, 226 header bytes  	[MsgId: MMSG-26386]
Action.c(16): Notify: Parameter Substitution: parameter "sTestCaseName" =  "TCP_06_ECOM_CA_View_Audit_Order_History"	[MsgId: MMSG-13992]
Action.c(16): Notify: Transaction "TCP_06_ECOM_CA_View_Audit_Order_History_03_Open_Sales_Order" started.	[MsgId: MMSG-16999]
Action.c(18): web_custom_request("windows") started  	[MsgId: MMSG-26355]
Action.c(18): Notify: Parameter Substitution: parameter "pURL" =  "http://eom-ca-perf.tcphq.tcpcorp.local.com:30000"	[MsgId: MMSG-13992]
Action.c(18): Notify: Parameter Substitution: parameter "pURL" =  "http://eom-ca-perf.tcphq.tcpcorp.local.com:30000"	[MsgId: MMSG-13992]
Action.c(18): Error -26547: Authentication required, please use web_set_user, e.g. web_set_user("user", "password", "host:port");, Snapshot Info [MSH 18 7]  	[MsgId: MERR-26547]
Action.c(18): Error -26630: HTTP Status-Code=401 (Unauthorized) for "http://eom-ca-perf.tcphq.tcpcorp.local.com:30000/services/rest/lps/WindowLifecycleService/windows?windowId=screen-14271268&regionId=-1&businessUnitId=-1", Snapshot Info [MSH 18 7]  	[MsgId: MERR-26630]
End auto log messages stack.	[MsgId: MMSG-10544]


Start auto log messages stack - Iteration 19.	[MsgId: MMSG-10545]
Starting action Action.	[MsgId: MMSG-15919]
Action.c(4): web_url("ping.jsp_3") started  	[MsgId: MMSG-26355]
Action.c(4): Notify: Parameter Substitution: parameter "pURL" =  "http://eom-ca-perf.tcphq.tcpcorp.local.com:30000"	[MsgId: MMSG-13992]
Action.c(4): Notify: Parameter Substitution: parameter "pURL" =  "http://eom-ca-perf.tcphq.tcpcorp.local.com:30000"	[MsgId: MMSG-13992]
Action.c(4): web_url("ping.jsp_3") was successful, 4660 body bytes, 226 header bytes  	[MsgId: MMSG-26386]
Action.c(16): Notify: Parameter Substitution: parameter "sTestCaseName" =  "TCP_06_ECOM_CA_View_Audit_Order_History"	[MsgId: MMSG-13992]
Action.c(16): Notify: Transaction "TCP_06_ECOM_CA_View_Audit_Order_History_03_Open_Sales_Order" started.	[MsgId: MMSG-16999]
Action.c(18): web_custom_request("windows") started  	[MsgId: MMSG-26355]
Action.c(18): Notify: Parameter Substitution: parameter "pURL" =  "http://eom-ca-perf.tcphq.tcpcorp.local.com:30000"	[MsgId: MMSG-13992]
Action.c(18): Notify: Parameter Substitution: parameter "pURL" =  "http://eom-ca-perf.tcphq.tcpcorp.local.com:30000"	[MsgId: MMSG-13992]
Action.c(18): Error -26547: Authentication required, please use web_set_user, e.g. web_set_user("user", "password", "host:port");, Snapshot Info [MSH 19 7]  	[MsgId: MERR-26547]
Action.c(18): Error -26630: HTTP Status-Code=401 (Unauthorized) for "http://eom-ca-perf.tcphq.tcpcorp.local.com:30000/services/rest/lps/WindowLifecycleService/windows?windowId=screen-14271268&regionId=-1&businessUnitId=-1", Snapshot Info [MSH 19 7]  	[MsgId: MERR-26630]
End auto log messages stack.	[MsgId: MMSG-10544]


Start auto log messages stack - Iteration 20.	[MsgId: MMSG-10545]
Starting action Action.	[MsgId: MMSG-15919]
Action.c(4): web_url("ping.jsp_3") started  	[MsgId: MMSG-26355]
Action.c(4): Notify: Parameter Substitution: parameter "pURL" =  "http://eom-ca-perf.tcphq.tcpcorp.local.com:30000"	[MsgId: MMSG-13992]
Action.c(4): Notify: Parameter Substitution: parameter "pURL" =  "http://eom-ca-perf.tcphq.tcpcorp.local.com:30000"	[MsgId: MMSG-13992]
Action.c(4): web_url("ping.jsp_3") was successful, 4664 body bytes, 226 header bytes  	[MsgId: MMSG-26386]
Action.c(16): Notify: Parameter Substitution: parameter "sTestCaseName" =  "TCP_06_ECOM_CA_View_Audit_Order_History"	[MsgId: MMSG-13992]
Action.c(16): Notify: Transaction "TCP_06_ECOM_CA_View_Audit_Order_History_03_Open_Sales_Order" started.	[MsgId: MMSG-16999]
Action.c(18): web_custom_request("windows") started  	[MsgId: MMSG-26355]
Action.c(18): Notify: Parameter Substitution: parameter "pURL" =  "http://eom-ca-perf.tcphq.tcpcorp.local.com:30000"	[MsgId: MMSG-13992]
Action.c(18): Notify: Parameter Substitution: parameter "pURL" =  "http://eom-ca-perf.tcphq.tcpcorp.local.com:30000"	[MsgId: MMSG-13992]
Action.c(18): Error -26547: Authentication required, please use web_set_user, e.g. web_set_user("user", "password", "host:port");, Snapshot Info [MSH 20 7]  	[MsgId: MERR-26547]
Action.c(18): Error -26630: HTTP Status-Code=401 (Unauthorized) for "http://eom-ca-perf.tcphq.tcpcorp.local.com:30000/services/rest/lps/WindowLifecycleService/windows?windowId=screen-14271268&regionId=-1&businessUnitId=-1", Snapshot Info [MSH 20 7]  	[MsgId: MERR-26630]
End auto log messages stack.	[MsgId: MMSG-10544]


Start auto log messages stack - Iteration 21.	[MsgId: MMSG-10545]
Starting action Action.	[MsgId: MMSG-15919]
Action.c(4): web_url("ping.jsp_3") started  	[MsgId: MMSG-26355]
Action.c(4): Notify: Parameter Substitution: parameter "pURL" =  "http://eom-ca-perf.tcphq.tcpcorp.local.com:30000"	[MsgId: MMSG-13992]
Action.c(4): Notify: Parameter Substitution: parameter "pURL" =  "http://eom-ca-perf.tcphq.tcpcorp.local.com:30000"	[MsgId: MMSG-13992]
Action.c(4): web_url("ping.jsp_3") was successful, 4664 body bytes, 226 header bytes  	[MsgId: MMSG-26386]
Action.c(16): Notify: Parameter Substitution: parameter "sTestCaseName" =  "TCP_06_ECOM_CA_View_Audit_Order_History"	[MsgId: MMSG-13992]
Action.c(16): Notify: Transaction "TCP_06_ECOM_CA_View_Audit_Order_History_03_Open_Sales_Order" started.	[MsgId: MMSG-16999]
Action.c(18): web_custom_request("windows") started  	[MsgId: MMSG-26355]
Action.c(18): Notify: Parameter Substitution: parameter "pURL" =  "http://eom-ca-perf.tcphq.tcpcorp.local.com:30000"	[MsgId: MMSG-13992]
Action.c(18): Notify: Parameter Substitution: parameter "pURL" =  "http://eom-ca-perf.tcphq.tcpcorp.local.com:30000"	[MsgId: MMSG-13992]
Action.c(18): Error -26547: Authentication required, please use web_set_user, e.g. web_set_user("user", "password", "host:port");, Snapshot Info [MSH 21 7]  	[MsgId: MERR-26547]
Action.c(18): Error -26630: HTTP Status-Code=401 (Unauthorized) for "http://eom-ca-perf.tcphq.tcpcorp.local.com:30000/services/rest/lps/WindowLifecycleService/windows?windowId=screen-14271268&regionId=-1&businessUnitId=-1", Snapshot Info [MSH 21 7]  	[MsgId: MERR-26630]
End auto log messages stack.	[MsgId: MMSG-10544]


Start auto log messages stack - Iteration 22.	[MsgId: MMSG-10545]
Starting action Action.	[MsgId: MMSG-15919]
Action.c(4): web_url("ping.jsp_3") started  	[MsgId: MMSG-26355]
Action.c(4): Notify: Parameter Substitution: parameter "pURL" =  "http://eom-ca-perf.tcphq.tcpcorp.local.com:30000"	[MsgId: MMSG-13992]
Action.c(4): Notify: Parameter Substitution: parameter "pURL" =  "http://eom-ca-perf.tcphq.tcpcorp.local.com:30000"	[MsgId: MMSG-13992]
Action.c(4): web_url("ping.jsp_3") was successful, 4664 body bytes, 226 header bytes  	[MsgId: MMSG-26386]
Action.c(16): Notify: Parameter Substitution: parameter "sTestCaseName" =  "TCP_06_ECOM_CA_View_Audit_Order_History"	[MsgId: MMSG-13992]
Action.c(16): Notify: Transaction "TCP_06_ECOM_CA_View_Audit_Order_History_03_Open_Sales_Order" started.	[MsgId: MMSG-16999]
Action.c(18): web_custom_request("windows") started  	[MsgId: MMSG-26355]
Action.c(18): Notify: Parameter Substitution: parameter "pURL" =  "http://eom-ca-perf.tcphq.tcpcorp.local.com:30000"	[MsgId: MMSG-13992]
Action.c(18): Notify: Parameter Substitution: parameter "pURL" =  "http://eom-ca-perf.tcphq.tcpcorp.local.com:30000"	[MsgId: MMSG-13992]
Action.c(18): Error -26547: Authentication required, please use web_set_user, e.g. web_set_user("user", "password", "host:port");, Snapshot Info [MSH 22 7]  	[MsgId: MERR-26547]
Action.c(18): Error -26630: HTTP Status-Code=401 (Unauthorized) for "http://eom-ca-perf.tcphq.tcpcorp.local.com:30000/services/rest/lps/WindowLifecycleService/windows?windowId=screen-14271268&regionId=-1&businessUnitId=-1", Snapshot Info [MSH 22 7]  	[MsgId: MERR-26630]
End auto log messages stack.	[MsgId: MMSG-10544]


Start auto log messages stack - Iteration 23.	[MsgId: MMSG-10545]
Starting action Action.	[MsgId: MMSG-15919]
Action.c(4): web_url("ping.jsp_3") started  	[MsgId: MMSG-26355]
Action.c(4): Notify: Parameter Substitution: parameter "pURL" =  "http://eom-ca-perf.tcphq.tcpcorp.local.com:30000"	[MsgId: MMSG-13992]
Action.c(4): Notify: Parameter Substitution: parameter "pURL" =  "http://eom-ca-perf.tcphq.tcpcorp.local.com:30000"	[MsgId: MMSG-13992]
Action.c(4): web_url("ping.jsp_3") was successful, 4664 body bytes, 226 header bytes  	[MsgId: MMSG-26386]
Action.c(16): Notify: Parameter Substitution: parameter "sTestCaseName" =  "TCP_06_ECOM_CA_View_Audit_Order_History"	[MsgId: MMSG-13992]
Action.c(16): Notify: Transaction "TCP_06_ECOM_CA_View_Audit_Order_History_03_Open_Sales_Order" started.	[MsgId: MMSG-16999]
Action.c(18): web_custom_request("windows") started  	[MsgId: MMSG-26355]
Action.c(18): Notify: Parameter Substitution: parameter "pURL" =  "http://eom-ca-perf.tcphq.tcpcorp.local.com:30000"	[MsgId: MMSG-13992]
Action.c(18): Notify: Parameter Substitution: parameter "pURL" =  "http://eom-ca-perf.tcphq.tcpcorp.local.com:30000"	[MsgId: MMSG-13992]
Action.c(18): Error -26547: Authentication required, please use web_set_user, e.g. web_set_user("user", "password", "host:port");, Snapshot Info [MSH 23 7]  	[MsgId: MERR-26547]
Action.c(18): Error -26630: HTTP Status-Code=401 (Unauthorized) for "http://eom-ca-perf.tcphq.tcpcorp.local.com:30000/services/rest/lps/WindowLifecycleService/windows?windowId=screen-14271268&regionId=-1&businessUnitId=-1", Snapshot Info [MSH 23 7]  	[MsgId: MERR-26630]
End auto log messages stack.	[MsgId: MMSG-10544]


Start auto log messages stack - Iteration 24.	[MsgId: MMSG-10545]
Starting action Action.	[MsgId: MMSG-15919]
Action.c(4): web_url("ping.jsp_3") started  	[MsgId: MMSG-26355]
Action.c(4): Notify: Parameter Substitution: parameter "pURL" =  "http://eom-ca-perf.tcphq.tcpcorp.local.com:30000"	[MsgId: MMSG-13992]
Action.c(4): Notify: Parameter Substitution: parameter "pURL" =  "http://eom-ca-perf.tcphq.tcpcorp.local.com:30000"	[MsgId: MMSG-13992]
Action.c(4): web_url("ping.jsp_3") was successful, 4660 body bytes, 226 header bytes  	[MsgId: MMSG-26386]
Action.c(16): Notify: Parameter Substitution: parameter "sTestCaseName" =  "TCP_06_ECOM_CA_View_Audit_Order_History"	[MsgId: MMSG-13992]
Action.c(16): Notify: Transaction "TCP_06_ECOM_CA_View_Audit_Order_History_03_Open_Sales_Order" started.	[MsgId: MMSG-16999]
Action.c(18): web_custom_request("windows") started  	[MsgId: MMSG-26355]
Action.c(18): Notify: Parameter Substitution: parameter "pURL" =  "http://eom-ca-perf.tcphq.tcpcorp.local.com:30000"	[MsgId: MMSG-13992]
Action.c(18): Notify: Parameter Substitution: parameter "pURL" =  "http://eom-ca-perf.tcphq.tcpcorp.local.com:30000"	[MsgId: MMSG-13992]
Action.c(18): Error -26547: Authentication required, please use web_set_user, e.g. web_set_user("user", "password", "host:port");, Snapshot Info [MSH 24 7]  	[MsgId: MERR-26547]
Action.c(18): Error -26630: HTTP Status-Code=401 (Unauthorized) for "http://eom-ca-perf.tcphq.tcpcorp.local.com:30000/services/rest/lps/WindowLifecycleService/windows?windowId=screen-14271268&regionId=-1&businessUnitId=-1", Snapshot Info [MSH 24 7]  	[MsgId: MERR-26630]
End auto log messages stack.	[MsgId: MMSG-10544]


Start auto log messages stack - Iteration 25.	[MsgId: MMSG-10545]
Starting action Action.	[MsgId: MMSG-15919]
Action.c(4): web_url("ping.jsp_3") started  	[MsgId: MMSG-26355]
Action.c(4): Notify: Parameter Substitution: parameter "pURL" =  "http://eom-ca-perf.tcphq.tcpcorp.local.com:30000"	[MsgId: MMSG-13992]
Action.c(4): Notify: Parameter Substitution: parameter "pURL" =  "http://eom-ca-perf.tcphq.tcpcorp.local.com:30000"	[MsgId: MMSG-13992]
Action.c(4): web_url("ping.jsp_3") was successful, 4664 body bytes, 226 header bytes  	[MsgId: MMSG-26386]
Action.c(16): Notify: Parameter Substitution: parameter "sTestCaseName" =  "TCP_06_ECOM_CA_View_Audit_Order_History"	[MsgId: MMSG-13992]
Action.c(16): Notify: Transaction "TCP_06_ECOM_CA_View_Audit_Order_History_03_Open_Sales_Order" started.	[MsgId: MMSG-16999]
Action.c(18): web_custom_request("windows") started  	[MsgId: MMSG-26355]
Action.c(18): Notify: Parameter Substitution: parameter "pURL" =  "http://eom-ca-perf.tcphq.tcpcorp.local.com:30000"	[MsgId: MMSG-13992]
Action.c(18): Notify: Parameter Substitution: parameter "pURL" =  "http://eom-ca-perf.tcphq.tcpcorp.local.com:30000"	[MsgId: MMSG-13992]
Action.c(18): Error -26547: Authentication required, please use web_set_user, e.g. web_set_user("user", "password", "host:port");, Snapshot Info [MSH 25 7]  	[MsgId: MERR-26547]
Action.c(18): Error -26630: HTTP Status-Code=401 (Unauthorized) for "http://eom-ca-perf.tcphq.tcpcorp.local.com:30000/services/rest/lps/WindowLifecycleService/windows?windowId=screen-14271268&regionId=-1&businessUnitId=-1", Snapshot Info [MSH 25 7]  	[MsgId: MERR-26630]
End auto log messages stack.	[MsgId: MMSG-10544]


Start auto log messages stack - Iteration 25.	[MsgId: MMSG-10545]
vuser_end.c(50): Downloading resource "https://eom-mip-perf.childrensplace.com:15001/images/loading.gif" (specified by argument number 10)  	[MsgId: MMSG-26577]
vuser_end.c(50): web_url("logout") was successful, 1853 body bytes, 855 header bytes  	[MsgId: MMSG-26386]
vuser_end.c(62): web_url("miplogout") started  	[MsgId: MMSG-26355]
vuser_end.c(62): Notify: Next row for parameter pURL_SSO = 1 [table  = pURL_SSO].	[MsgId: MMSG-13876]
vuser_end.c(62): Notify: Parameter Substitution: parameter "pURL_SSO" =  "https://eom-mip-perf.childrensplace.com:15001"	[MsgId: MMSG-13992]
vuser_end.c(62): Redirecting "https://eom-mip-perf.childrensplace.com:15001/miplogout" (redirection depth is 0)  	[MsgId: MMSG-26694]
vuser_end.c(62): To location "https://EOM-MIP-Perf.childrensplace.com:15001/SLOServlet?finish"  	[MsgId: MMSG-26693]
vuser_end.c(62): Error -26627: HTTP Status-Code=404 (Not Found) for "https://EOM-MIP-Perf.childrensplace.com:15001/SLOServlet?finish", Snapshot Info [MSH 25 10]  	[MsgId: MERR-26627]
End auto log messages stack.	[MsgId: MMSG-10544]


Start auto log messages stack - Iteration 21.	[MsgId: MMSG-10545]
vuser_end.c(50): Downloading resource "https://eom-mip-perf.childrensplace.com:15001/images/loading.gif" (specified by argument number 10)  	[MsgId: MMSG-26577]
vuser_end.c(50): web_url("logout") was successful, 1853 body bytes, 2552 header bytes  	[MsgId: MMSG-26386]
vuser_end.c(62): web_url("miplogout") started  	[MsgId: MMSG-26355]
vuser_end.c(62): Notify: Next row for parameter pURL_SSO = 1 [table  = pURL_SSO].	[MsgId: MMSG-13876]
vuser_end.c(62): Notify: Parameter Substitution: parameter "pURL_SSO" =  "https://eom-mip-perf.childrensplace.com:15001"	[MsgId: MMSG-13992]
vuser_end.c(62): Redirecting "https://eom-mip-perf.childrensplace.com:15001/miplogout" (redirection depth is 0)  	[MsgId: MMSG-26694]
vuser_end.c(62): To location "https://eom-mip-perf.childrensplace.com:15001/SLOServlet?finish"  	[MsgId: MMSG-26693]
vuser_end.c(62): Error -26627: HTTP Status-Code=404 (Not Found) for "https://eom-mip-perf.childrensplace.com:15001/SLOServlet?finish", Snapshot Info [MSH 21 15]  	[MsgId: MERR-26627]
End auto log messages stack.	[MsgId: MMSG-10544]


Start auto log messages stack - Iteration 21.	[MsgId: MMSG-10545]
vuser_end.c(50): Downloading resource "https://eom-mip-perf.childrensplace.com:15001/images/loading.gif" (specified by argument number 10)  	[MsgId: MMSG-26577]
vuser_end.c(50): web_url("logout") was successful, 1853 body bytes, 2570 header bytes  	[MsgId: MMSG-26386]
vuser_end.c(62): web_url("miplogout") started  	[MsgId: MMSG-26355]
vuser_end.c(62): Notify: Next row for parameter pURL_SSO = 1 [table  = pURL_SSO].	[MsgId: MMSG-13876]
vuser_end.c(62): Notify: Parameter Substitution: parameter "pURL_SSO" =  "https://eom-mip-perf.childrensplace.com:15001"	[MsgId: MMSG-13992]
vuser_end.c(62): Redirecting "https://eom-mip-perf.childrensplace.com:15001/miplogout" (redirection depth is 0)  	[MsgId: MMSG-26694]
vuser_end.c(62): To location "https://EOM-MIP-Perf.childrensplace.com:15001/SLOServlet?finish"  	[MsgId: MMSG-26693]
vuser_end.c(62): Error -26627: HTTP Status-Code=404 (Not Found) for "https://EOM-MIP-Perf.childrensplace.com:15001/SLOServlet?finish", Snapshot Info [MSH 21 15]  	[MsgId: MERR-26627]
End auto log messages stack.	[MsgId: MMSG-10544]


