HTTP/1.1 200 OK
Content-Type: text/xml
Content-Length: 1901
Connection: keep-alive
Date: Tue, 03 Oct 2017 02:43:05 GMT
Last-Modified: Mon, 05 Dec 2016 13:04:44 GMT
ETag: "40598e7146de804feaadf126c4bd90c1"
Accept-Ranges: bytes
Server: AmazonS3
Age: 53212
X-Cache: Hit from cloudfront
Via: 1.1 6801928d54163af944bf854db8d5520e.cloudfront.net (CloudFront)
X-Amz-Cf-Id: 5DGN9G_-RrUNluKg_ssR5xpILP-Y798vaYxLzUi6iyM4N0mjhUwCDA==

