HTTP/1.1 200 OK
Content-Type: text/xml
Content-Length: 1901
Connection: keep-alive
Date: Tue, 03 Oct 2017 02:43:05 GMT
Last-Modified: Mon, 05 Dec 2016 13:04:44 GMT
ETag: "40598e7146de804feaadf126c4bd90c1"
Accept-Ranges: bytes
Server: AmazonS3
Age: 53208
X-Cache: Hit from cloudfront
Via: 1.1 a171e7841621158d2aaef33e456c3688.cloudfront.net (CloudFront)
X-Amz-Cf-Id: mSVHTvvMz94H5wqGKs0htcdPVk4DP-_Y7ek5-_bjxPzyLgoyE6DAbw==

