HTTP/1.1 200 OK
Content-Type: text/xml
Content-Length: 1901
Connection: keep-alive
Date: Tue, 03 Oct 2017 02:43:05 GMT
Last-Modified: Mon, 05 Dec 2016 13:04:44 GMT
ETag: "40598e7146de804feaadf126c4bd90c1"
Accept-Ranges: bytes
Server: AmazonS3
Age: 53219
X-Cache: Hit from cloudfront
Via: 1.1 e81b6793c2bc2378a5c7ea08e930ec3d.cloudfront.net (CloudFront)
X-Amz-Cf-Id: rrR6IzHj-jZ3QogmV25AYFO5o67f0bKBCF78GCDnIvkBD9Z1NJJ-tw==

