HTTP/1.1 200 OK
Content-Type: text/xml
Content-Length: 1901
Connection: keep-alive
Date: Thu, 28 Sep 2017 15:28:25 GMT
Last-Modified: Mon, 05 Dec 2016 13:04:44 GMT
ETag: "40598e7146de804feaadf126c4bd90c1"
Accept-Ranges: bytes
Server: AmazonS3
Age: 5975
X-Cache: Hit from cloudfront
Via: 1.1 617b23a4a8be0944196039e7d64661f1.cloudfront.net (CloudFront)
X-Amz-Cf-Id: 9qeZ9eMKEJOz2TYaPMjA3hmzCEgR0W59GODYMRMWE7lwa7JIu2xMmg==

