"{\n"
"   "availabilityRequest":{\n"
"      "viewName":"US BOPIS",\n"
"      "availabilityCriteria":{\n"
"         "itemNames":{\n"
"            "itemName":[\n"
"               "1097633005"\n"
"            ]\n"
"         },\n"
"         "facilityNames":{\n"
"            "facilityName":[\n"
"               "1749",\n"
"               "1750",\n"
"               "1751",\n"
"               "1752",\n"
"               "1755",\n"
"               "1801",\n"
"               "1803",\n"
"               "1806",\n"
"               "1808",\n"
"               "1810",\n"
"               "1811",\n"
"               "1812",\n"
"               "1815",\n"
"               "1816",\n"
"               "1817",\n"
"               "1823",\n"
"               "1826",\n"
"               "1829",\n"
"               "1835",\n"
"               "1964",\n"
"               "4129",\n"
"               "4198",\n"
"               "4231",\n"
"               "4232",\n"
"               "4247"\n"
"            ]\n"
"         }\n"
"      }\n"
"   }\n"
"}"
