"{\"events\":{\"event\":[{\"transactionId\":\"c98fc47a-3c90-402c-800c-a9d078bbc575\",\"eventNam"
"e\":\"DONE\",\"screenId\":280010,\"userName\":\"Mboban\",\"logCategory\":\"button\",\"logLevel"
"\":4,\"eventTimeStamp\":\"6/25/2016, 3:17:09 PM\",\"additionalInfo\":\"Create a return/exchang"
"e\"}]}}"
