"{\"ReturnOrder\":{\"orderNumber\":\"000012469\",\"orderId\":1926145,\"orderType\":\"RLM\",\"tc"
"CompanyId\":1,\"customerOrderId\":184935,\"customerOrderNumber\":160012292,\"orderStatus\":\"P"
"ending\",\"orderStatusId\":100,\"orderCapturedDate\":\"6/25/16 05:47 EDT\",\"orderCreatedDate\""
":\"6/25/16 05:47 EDT\",\"reponseStatus\":\"\",\"orderConfirmed\":true,\"orderCancelled\":false"
",\"noOfPackages\":1,\"emailLabelsTo\":\"TRESSA.JOHNSON@YMAIL.COM\",\"returnCenter\":\"SEDC-ECO"
"M\",\"shipFromAddress\":{\"firstName\":\"Tressa\",\"lastName\":\"Johnson\",\"addressLine1\":\""
"2608 Hazelnut Ct\",\"city\":\"Hebron\",\"stateProv\":\"KY\",\"postalCode\":41048,\"country\":\""
"US\",\"county\":\"BOONE\",\"phone\":5135196903,\"email\":\"TRESSA.JOHNSON@YMAIL.COM\"},\"shipp"
"ingAddress\":{\"firstName\":\"SEDC-ECOM\",\"addressLine1\":\"500 Plaza Drive\",\"city\":\"Seca"
"ucus\",\"stateProv\":\"NJ\",\"postalCode\":\"07094\",\"country\":\"US\",\"addressVerified\":tr"
"ue},\"paymentDetail\":\"\",\"orderTotals\":{\"totalCharges\":\"0.00\",\"formattedTotalCharges\""
":\"$0.00\",\"totalDiscounts\":\"0.00\",\"formattedTotalDiscounts\":\"$0.00\",\"totalTaxes\":\""
"0.00\",\"formattedTotalTaxes\":\"$0.00\",\"itemSubTotal\":34.95,\"formattedItemSubTotal\":\"$3"
"4.95\",\"grandTotal\":34.95,\"formattedGrandTotal\":\"$34.95\",\"remainingToPay\":34.95,\"form"
"attedRemainingToPay\":\"$34.95\",\"amountPaid\":34.95,\"formattedAmountPaid\":\"$34.95\",\"tot"
"alChargeDetails\":{\"totalChargeDetail\":{\"chargeCategory\":\"Shipping\",\"chargeValue\":\"No"
"t Available\",\"formattedChargeValue\":\"Not Available\",\"showCurrency\":false,\"overriddenSn"
"HCharge\":false,\"chargesNotAvailable\":true,\"eligibleForSnHOverride\":false}},\"totalDiscoun"
"tDetails\":{\"totalPromotionsApplied\":0,\"totalPromotionAmount\":0,\"formattedTotalPromotionA"
"mount\":\"$0.00\",\"totalCouponsApplied\":0,\"totalCouponAmount\":0,\"formattedTotalCouponAmou"
"nt\":\"$0.00\",\"totalAppeasementsApplied\":0,\"totalAppeasementAmount\":0,\"formattedTotalApp"
"easementAmount\":\"$0.00\"}},\"isCharge\":false,\"returnReferenceNumber\":\"\",\"onHold\":fals"
"e,\"reasonCode\":\"\",\"reasonCodeDescription\":\"\",\"automatedReturn\":false,\"chargeGroupDe"
"tails\":{\"chargeGroupDetail\":[]},\"returnOrderLines\":{\"returnOrderLine\":[]},\"paymentDeta"
"ils\":{\"paymentDetail\":[]},\"notes\":{\"note\":[]},\"returnASN\":\"\",\"invoiceDetails\":\"\""
",\"processReturn\":\"\",\"customFields\":\"\",\"customerFullName\":\"TRESSA JOHNSON\",\"custom"
"erPhone\":5135196903}}"
