"{\"returnOrderSearchCriteria\":{\"entityType\":\"\",\"orderNumber\":\"\",\"parentOrderNumber\""
":160012292,\"createdFromDate\":\"\",\"createdToDate\":\"\",\"noOfRecordsPerPage\":1000,\"custo"
"merInfo\":{\"customerFirstName\":\"TRESSA\",\"customerLastName\":\"JOHNSON\",\"customerFullNam"
"e\":\"TRESSA JOHNSON\",\"customerEmail\":\"TRESSA.JOHNSON@YMAIL.COM\",\"customerPhone\":\"5135"
"196903\",\"customerId\":\"\",\"externalCustomerId\":\"208222632\",\"customField1\":\"\",\"cust"
"omField2\":\"\",\"customField3\":\"\",\"customField4\":\"\",\"customField5\":\"\",\"customFiel"
"d6\":\"\",\"customField7\":\"\",\"customField8\":\"\",\"customField9\":\"\",\"customField10\":"
"\"\"},\"customerBasicInfo\":\"\",\"sortingCriterion\":{\"sortField\":\"createdDTTM\",\"sortDir"
"ection\":\"DESC\"},\"currentPageNumber\":0}}"
