Start auto log messages stack.	[MsgId: MMSG-10546]
Ending iteration 11.	[MsgId: MMSG-15965]
Waiting 343.0000 seconds for iteration pacing.	[MsgId: MMSG-15996]
Starting iteration 12.	[MsgId: MMSG-15968]
Error: Parameter 'pOrder_No': No more unique values for this parameter in table 'pOrder_No.dat' [unique range is 1-11]. The Vuser is aborted according to "When Out Of Values" policy.	[MsgId: MERR-13870]
End auto log messages stack.	[MsgId: MMSG-10544]


Start auto log messages stack.	[MsgId: MMSG-10546]
Ending iteration 11.	[MsgId: MMSG-15965]
Waiting 343.0000 seconds for iteration pacing.	[MsgId: MMSG-15996]
Starting iteration 12.	[MsgId: MMSG-15968]
Error: Parameter 'pOrder_No': No more unique values for this parameter in table 'pOrder_No.dat' [unique range is 12-22]. The Vuser is aborted according to "When Out Of Values" policy.	[MsgId: MERR-13870]
End auto log messages stack.	[MsgId: MMSG-10544]


Start auto log messages stack.	[MsgId: MMSG-10546]
Ending iteration 11.	[MsgId: MMSG-15965]
Waiting 343.0000 seconds for iteration pacing.	[MsgId: MMSG-15996]
Starting iteration 12.	[MsgId: MMSG-15968]
Error: Parameter 'pOrder_No': No more unique values for this parameter in table 'pOrder_No.dat' [unique range is 23-33]. The Vuser is aborted according to "When Out Of Values" policy.	[MsgId: MERR-13870]
End auto log messages stack.	[MsgId: MMSG-10544]


Start auto log messages stack.	[MsgId: MMSG-10546]
Ending iteration 11.	[MsgId: MMSG-15965]
Waiting 343.0000 seconds for iteration pacing.	[MsgId: MMSG-15996]
Starting iteration 12.	[MsgId: MMSG-15968]
Error: Parameter 'pOrder_No': No more unique values for this parameter in table 'pOrder_No.dat' [unique range is 34-44]. The Vuser is aborted according to "When Out Of Values" policy.	[MsgId: MERR-13870]
End auto log messages stack.	[MsgId: MMSG-10544]


Start auto log messages stack.	[MsgId: MMSG-10546]
Ending iteration 11.	[MsgId: MMSG-15965]
Waiting 343.0000 seconds for iteration pacing.	[MsgId: MMSG-15996]
Starting iteration 12.	[MsgId: MMSG-15968]
Error: Parameter 'pOrder_No': No more unique values for this parameter in table 'pOrder_No.dat' [unique range is 45-55]. The Vuser is aborted according to "When Out Of Values" policy.	[MsgId: MERR-13870]
End auto log messages stack.	[MsgId: MMSG-10544]


Start auto log messages stack.	[MsgId: MMSG-10546]
Ending iteration 11.	[MsgId: MMSG-15965]
Waiting 343.0000 seconds for iteration pacing.	[MsgId: MMSG-15996]
Starting iteration 12.	[MsgId: MMSG-15968]
Error: Parameter 'pOrder_No': No more unique values for this parameter in table 'pOrder_No.dat' [unique range is 56-66]. The Vuser is aborted according to "When Out Of Values" policy.	[MsgId: MERR-13870]
End auto log messages stack.	[MsgId: MMSG-10544]


Start auto log messages stack.	[MsgId: MMSG-10546]
Ending iteration 11.	[MsgId: MMSG-15965]
Waiting 343.0000 seconds for iteration pacing.	[MsgId: MMSG-15996]
Starting iteration 12.	[MsgId: MMSG-15968]
Error: Parameter 'pOrder_No': No more unique values for this parameter in table 'pOrder_No.dat' [unique range is 67-77]. The Vuser is aborted according to "When Out Of Values" policy.	[MsgId: MERR-13870]
End auto log messages stack.	[MsgId: MMSG-10544]


Start auto log messages stack.	[MsgId: MMSG-10546]
Ending iteration 11.	[MsgId: MMSG-15965]
Waiting 343.0000 seconds for iteration pacing.	[MsgId: MMSG-15996]
Starting iteration 12.	[MsgId: MMSG-15968]
Error: Parameter 'pOrder_No': No more unique values for this parameter in table 'pOrder_No.dat' [unique range is 78-88]. The Vuser is aborted according to "When Out Of Values" policy.	[MsgId: MERR-13870]
End auto log messages stack.	[MsgId: MMSG-10544]


Start auto log messages stack.	[MsgId: MMSG-10546]
Ending iteration 11.	[MsgId: MMSG-15965]
Waiting 343.0000 seconds for iteration pacing.	[MsgId: MMSG-15996]
Starting iteration 12.	[MsgId: MMSG-15968]
Error: Parameter 'pOrder_No': No more unique values for this parameter in table 'pOrder_No.dat' [unique range is 89-99]. The Vuser is aborted according to "When Out Of Values" policy.	[MsgId: MERR-13870]
End auto log messages stack.	[MsgId: MMSG-10544]


Start auto log messages stack.	[MsgId: MMSG-10546]
Ending iteration 11.	[MsgId: MMSG-15965]
Waiting 343.0000 seconds for iteration pacing.	[MsgId: MMSG-15996]
Starting iteration 12.	[MsgId: MMSG-15968]
Error: Parameter 'pOrder_No': No more unique values for this parameter in table 'pOrder_No.dat' [unique range is 100-110]. The Vuser is aborted according to "When Out Of Values" policy.	[MsgId: MERR-13870]
End auto log messages stack.	[MsgId: MMSG-10544]


Start auto log messages stack.	[MsgId: MMSG-10546]
Ending iteration 11.	[MsgId: MMSG-15965]
Waiting 343.0000 seconds for iteration pacing.	[MsgId: MMSG-15996]
Starting iteration 12.	[MsgId: MMSG-15968]
Error: Parameter 'pOrder_No': No more unique values for this parameter in table 'pOrder_No.dat' [unique range is 111-121]. The Vuser is aborted according to "When Out Of Values" policy.	[MsgId: MERR-13870]
End auto log messages stack.	[MsgId: MMSG-10544]


Start auto log messages stack.	[MsgId: MMSG-10546]
Ending iteration 11.	[MsgId: MMSG-15965]
Waiting 343.0000 seconds for iteration pacing.	[MsgId: MMSG-15996]
Starting iteration 12.	[MsgId: MMSG-15968]
Error: Parameter 'pOrder_No': No more unique values for this parameter in table 'pOrder_No.dat' [unique range is 122-132]. The Vuser is aborted according to "When Out Of Values" policy.	[MsgId: MERR-13870]
End auto log messages stack.	[MsgId: MMSG-10544]


Start auto log messages stack.	[MsgId: MMSG-10546]
Ending iteration 11.	[MsgId: MMSG-15965]
Waiting 343.0000 seconds for iteration pacing.	[MsgId: MMSG-15996]
Starting iteration 12.	[MsgId: MMSG-15968]
Error: Parameter 'pOrder_No': No more unique values for this parameter in table 'pOrder_No.dat' [unique range is 133-143]. The Vuser is aborted according to "When Out Of Values" policy.	[MsgId: MERR-13870]
End auto log messages stack.	[MsgId: MMSG-10544]


Start auto log messages stack.	[MsgId: MMSG-10546]
Ending iteration 11.	[MsgId: MMSG-15965]
Waiting 343.0000 seconds for iteration pacing.	[MsgId: MMSG-15996]
Starting iteration 12.	[MsgId: MMSG-15968]
Error: Parameter 'pOrder_No': No more unique values for this parameter in table 'pOrder_No.dat' [unique range is 144-154]. The Vuser is aborted according to "When Out Of Values" policy.	[MsgId: MERR-13870]
End auto log messages stack.	[MsgId: MMSG-10544]


Start auto log messages stack.	[MsgId: MMSG-10546]
Ending iteration 11.	[MsgId: MMSG-15965]
Waiting 343.0000 seconds for iteration pacing.	[MsgId: MMSG-15996]
Starting iteration 12.	[MsgId: MMSG-15968]
Error: Parameter 'pOrder_No': No more unique values for this parameter in table 'pOrder_No.dat' [unique range is 155-165]. The Vuser is aborted according to "When Out Of Values" policy.	[MsgId: MERR-13870]
End auto log messages stack.	[MsgId: MMSG-10544]


