"{\"events\":{\"event\":[{\"transactionId\":\"95a22533-3a85-4280-9e8c-e6b1dc1310d5\",\"eventNam"
"e\":\"CONFIRM CHANGES\",\"screenId\":280008,\"userName\":\"Mboban\",\"logCategory\":\"button\""
",\"logLevel\":4,\"eventTimeStamp\":\"6/27/2016, 5:19:58 PM\",\"additionalInfo\":\"performing a"
"ction : CONFIRM CHANGES\"}]}}"
