HTTP/1.1 200 OK
Server: Apache-Coyote/1.1
X-Frame-Options: SAMEORIGIN
Content-Type: text/xml;charset=UTF-8
Content-Length: 968
Date: Tue, 03 Oct 2017 17:29:57 GMT
Set-Cookie: BIGipServerCA-BATCH-POOL-30000=2919436810.12405.0000; path=/

