"{\n"
"   \"availabilityRequest\":{\n"
"      \"viewName\":\"US ROPIS\",\n"
"      \"availabilityCriteria\":{\n"
"         \"itemNames\":{\n"
"            \"itemName\":[\n"
"               \"1069528003\"\n"
"            ]\n"
"         },\n"
"         \"facilityNames\":{\n"
"            \"facilityName\":[\n"
"               \"0832\",\n"
"               \"0002\",\n"
"               \"0005\",\n"
"               \"1814\",\n"
"               \"1809\"\n"
"            ]\n"
"         }\n"
"      }\n"
"   }\n"
"}"
