"{\n"
"   \"availabilityRequest\":{\n"
"      \"viewName\":\"US ROPIS\",\n"
"      \"availabilityCriteria\":{\n"
"         \"itemNames\":{\n"
"            \"itemName\":[\n"
"               \"2062194003\"\n"
"            ]\n"
"         },\n"
"         \"facilityNames\":{\n"
"            \"facilityName\":[\n"
"               \"4305\",\n"
"               \"4311\",\n"
"               \"4312\",\n"
"               \"4323\",\n"
"               \"4324\"\n"
"            ]\n"
"         }\n"
"      }\n"
"   }\n"
"}"
