f6
{"Metadata":{"messages":{"message":{"description":"JTA transaction unexpectedly rolled back (maybe due to a timeout); nested exception is javax.transaction.RollbackException: ARJUNA016053: Could not commit transaction."}},"responseStatus":false}}
0

