"{\n"
"   "availabilityRequest":{\n"
"      "viewName":"US BOPIS",\n"
"      "availabilityCriteria":{\n"
"         "itemNames":{\n"
"            "itemName":[\n"
"               "1097633004"\n"
"            ]\n"
"         },\n"
"         "facilityNames":{\n"
"            "facilityName":[\n"
"               "4321",\n"
"               "4322",\n"
"               "4323",\n"
"               "4324",\n"
"               "4325",\n"
"               "4326",\n"
"               "4327",\n"
"               "4328",\n"
"               "4329",\n"
"               "4330",\n"
"               "4332",\n"
"               "4333",\n"
"               "4336",\n"
"               "4337",\n"
"               "4338",\n"
"               "4340",\n"
"               "4350",\n"
"               "4351",\n"
"               "4352",\n"
"               "4355",\n"
"               "4356",\n"
"               "4360",\n"
"               "4362",\n"
"               "4363",\n"
"               "4364"\n"
"            ]\n"
"         }\n"
"      }\n"
"   }\n"
"}"
