"{\n"
"   "availabilityRequest":{\n"
"      "viewName":"US BOPIS",\n"
"      "availabilityCriteria":{\n"
"         "itemNames":{\n"
"            "itemName":[\n"
"               "2006941005"\n"
"            ]\n"
"         },\n"
"         "facilityNames":{\n"
"            "facilityName":[\n"
"               "4238",\n"
"               "4239",\n"
"               "4242",\n"
"               "4246",\n"
"               "4248",\n"
"               "4250",\n"
"               "4253",\n"
"               "4255",\n"
"               "4258",\n"
"               "4261",\n"
"               "4266",\n"
"               "4267",\n"
"               "4269",\n"
"               "4270",\n"
"               "4271",\n"
"               "4272",\n"
"               "4273",\n"
"               "4274",\n"
"               "4275",\n"
"               "4276",\n"
"               "4277",\n"
"               "4278",\n"
"               "4280",\n"
"               "4281",\n"
"               "4282"\n"
"            ]\n"
"         }\n"
"      }\n"
"   }\n"
"}"
