HTTP/1.1 200 OK
Content-Type: text/xml
Content-Length: 1901
Connection: keep-alive
Date: Tue, 03 Oct 2017 02:43:05 GMT
Last-Modified: Mon, 05 Dec 2016 13:04:44 GMT
ETag: "40598e7146de804feaadf126c4bd90c1"
Accept-Ranges: bytes
Server: AmazonS3
Age: 53222
X-Cache: Hit from cloudfront
Via: 1.1 0a955f76d9c9f3e49899a6eb7a411ec5.cloudfront.net (CloudFront)
X-Amz-Cf-Id: xiH7c4Ogb7wxqt9c721tFXCx81mcHqBAdgmMmvQU5huixXv22ml7ow==

