<HTML><HEAD><meta http-equiv="content-type" content="text/html;charset=utf-8">
<TITLE>302 Moved</TITLE></HEAD><BODY>
<H1>302 Moved</H1>
The document has moved
<A HREF="https://www.google.com/ads/ga-audiences?v=1&amp;aip=1&amp;t=sr&amp;_r=4&amp;tid=UA-92447-6&amp;cid=1134401355.1470946903&amp;jid=306533371&amp;_v=5.6.7dc&amp;z=1631045697">here</A>.
</BODY></HTML>
