295
{"availability":{"transactionDateTime":"8\/11\/16 15:49 GMT-05:00","viewName":"US ROPIS","viewConfiguration":"Load Test","availabilityDetails":{"availabilityDetail":[{"businessUnit":1,"facilityName":4312,"itemName":2062194003,"atcQuantity":10001,"atcStatus":"In Stock","baseUOM":"eaches"},{"businessUnit":1,"facilityName":4305,"itemName":2062194003,"atcQuantity":10001,"atcStatus":"In Stock","baseUOM":"eaches"},{"businessUnit":1,"facilityName":4323,"itemName":2062194003,"atcQuantity":10001,"atcStatus":"In Stock","baseUOM":"eaches"},{"businessUnit":1,"facilityName":4311,"itemName":2062194003,"atcQuantity":10000,"atcStatus":"In Stock","baseUOM":"eaches"}]}}}
0

