HTTP/1.1 200 OK
Content-Type: text/xml
Content-Length: 1901
Connection: keep-alive
Date: Tue, 03 Oct 2017 02:43:05 GMT
Last-Modified: Mon, 05 Dec 2016 13:04:44 GMT
ETag: "40598e7146de804feaadf126c4bd90c1"
Accept-Ranges: bytes
Server: AmazonS3
Age: 53225
X-Cache: Hit from cloudfront
Via: 1.1 fc8718fc654846d5ff65e1100874c1fc.cloudfront.net (CloudFront)
X-Amz-Cf-Id: m-Hvj3At1tw_tuV3WBrJxs12U9XD3aOwtE4FDQxCVTCT6G9-R73lbg==

