HTTP/1.1 200 OK
Content-Type: text/xml
Content-Length: 1901
Connection: keep-alive
Date: Tue, 03 Oct 2017 02:43:05 GMT
Last-Modified: Mon, 05 Dec 2016 13:04:44 GMT
ETag: "40598e7146de804feaadf126c4bd90c1"
Accept-Ranges: bytes
Server: AmazonS3
Age: 53229
X-Cache: Hit from cloudfront
Via: 1.1 27e9da6719f6373893565138c47b2497.cloudfront.net (CloudFront)
X-Amz-Cf-Id: ypZjkUNnpOp-EOEoYjYuqwFAnDCFv2BVm5DpGHK16MrbbPZ-dC7GBw==

