HTTP/1.1 200 OK
Server: Apache-Coyote/1.1
X-Frame-Options: SAMEORIGIN
Cache-Control: max-age=86400
Accept-Ranges: bytes
ETag: W/"330-1479239261000"
Last-Modified: Tue, 15 Nov 2016 19:47:41 GMT
Content-Type: image/png;charset=UTF-8
Content-Length: 330
Date: Thu, 17 Nov 2016 10:25:49 GMT

