791
{"PostLoginObject":{"metadata":{"actionCodes":"","memos":""},"selectionList":{"selection":{"collection":[{"key":{"value":2045},"value":1417},{"key":{"value":2046},"value":1418},{"key":{"value":2032},"value":1420},{"key":{"value":2047},"value":1421},{"key":{"value":2048},"value":1423},{"key":{"value":2050},"value":1427},{"key":{"value":2033},"value":1428},{"key":{"value":2051},"value":1429},{"key":{"value":2034},"value":1430},{"key":{"value":2035},"value":1432},{"key":{"value":2036},"value":1433},{"key":{"value":2037},"value":1434},{"key":{"value":2052},"value":1436},{"key":{"value":2039},"value":1437},{"key":{"value":2053},"value":1438},{"key":{"value":2054},"value":1439},{"key":{"value":2055},"value":1440},{"key":{"value":256},"value":1441},{"key":{"value":2040},"value":1442},{"key":{"value":2056},"value":1443},{"key":{"value":255},"value":1444},{"key":{"value":260},"value":1445},{"key":{"value":2061},"value":1446},{"key":{"value":2057},"value":1447},{"key":{"value":2062},"value":1448},{"key":{"value":252},"value":1449},{"key":{"value":2063},"value":1450},{"key":{"value":2064},"value":1451},{"key":{"value":2065},"value":1452},{"key":{"value":2058},"value":1453},{"key":{"value":245},"value":1454},{"key":{"value":2059},"value":1455},{"key":{"value":2081},"value":1457},{"key":{"value":2082},"value":1458},{"key":{"value":2066},"value":1459},{"key":{"value":217},"value":1460},{"key":{"value":2083},"value":1461},{"key":{"value":2084},"value":1462},{"key":{"value":246},"value":1463},{"key":{"value":2067},"value":1464},{"key":{"value":2085},"value":1466},{"key":{"value":2068},"value":1467},{"key":{"value":2087},"value":1470},{"key":{"value":259},"value":1471},{"key":{"value":269},"value":1472},{"key":{"value":2088},"value":1474},{"key":{"value":2089},"value":1475},{"key":{"value":2070},"value":1477},{"key":{"value":218},"value":1479},{"key":{"value":2090},"value":1480}]},"total":956},"success":true,"viewId":0}}
0

