"{\n"
"   "availabilityRequest":{\n"
"      "viewName":"US BOPIS",\n"
"      "availabilityCriteria":{\n"
"         "itemNames":{\n"
"            "itemName":[\n"
"               "1124491005"\n"
"            ]\n"
"         },\n"
"         "facilityNames":{\n"
"            "facilityName":[\n"
"               "4380",\n"
"               "4381",\n"
"               "4384",\n"
"               "4388",\n"
"               "4392",\n"
"               "4395",\n"
"               "4398",\n"
"               "4399",\n"
"               "4401",\n"
"               "4411",\n"
"               "4412",\n"
"               "0715",\n"
"               "0738",\n"
"               "0752",\n"
"               "0771",\n"
"               "1070",\n"
"               "1073",\n"
"               "1075",\n"
"               "1076",\n"
"               "1079",\n"
"               "1080",\n"
"               "1083",\n"
"               "1084",\n"
"               "1085",\n"
"               "1086"\n"
"            ]\n"
"         }\n"
"      }\n"
"   }\n"
"}"
