"{\n"
"   "availabilityRequest":{\n"
"      "viewName":"US BOPIS",\n"
"      "availabilityCriteria":{\n"
"         "itemNames":{\n"
"            "itemName":[\n"
"               "2054920005"\n"
"            ]\n"
"         },\n"
"         "facilityNames":{\n"
"            "facilityName":[\n"
"               "4294",\n"
"               "4295",\n"
"               "4297",\n"
"               "4299",\n"
"               "4300",\n"
"               "4301",\n"
"               "4302",\n"
"               "4304",\n"
"               "4305",\n"
"               "4307",\n"
"               "4308",\n"
"               "4309",\n"
"               "4310",\n"
"               "4311",\n"
"               "4312",\n"
"               "4313",\n"
"               "4314",\n"
"               "4315",\n"
"               "4318",\n"
"               "4319",\n"
"               "4320",\n"
"               "4321",\n"
"               "4322",\n"
"               "4323",\n"
"               "4324"\n"
"            ]\n"
"         }\n"
"      }\n"
"   }\n"
"}"
