[API Trapper      (3f70:3090)] Recording in 64-bit mode: C:\Program Files\SmartBear\SoapUI-5.2.1\bin\SoapUI-5.2.1.exe
[Net An. Error    (3f70:3090)] Unable to load SSL proxy module: 'api_openssl_proxy_x64.dll' From Location: D:\Program Files (x86)\HP\Performance Center Host\bin\api_openssl_proxy_x64.dll ,SSL interception disabled.
[Net An. Error    (3f70:4584)] Unable to load SSL proxy module: 'api_openssl_proxy_x64.dll' From Location: D:\Program Files (x86)\HP\Performance Center Host\bin\api_openssl_proxy_x64.dll ,SSL interception disabled.
[Net An. Error    (3f70:412c)] Unable to load SSL proxy module: 'api_openssl_proxy_x64.dll' From Location: D:\Program Files (x86)\HP\Performance Center Host\bin\api_openssl_proxy_x64.dll ,SSL interception disabled.
[Network Analyzer (3f70:412c)] ------------------------------------------------------------------------------------------
[Network Analyzer (3f70:412c)] Load Network Traffic Analyzers:
[Network Analyzer (3f70:412c)]     Analyzer Module: WPLUS (value=)
[Network Analyzer (3f70:412c)]     Analyzer Module: WebBase (value=GetHttpProtocolAnalyzer:api_http_filter_x64.dll)
[Network Analyzer (3f70:412c)]     + Network Analyzer: api_http_filter_x64.dll @ GetHttpProtocolAnalyzer Loaded!
[Network Analyzer (3f70:412c)]     + Interception Auditors: WinInetWplusInterceptionAudit:api_http_filter_x64.dll
[Network Analyzer (3f70:412c)]     Analyzer Module: QTWeb (value=GetWebSocketProtocolAnalyzer:WebSocketAnalyzer_x64.dll)
[Network Analyzer (3f70:412c)]     + Network Analyzer: WebSocketAnalyzer_x64.dll @ GetWebSocketProtocolAnalyzer Loaded!
[Network Analyzer (3f70:412c)]     Analyzer Module: local_server (value=)
[Network Analyzer (3f70:412c)] ------------------------------------------------------------------------------------------
[Network Analyzer (3f70:4a80)] Address lookup for VAIPWPCAPP01 = 10.4.0.140
[Network Analyzer (3f70:412c)] Request Connection: Remote Server @ 0000:0000:0000:0000:0000:FFFF:3455:83A6 - 80  (Service=)  (Sid=  1)  PROXIED!
[Web Request      (3f70:47a8)] "GET /version-update/soapui-updates-os.xml"   
[Network Analyzer (3f70:47a8)]   (Sid:  1) Client -> Server @ : 189 bytes (Service=HTTP)
[Network Analyzer (3f70:47a8)]   (Sid:  1) Server -> Client : 2314 bytes  (Service=HTTP)
[Net An. Warning  (3f70:3674)] Request Connection: Remote Server @ 0000:0000:0000:0000:0000:FFFF:7F00:0001 - 1199 (Service=) Failed attempt #1. Unable to connect to remote server: rc = -1 , le = 10061)
[Net An. Warning  (3f70:3674)] Request Connection: Remote Server @ 0000:0000:0000:0000:0000:FFFF:7F00:0001 - 1199 (Service=) Failed attempt #2. Unable to connect to remote server: rc = -1 , le = 10061)
[Network Analyzer (3f70:412c)] Request Connection: Remote Server @ 0000:0000:0000:0000:0000:FFFF:3455:83A6 - 80  (Service=)  (Sid=  2)  PROXIED!
[Net An. Warning  (3f70:3674)] Request Connection: Remote Server @ 0000:0000:0000:0000:0000:FFFF:7F00:0001 - 1199 (Service=) Failed attempt #3. Unable to connect to remote server: rc = -1 , le = 10061)
[Net An. Error    (3f70:3674)] Request Connection: Remote Server @ 0000:0000:0000:0000:0000:FFFF:7F00:0001 - 1199  (Service=)  NOT PROXIED! (REASON: Unable to connect to remote server: rc = -1 , le = 10061)
[Web Request      (3f70:47a8)] "GET /version-update/soapui-updates-os.xml"   
[Network Analyzer (3f70:47a8)]   (Sid:  2) Client -> Server @ : 222 bytes (Service=HTTP)
[Network Analyzer (3f70:47a8)]   (Sid:  2) Server -> Client : 2314 bytes  (Service=HTTP)
[Network Analyzer (3f70:1c2c)] Request Connection: Remote Server @ 0000:0000:0000:0000:0000:FFFF:3239:2386 - 80  (Service=)  (Sid=  3)  PROXIED!
[Web Request      (3f70:47a8)] "GET /Appindex/soapui-starterpage.html?version=5.2.1"   
[Network Analyzer (3f70:47a8)]   (Sid:  3) Client -> Server @ : 444 bytes (Service=HTTP)
[Network Analyzer (3f70:47a8)]   (Sid:  3) Server -> Client : 544 bytes  (Service=HTTP)
[Network Analyzer (3f70:47a8)]   (Sid:  3) Connection Terminated (by Server)
[Network Analyzer (3f70:1c2c)] Request Connection: Remote Server @ 0000:0000:0000:0000:0000:FFFF:3239:2386 - 80  (Service=)  (Sid=  4)  PROXIED!
[Web Request      (3f70:47a8)] "GET /Appindex/soapui-starterpage.html?version=5.2.1"   
[Network Analyzer (3f70:47a8)]   (Sid:  4) Client -> Server @ : 448 bytes (Service=HTTP)
[Network Analyzer (3f70:47a8)]   (Sid:  4) Server -> Client : 568 bytes  (Service=HTTP)
[Network Analyzer (3f70:47a8)]   (Sid:  4) Connection Terminated (by Server)
[Network Analyzer (3f70:47a8)]   (Sid:  2) Connection Terminated (by Client)
[Network Analyzer (3f70:1c2c)] Request Connection: Remote Server @ 0000:0000:0000:0000:0000:FFFF:3239:2328 - 80  (Service=)  (Sid=  5)  PROXIED!
[Web Request      (3f70:47a8)] "GET /appindex/soapui-starterpage-home.html?version=5.2.1"   
[Network Analyzer (3f70:47a8)]   (Sid:  5) Client -> Server @ : 460 bytes (Service=HTTP)
[Network Analyzer (3f70:47a8)]   (Sid:  5) Server -> Client : 4220 bytes  (Service=HTTP)
[Network Analyzer (3f70:47a8)]   (Sid:  5) Server -> Client : 2543 bytes  (Service=HTTP)
[Web Request      (3f70:47a8)] "GET /appindex/css/normalize.css"   
[Network Analyzer (3f70:47a8)]   (Sid:  5) Client -> Server @ : 481 bytes (Service=HTTP)
[Network Analyzer (3f70:63e0)] Request Connection: Remote Server @ 0000:0000:0000:0000:0000:FFFF:3239:2328 - 80  (Service=)  (Sid=  6)  PROXIED!
[Web Request      (3f70:47a8)] "GET /appindex/css/main.css"   
[Network Analyzer (3f70:47a8)]   (Sid:  6) Client -> Server @ : 476 bytes (Service=HTTP)
[Network Analyzer (3f70:5d3c)] Request Connection: Remote Server @ 0000:0000:0000:0000:0000:FFFF:3239:2328 - 80  (Service=)  (Sid=  7)  PROXIED!
[Network Analyzer (3f70:47a8)]   (Sid:  5) Server -> Client : 2651 bytes  (Service=HTTP)
[Web Request      (3f70:47a8)] "GET /js/recent.js"   
[Network Analyzer (3f70:47a8)]   (Sid:  7) Client -> Server @ : 452 bytes (Service=HTTP)
[Network Analyzer (3f70: 5a0)] Request Connection: Remote Server @ 0000:0000:0000:0000:0000:FFFF:3239:2328 - 80  (Service=)  (Sid=  8)  PROXIED!
[Web Request      (3f70:47a8)] "GET /js/main.js"   
[Network Analyzer (3f70:47a8)]   (Sid:  8) Client -> Server @ : 450 bytes (Service=HTTP)
[Network Analyzer (3f70:47a8)]   (Sid:  6) Server -> Client : 4220 bytes  (Service=HTTP)
[Network Analyzer (3f70:47a8)]   (Sid:  7) Server -> Client : 1405 bytes  (Service=HTTP)
[Network Analyzer (3f70:47a8)]   (Sid:  8) Server -> Client : 1405 bytes  (Service=HTTP)
[Network Analyzer (3f70:47a8)]   (Sid:  6) Server -> Client : 1975 bytes  (Service=HTTP)
[Network Analyzer (3f70:1120)] Request Connection: Remote Server @ 0000:0000:0000:0000:0000:FFFF:0A12:03B9 - 30000  (Service=)  (Sid=  9)  PROXIED!
[Web Request      (3f70:47a8)] "POST /services/olm/customerorder/customerOrderAndTransactionList"   
[Network Analyzer (3f70:47a8)]   (Sid:  9) Client -> Server @ : 513 bytes (Service=HTTP)
[Network Analyzer (3f70:6154)] Request Connection: Remote Server @ 0000:0000:0000:0000:0000:FFFF:ADC2:445F - 80  (Service=)  (Sid= 10)  PROXIED!
[Web Request      (3f70:47a8)] "GET /ajax/libs/jquery/1.11.1/jquery.min.js"   
[Network Analyzer (3f70:47a8)]   (Sid: 10) Client -> Server @ : 475 bytes (Service=HTTP)
[Network Analyzer (3f70: 1a8)] Request Connection: Remote Server @ 0000:0000:0000:0000:0000:FFFF:D155:C95F - 80  (Service=)  (Sid= 11)  PROXIED!
[Web Request      (3f70:47a8)] "GET /css?family=Titillium+Web"   
[Network Analyzer (3f70:47a8)]   (Sid: 11) Client -> Server @ : 478 bytes (Service=HTTP)
[Network Analyzer (3f70:47a8)]   (Sid:  9) Server -> Client : 595 bytes  (Service=HTTP)
[Network Analyzer (3f70:47a8)]   (Sid: 11) Server -> Client : 598 bytes  (Service=HTTP)
[Network Analyzer (3f70:47a8)]   (Sid: 10) Server -> Client : 13800 bytes  (Service=HTTP)
[Web Request      (3f70:47a8)] "GET /appindex/images/soapui-os-learn.png"   
[Network Analyzer (3f70:47a8)]   (Sid:  6) Client -> Server @ : 524 bytes (Service=HTTP)
[Network Analyzer (3f70:47a8)]   (Sid: 10) Server -> Client : 1380 bytes  (Service=HTTP)
[Web Request      (3f70:47a8)] "GET /appindex/images/soapui-os-go-pro.png"   
[Network Analyzer (3f70:47a8)]   (Sid:  8) Client -> Server @ : 525 bytes (Service=HTTP)
[Web Request      (3f70:47a8)] "POST /services/olm/customerorder/customerOrderAndTransactionList"   
[Network Analyzer (3f70:47a8)]   (Sid:  9) Client -> Server @ : 636 bytes (Service=HTTP)
[Network Analyzer (3f70:47a8)]   (Sid: 10) Server -> Client : 16384 bytes  (Service=HTTP)
[Network Analyzer (3f70:47a8)]   (Sid: 10) Server -> Client : 2141 bytes  (Service=HTTP)
[Network Analyzer (3f70:47a8)]   (Sid:  6) Server -> Client : 1460 bytes  (Service=HTTP)
[Network Analyzer (3f70:47a8)]   (Sid:  6) Server -> Client : 6900 bytes  (Service=HTTP)
[Network Analyzer (3f70:47a8)]   (Sid:  8) Server -> Client : 2840 bytes  (Service=HTTP)
[Network Analyzer (3f70:47a8)]   (Sid:  8) Server -> Client : 2760 bytes  (Service=HTTP)
[Network Analyzer (3f70:47a8)]   (Sid:  6) Server -> Client : 1380 bytes  (Service=HTTP)
[Network Analyzer (3f70:47a8)]   (Sid:  6) Server -> Client : 2227 bytes  (Service=HTTP)
[Network Analyzer (3f70:47a8)]   (Sid:  8) Server -> Client : 1380 bytes  (Service=HTTP)
[Network Analyzer (3f70:47a8)]   (Sid:  8) Server -> Client : 6406 bytes  (Service=HTTP)
[Network Analyzer (3f70:2c20)] Request Connection: Remote Server @ 0000:0000:0000:0000:0000:FFFF:ACD9:0443 - 80  (Service=)  (Sid= 12)  PROXIED!
[Network Analyzer (3f70:47a8)]   (Sid:  9) Server -> Client : 772 bytes  (Service=HTTP)
[Network Analyzer (3f70:47a8)]   (Sid:  9) Server -> Client : 5 bytes  (Service=HTTP)
[Web Request      (3f70:47a8)] "GET /s/titilliumweb/v4/7XUFZ5tgS-tD6QamInJTcU3KvHLhcNjEHFQzwNtdMQY.ttf"   
[Network Analyzer (3f70:47a8)]   (Sid: 12) Client -> Server @ : 550 bytes (Service=HTTP)
[Network Analyzer (3f70:47a8)]   (Sid: 12) Server -> Client : 8280 bytes  (Service=HTTP)
[Network Analyzer (3f70:47a8)]   (Sid: 12) Server -> Client : 5520 bytes  (Service=HTTP)
[Network Analyzer (3f70:47a8)]   (Sid: 12) Server -> Client : 2727 bytes  (Service=HTTP)
[Network Analyzer (3f70:663c)] Request Connection: Remote Server @ 0000:0000:0000:0000:0000:FFFF:D155:C99D - 80  (Service=)  (Sid= 13)  PROXIED!
