HTTP/1.1 200 OK
Content-Type: text/html
Last-Modified: Thu, 03 Sep 2015 07:30:37 GMT
Accept-Ranges: bytes
ETag: "73eec66d1ae6d01:0"
Server: Microsoft-IIS/8.5
X-Powered-By: ASP.NET
Date: Thu, 11 Aug 2016 20:50:31 GMT
Content-Length: 6515

