		12.50.1096.0                  D:\Program Files (x86)\HP\Performance Center Host\bin\vugen.exe
		6.3.9600.17031 (winblue_gdr.140221-1952)C:\Windows\SYSTEM32\ntdll.dll
		6.3.9600.16384 (winblue_rtm.130821-1623)C:\Windows\SYSTEM32\MSCOREE.DLL
		6.3.9600.17031 (winblue_gdr.140221-1952)C:\Windows\SYSTEM32\KERNEL32.dll
		6.3.9600.17031 (winblue_gdr.140221-1952)C:\Windows\SYSTEM32\KERNELBASE.dll
		6.3.9600.16384 (winblue_rtm.130821-1623)C:\Windows\SYSTEM32\ADVAPI32.dll
		7.0.9600.17415 (winblue_r4.141028-1500)C:\Windows\SYSTEM32\msvcrt.dll
		6.3.9600.16384 (winblue_rtm.130821-1623)C:\Windows\SYSTEM32\sechost.dll
		6.3.9600.16384 (winblue_rtm.130821-1623)C:\Windows\SYSTEM32\RPCRT4.dll
		6.3.9600.17415 (winblue_r4.141028-1500)C:\Windows\SYSTEM32\SspiCli.dll
		6.3.9600.17415 (winblue_r4.141028-1500)C:\Windows\SYSTEM32\CRYPTBASE.dll
		6.3.9600.17415 (winblue_r4.141028-1500)C:\Windows\SYSTEM32\bcryptPrimitives.dll
		4.0.30319.34209 built by: FX452RTMGDRC:\Windows\Microsoft.NET\Framework\v4.0.30319\mscoreei.dll
		6.3.9600.16384 (winblue_rtm.130821-1623)C:\Windows\SYSTEM32\SHLWAPI.dll
		6.3.9600.16384 (winblue_rtm.130821-1623)C:\Windows\SYSTEM32\combase.dll
		6.3.9600.16384 (winblue_rtm.130821-1623)C:\Windows\SYSTEM32\USER32.dll
		6.3.9600.17902 (winblue_ltsb.150609-2200)C:\Windows\SYSTEM32\GDI32.dll
		6.3.9600.17415 (winblue_r4.141028-1500)C:\Windows\system32\IMM32.DLL
		6.3.9600.16384 (winblue_rtm.130821-1623)C:\Windows\SYSTEM32\MSCTF.dll
		4.0.30319.34209 built by: FX452RTMGDRC:\Windows\Microsoft.NET\Framework\v4.0.30319\clr.dll
		12.00.51670.34230 built by: FX452RTMGDRC:\Windows\SYSTEM32\MSVCR120_CLR0400.dll
		4.0.30319.34209 built by: FX452RTMGDRC:\Windows\assembly\NativeImages_v4.0.30319_32\mscorlib\d03a3ddcd6a395878751c5e90fa16915\mscorlib.ni.dll
		6.3.9600.16384 (winblue_rtm.130821-1623)C:\Windows\SYSTEM32\ole32.dll
		6.3.9600.17415 (winblue_r4.141028-1500)C:\Windows\SYSTEM32\kernel.appcore.dll
		6.3.9600.16384 (winblue_rtm.130821-1623)C:\Windows\system32\uxtheme.dll
		4.0.30319.34209 built by: FX452RTMGDRC:\Windows\Microsoft.NET\Framework\v4.0.30319\clrjit.dll
		6.3.9600.17560                C:\Windows\SYSTEM32\OLEAUT32.dll
		4.0.30319.34239 built by: FX452RTMGDRC:\Windows\assembly\NativeImages_v4.0.30319_32\System\1a6b5095c4416a37f9ca4cf4436d1311\System.ni.dll
		4.0.30319.34209 built by: FX452RTMGDRC:\Windows\assembly\NativeImages_v4.0.30319_32\System.Drawing\d91798a9a9fcb450351fe8e49026a69f\System.Drawing.ni.dll
		4.0.30319.34250 built by: FX452RTMGDRC:\Windows\assembly\NativeImages_v4.0.30319_32\System.Windows.Forms\e3a57545efff2de6efdcefb606e35e3e\System.Windows.Forms.ni.dll
		4.0.30319.34209 built by: FX452RTMGDRC:\Windows\assembly\NativeImages_v4.0.30319_32\System.Core\257fa713928375c0ac9b9f24904e988f\System.Core.ni.dll
		6.3.9600.17415 (winblue_r4.141028-1500)C:\Windows\SYSTEM32\CRYPTSP.dll
		6.3.9600.16384 (winblue_rtm.130821-1623)C:\Windows\system32\rsaenh.dll
		6.3.9600.16384 (winblue_rtm.130821-1623)C:\Windows\SYSTEM32\bcrypt.dll
		6.3.9600.17415 (winblue_r4.141028-1500)C:\Windows\WinSxS\x86_microsoft.windows.gdiplus_6595b64144ccf1df_1.1.9600.17415_none_dad8722c5bcc2d8f\gdiplus.dll
		6.3.9600.17669 (winblue_r8.150128-1500)C:\Windows\SYSTEM32\WindowsCodecs.dll
		5.82 (winblue_rtm.130821-1623)C:\Windows\WinSxS\x86_microsoft.windows.common-controls_6595b64144ccf1df_5.82.9600.17810_none_7c5b6194aa0716f1\comctl32.dll
		4.0.30319.34209 built by: FX452RTMGDRC:\Windows\assembly\NativeImages_v4.0.30319_32\WindowsBase\579202ba970d73dae32cc3a5c68af8e2\WindowsBase.ni.dll
		6.10 (winblue_rtm.130821-1623)C:\Windows\WinSxS\x86_microsoft.windows.common-controls_6595b64144ccf1df_6.0.9600.17810_none_a9edf09f013934e0\comctl32.dll
		6.3.9600.16384 (winblue_rtm.130821-1623)C:\Windows\system32\dwmapi.dll
		4.0.30319.34209 built by: FX452RTMGDRC:\Windows\assembly\NativeImages_v4.0.30319_32\PresentationCore\d747b6eed1a44bfd51d76ed6af359316\PresentationCore.ni.dll
		4.0.30319.34209               C:\Windows\assembly\NativeImages_v4.0.30319_32\Presentatio5ae0f00f#\1683f0fd402eb83acb756d3d2c1ab331\PresentationFramework.ni.dll
		6.3.9600.16384 (winblue_rtm.130821-1623)C:\Windows\SYSTEM32\DWrite.dll
		4.0.30319.34209 built by: FX452RTMGDRC:\Windows\assembly\NativeImages_v4.0.30319_32\System.Xaml\d626184834dde3f4906aff139d4e5bbf\System.Xaml.ni.dll
		4.0.30319.34209 built by: FX452RTMGDRC:\Windows\Microsoft.NET\Framework\v4.0.30319\WPF\wpfgfx_v0400.dll
		4.0.30319.33440 built by: FX45W81RTMRELC:\Windows\Microsoft.NET\Framework\v4.0.30319\WPF\PresentationNative_v0400.dll
		4.0.30319.34230 built by: FX452RTMGDRC:\Windows\assembly\NativeImages_v4.0.30319_32\System.Xml\9a349fb029581f4752d2c6cfcfeab816\System.Xml.ni.dll
		6.3.9600.17415 (winblue_r4.141028-1500)C:\Windows\SYSTEM32\VERSION.dll
		4.0.30319.34209 built by: FX452RTMGDRC:\Windows\assembly\NativeImages_v4.0.30319_32\System.Configuration\d9961946cc4b6fb67e19cd2f8ce90a76\System.Configuration.ni.dll
		6.3.9600.17031 (winblue_gdr.140221-1952)C:\Windows\SYSTEM32\shell32.dll
		6.3.9600.16384 (winblue_rtm.130821-1623)C:\Windows\SYSTEM32\SHCORE.dll
		2001.12.10530.17415 (winblue_r4.141028-1500)C:\Windows\SYSTEM32\clbcatq.dll
		12.50.1096.0                  D:\Program Files (x86)\HP\Performance Center Host\bin\RegistryUtil.dll
		11.0.60610.1 built by: Q11REL C:\Windows\SYSTEM32\mfc110.dll
		11.00.51106.1 built by: Q11RELC:\Windows\SYSTEM32\MSVCR110.dll
		11.0.60610.1 built by: Q11REL C:\Windows\SYSTEM32\atl110.DLL
		12.50.1096.0                  D:\Program Files (x86)\HP\Performance Center Host\bin\lr_vug32.dll
		12.50.1096.0                  D:\Program Files (x86)\HP\Performance Center Host\bin\inifile.dll
		12.50.855.0                   D:\Program Files (x86)\HP\Performance Center Host\bin\mosifs32.dll
		12.50.855.0                   D:\Program Files (x86)\HP\Performance Center Host\bin\runlogic.dll
		12.50.1096.0                  D:\Program Files (x86)\HP\Performance Center Host\bin\vusercfg.dll
		12.50.855.0                   D:\Program Files (x86)\HP\Performance Center Host\bin\thrdutil.dll
		12.50.855.0                   D:\Program Files (x86)\HP\Performance Center Host\bin\parameng.dll
		12.50.855.0                   D:\Program Files (x86)\HP\Performance Center Host\bin\dtable32.dll
		12.50.855.0                   D:\Program Files (x86)\HP\Performance Center Host\bin\config.dll
		12.50.1096.0                  D:\Program Files (x86)\HP\Performance Center Host\bin\MultiVuser.dll
		11.00.51106.1 built by: Q11RELC:\Windows\SYSTEM32\MSVCP110.dll
		12.50.855.0                   D:\Program Files (x86)\HP\Performance Center Host\bin\CrtInitiator.dll
		6.3.9600.16384 (winblue_rtm.130821-1623)C:\Windows\SYSTEM32\USERENV.dll
		6.3.9600.16384 (winblue_rtm.130821-1623)C:\Windows\SYSTEM32\IPHLPAPI.DLL
		12.50.855.0                   D:\Program Files (x86)\HP\Performance Center Host\bin\msg_handler.dll
		12.50.855.0                   D:\Program Files (x86)\HP\Performance Center Host\bin\comm_util.dll
		12.50.855.0                   D:\Program Files (x86)\HP\Performance Center Host\bin\MLIB_DS.dll
		12.50.855.0                   D:\Program Files (x86)\HP\Performance Center Host\bin\run_time_context.dll
		12.50.855.0                   D:\Program Files (x86)\HP\Performance Center Host\bin\libxdrutil.dll
		12.50.1096.0                  D:\Program Files (x86)\HP\Performance Center Host\bin\DynamicTree.dll
		9.20.0.0                      D:\Program Files (x86)\HP\Performance Center Host\bin\CrtLoader_VS6.dll
		9.20.0.0                      D:\Program Files (x86)\HP\Performance Center Host\bin\CrtLoader_VS8_0_50727_1433.dll
		9.20.0.0                      D:\Program Files (x86)\HP\Performance Center Host\bin\CrtLoader_VS9_0_21022_8.dll
		6.3.9600.17415 (winblue_r4.141028-1500)C:\Windows\SYSTEM32\profapi.dll
		6.3.9600.17415 (winblue_r4.141028-1500)C:\Windows\SYSTEM32\NSI.dll
		6.3.9600.17415 (winblue_r4.141028-1500)C:\Windows\SYSTEM32\WINNSI.DLL
		12.50.855.0                   D:\Program Files (x86)\HP\Performance Center Host\bin\xdr.dll
		12.50.855.0                   D:\Program Files (x86)\HP\Performance Center Host\bin\rtc_protocol.dll
		8.00.50727.8428               C:\Windows\WinSxS\x86_microsoft.vc80.crt_1fc8b3b9a1e18e3b_8.0.50727.8428_none_d08a11e2442dc25d\MSVCR80.dll
		9.00.30729.8387               C:\Windows\WinSxS\x86_microsoft.vc90.crt_1fc8b3b9a1e18e3b_9.0.30729.8387_none_5094ca96bcb6b2bb\MSVCR90.dll
		11.00.9600.16384 (winblue_rtm.130821-1623)C:\Windows\SYSTEM32\urlmon.dll
		11.00.9600.16384 (winblue_rtm.130821-1623)C:\Windows\SYSTEM32\iertutil.dll
		11.00.9600.16384 (winblue_rtm.130821-1623)C:\Windows\SYSTEM32\WININET.dll
		6.3.9600.17415 (winblue_r4.141028-1500)C:\Windows\SYSTEM32\Secur32.dll
		4.0.30319.34209 built by: FX452RTMGDRC:\Windows\assembly\NativeImages_v4.0.30319_32\WindowsForm0b574481#\27a0b313806f84c7456f76c917f86c71\WindowsFormsIntegration.ni.dll
		6.3.9600.17415 (winblue_r4.141028-1500)C:\Windows\SYSTEM32\d3d9.dll
		6.3.9600.17415 (winblue_r4.141028-1500)C:\Windows\SYSTEM32\d3d10warp.dll
		4.0.30319.34209 built by: FX452RTMGDRC:\Windows\assembly\NativeImages_v4.0.30319_32\Presentatio53a7a42c#\f5998b40c85286e25d3d119ee356b025\PresentationFramework.AeroLite.ni.dll
		4.0.30319.33440               C:\Windows\assembly\NativeImages_v4.0.30319_32\Presentatio49d6fefe#\24dd8f01811492d203e131c26c515bab\PresentationFramework-SystemXml.ni.dll
		4.0.30319.33440 built by: FX45W81RTMRELC:\Windows\assembly\NativeImages_v4.0.30319_32\UIAutomationTypes\c8849d6fd3bee972ec451baea15949ca\UIAutomationTypes.ni.dll
		7.2.9600.16384 (winblue_rtm.130821-1623)C:\Windows\SYSTEM32\UIAutomationCore.dll
		6.3.9600.16384 (winblue_rtm.130821-1623)C:\Windows\SYSTEM32\sxs.dll
		6.3.9600.16384 (winblue_rtm.130821-1623)C:\Windows\SYSTEM32\mscms.dll
		6.3.9600.17415 (winblue_r4.141028-1500)C:\Windows\SYSTEM32\WindowsCodecsExt.dll
		4.0.30319.34209 built by: FX452RTMGDRC:\Windows\assembly\NativeImages_v4.0.30319_32\System.Data.Entity\b57b4291ebb586f6815e71ee20c20e8a\System.Data.Entity.ni.dll
		12.50.249.0                   D:\Program Files (x86)\HP\Performance Center Host\bin\RecentScripts.dll
		6.3.9600.17415 (winblue_r4.141028-1500)C:\Windows\SYSTEM32\PSAPI.DLL
		4.0.30319.34248 built by: FX452RTMGDRC:\Windows\assembly\NativeImages_v4.0.30319_32\System.Web\240c6480a4c342fb7e7b29011796350e\System.Web.ni.dll
		4.0.30319.34248 built by: FX452RTMGDRC:\Windows\Microsoft.NET\Framework\v4.0.30319\webengine4.dll
		12.50.1096.0                  D:\Program Files (x86)\HP\Performance Center Host\bin\SnapshotLoaderWrap.dll
		12.0.135.0                    D:\Program Files (x86)\HP\Performance Center Host\bin\ViewerGen.dll
		11.00.9600.17840 (winblue_r11.150522-0826)C:\Windows\SYSTEM32\ieframe.dll
		7.00.9600.17031 (winblue_gdr.140221-1952)C:\Windows\SYSTEM32\PROPSYS.dll
		6.3.9600.16384 (winblue_rtm.130821-1623)C:\Windows\SYSTEM32\apphelp.dll
		11.00.9600.17278 (winblue_r2.140815-1500)C:\Windows\SYSTEM32\mshtml.dll
		12.0.135.0                    D:\Program Files (x86)\HP\Performance Center Host\bin\ielpview.dll
		12.0.135.0                    D:\Program Files (x86)\HP\Performance Center Host\bin\AsmHook.dll
		12.0.135.0                    D:\Program Files (x86)\HP\Performance Center Host\bin\VirFileSystemMng.dll
		12.0.135.0                    D:\Program Files (x86)\HP\Performance Center Host\bin\VirPrivateProfiles.dll
		4.0.30319.33440 built by: FX45W81RTMRELC:\Windows\assembly\NativeImages_v4.0.30319_32\Accessibility\d41e2cc6e59b141b6f57ebe70eb95b58\Accessibility.ni.dll
		6.3.9600.17031 (winblue_gdr.140221-1952)C:\Windows\system32\twinapi.dll
		6.3.9600.17415 (winblue_r4.141028-1500)C:\Windows\SYSTEM32\Bcp47Langs.dll
		6.3.9600.17415 (winblue_r4.141028-1500)C:\Windows\SYSTEM32\LINKINFO.dll
		6.3.9600.16384 (winblue_rtm.130821-1623)C:\Windows\SYSTEM32\SETUPAPI.dll
		6.3.9600.17415 (winblue_r4.141028-1500)C:\Windows\SYSTEM32\CFGMGR32.dll
		6.3.9600.16384 (winblue_rtm.130821-1623)C:\Windows\SYSTEM32\ntshrui.dll
		6.3.9600.17415 (winblue_r4.141028-1500)C:\Windows\SYSTEM32\srvcli.dll
		6.3.9600.17415 (winblue_r4.141028-1500)C:\Windows\SYSTEM32\cscapi.dll
		6.3.9600.16384 (winblue_rtm.130821-1623)C:\Windows\system32\msimtf.dll
		3.10.349.0                    C:\Windows\SYSTEM32\msls31.dll
		6.3.9600.16384 (winblue_rtm.130821-1623)C:\Windows\SYSTEM32\d2d1.dll
		6.3.9600.17415 (winblue_r4.141028-1500)C:\Windows\SYSTEM32\dxgi.dll
		6.3.9600.17415 (winblue_r4.141028-1500)C:\Windows\SYSTEM32\d3d11.dll
		6.3.9600.16384 (winblue_rtm.130821-1623)C:\Windows\SYSTEM32\MLANG.dll
		6.3.9600.16384 (winblue_rtm.130821-1623)C:\Windows\SYSTEM32\ntmarta.dll
		4.0.30319.34230 built by: FX452RTMGDRC:\Windows\assembly\NativeImages_v4.0.30319_32\System.ServiceModel\f9eb8fdbc1b3cd25a5b187ea30e77d6c\System.ServiceModel.ni.dll
		6.3.9600.16384 (winblue_rtm.130821-1623)C:\Windows\SYSTEM32\rasapi32.dll
		6.3.9600.17415 (winblue_r4.141028-1500)C:\Windows\SYSTEM32\rasman.dll
		6.3.9600.16384 (winblue_rtm.130821-1623)C:\Windows\SYSTEM32\WS2_32.dll
		6.3.9600.17415 (winblue_r4.141028-1500)C:\Windows\SYSTEM32\rtutils.dll
		6.3.9600.16384 (winblue_rtm.130821-1623)C:\Windows\system32\mswsock.dll
		6.3.9600.16384 (winblue_rtm.130821-1623)C:\Windows\SYSTEM32\winhttp.dll
		6.3.9600.16384 (winblue_rtm.130821-1623)C:\Windows\SYSTEM32\dhcpcsvc6.DLL
		6.3.9600.16384 (winblue_rtm.130821-1623)C:\Windows\SYSTEM32\dhcpcsvc.DLL
		6.3.9600.16384 (winblue_rtm.130821-1623)C:\Windows\SYSTEM32\DNSAPI.dll
		3,1,0,1                       C:\Program Files (x86)\Bonjour\mdnsNSP.dll
		6.3.9600.17415 (winblue_r4.141028-1500)C:\Windows\System32\rasadhlp.dll
		6.3.9600.16384 (winblue_rtm.130821-1623)C:\Windows\System32\fwpuclnt.dll
		4.0.30319.33440 built by: FX45W81RTMRELC:\Windows\assembly\NativeImages_v4.0.30319_32\Presentatio1c9175f8#\7c8c4c6ec0865f877904f806d7f6c161\PresentationFramework.Aero.ni.dll
		4.0.30319.33440 built by: FX45W81RTMRELC:\Windows\assembly\NativeImages_v4.0.30319_32\UIAutomationProvider\eb4dc67f3998b9692a7c596129b2c85c\UIAutomationProvider.ni.dll
		4.0.30319.34230 built by: FX452RTMGDRC:\Windows\assembly\NativeImages_v4.0.30319_32\SMDiagnostics\fbb07ef2f687508f75bfeacd97f2453b\SMDiagnostics.ni.dll
		4.0.30319.34230 built by: FX452RTMGDRC:\Windows\assembly\NativeImages_v4.0.30319_32\System.Servd1dec626#\d6180cfaac57962ca62186c1151b5f7f\System.ServiceModel.Internals.ni.dll
		4.0.30319.34230 built by: FX452RTMGDRC:\Windows\assembly\NativeImages_v4.0.30319_32\System.Runteb92aa12#\7d61ab80c44108150bad37e8d916e220\System.Runtime.Serialization.ni.dll
		5.31.23.1231                  C:\Windows\SYSTEM32\RichEd20.DLL
		6.3.9600.17415 (winblue_r4.141028-1500)C:\Windows\SYSTEM32\USP10.dll
		4.0.30319.34209 built by: FX452RTMGDRC:\Windows\assembly\NativeImages_v4.0.30319_32\Microsoft.Build\48016c763b8ea1d225b1ee389559eb6b\Microsoft.Build.ni.dll
		4.0.30319.33440 built by: FX45W81RTMRELC:\Windows\assembly\NativeImages_v4.0.30319_32\Microsoft.B3325a29b#\c10ca2799f06849e22c60997ac95a389\Microsoft.Build.Framework.ni.dll
		12.50.1096.0                  D:\Program Files (x86)\HP\Performance Center Host\bin\coparamui.dll
		12.50.855.0                   D:\Program Files (x86)\HP\Performance Center Host\bin\PathResolver.dll
		12.50.1096.0                  D:\Program Files (x86)\HP\Performance Center Host\bin\paramui.dll
		6.3.9600.16384 (winblue_rtm.130821-1623)C:\Windows\SYSTEM32\MPR.dll
		12.50.1096.0                  D:\Program Files (x86)\HP\Performance Center Host\bin\is32.dll
		21, 00, 0, 0                  D:\Program Files (x86)\HP\Performance Center Host\bin\BCGCBPRO2100110.dll
		6.3.9600.16384 (winblue_rtm.130821-1623)C:\Windows\SYSTEM32\COMDLG32.dll
		6.3.9600.16384 (winblue_rtm.130821-1623)C:\Windows\SYSTEM32\WINSPOOL.DRV
		6.3.9600.17415 (winblue_r4.141028-1500)C:\Windows\SYSTEM32\ODBC32.dll
		6.3.9600.16384 (winblue_rtm.130821-1623)C:\Windows\SYSTEM32\WINMM.dll
		7.2.9600.17415 (winblue_r4.141028-1500)C:\Windows\SYSTEM32\OLEACC.dll
		6.3.9600.16384 (winblue_rtm.130821-1623)C:\Windows\SYSTEM32\WINMMBASE.dll
		6.3.9600.17415 (winblue_r4.141028-1500)C:\Windows\SYSTEM32\DEVOBJ.dll
		6.3.9600.17415 (winblue_r4.141028-1500)C:\Windows\SYSTEM32\msimg32.dll
		12.50.855.0                   D:\Program Files (x86)\HP\Performance Center Host\bin\paramlr.dll
		12.50.855.0                   D:\Program Files (x86)\HP\Performance Center Host\bin\paramtbl.dll
		12.50.855.0                   D:\Program Files (x86)\HP\Performance Center Host\bin\mmdtable.dll
		12.50.855.0                   D:\Program Files (x86)\HP\Performance Center Host\bin\libmemmap.dll
		12.50.855.0                   D:\Program Files (x86)\HP\Performance Center Host\bin\mmdbigtable.dll
		12.50.855.0                   D:\Program Files (x86)\HP\Performance Center Host\bin\paramcst.dll
		12.50.855.0                   D:\Program Files (x86)\HP\Performance Center Host\bin\paramunq.dll
		12.50.855.0                   D:\Program Files (x86)\HP\Performance Center Host\bin\paramfnc.dll
		12.50.855.0                   D:\Program Files (x86)\HP\Performance Center Host\bin\paramss.dll
		12.50.855.0                   D:\Program Files (x86)\HP\Performance Center Host\bin\paramdte.dll
		12.50.855.0                   D:\Program Files (x86)\HP\Performance Center Host\bin\paramvar.dll
		12.50.855.0                   D:\Program Files (x86)\HP\Performance Center Host\bin\paramrnd.dll
		4.0.30319.33440 built by: FX45W81RTMRELC:\Windows\assembly\NativeImages_v4.0.30319_32\System.Xml.Linq\ca77cfc1da7241e2dd280b446dc7b92b\System.Xml.Linq.ni.dll
		12.50.1096.0                  D:\Program Files (x86)\HP\Performance Center Host\bin\ArchiveManager.dll
		12.50.1096.0                  D:\Program Files (x86)\HP\Performance Center Host\bin\runlogicview.ocx
		4.0.30319.34209 built by: FX452RTMGDRC:\Windows\assembly\NativeImages_v4.0.30319_32\System.Data\e3abc4d3f7fef760d13bf957613960cb\System.Data.ni.dll
		4.0.30319.34209 built by: FX452RTMGDRC:\Windows\Microsoft.Net\assembly\GAC_32\System.Data\v4.0_4.0.0.0__b77a5c561934e089\System.Data.dll
		6.3.9600.16431 (winblue_gdr.131015-2301)C:\Windows\SYSTEM32\CRYPT32.dll
		6.3.9600.17415 (winblue_r4.141028-1500)C:\Windows\SYSTEM32\MSASN1.dll
		6.3.9600.17415 (winblue_r4.141028-1500)C:\Windows\SYSTEM32\WINTRUST.dll
		4.0.30319.33440 built by: FX45W81RTMRELC:\Windows\Microsoft.NET\Framework\v4.0.30319\mscorsecimpl.dll
		6.3.9600.17415 (winblue_r4.141028-1500)C:\Windows\SYSTEM32\imagehlp.dll
		6.3.9600.16384 (winblue_rtm.130821-1623)C:\Windows\SYSTEM32\ncrypt.dll
		6.3.9600.16384 (winblue_rtm.130821-1623)C:\Windows\SYSTEM32\NTASN1.dll
		6.3.9600.16384 (winblue_rtm.130821-1623)C:\Windows\SYSTEM32\gpapi.dll
		6.3.9600.17415 (winblue_r4.141028-1500)C:\Windows\SYSTEM32\cryptnet.dll
		6.3.9600.16384 (winblue_rtm.130821-1623)C:\Windows\SYSTEM32\WLDAP32.dll
		12.50.1096.0                  D:\Program Files (x86)\HP\Performance Center Host\bin\ParamUINotification.dll
		4.0.30319.34209 built by: FX452RTMGDRC:\Windows\assembly\NativeImages_v4.0.30319_32\System.Transactions\e0385d2ccd8766063e53bf96510a9350\System.Transactions.ni.dll
		4.0.30319.34209 built by: FX452RTMGDRC:\Windows\Microsoft.Net\assembly\GAC_32\System.Transactions\v4.0_4.0.0.0__b77a5c561934e089\System.Transactions.dll
		4.0.8854.1                    D:\Program Files (x86)\HP\Performance Center Host\bin\sqlceme40.dll
		4.0.30319.33440 built by: FX45W81RTMRELC:\Windows\assembly\NativeImages_v4.0.30319_32\System.Ente96d83b35#\c9ab71df4c1c005a0c93a84bc49a75c8\System.EnterpriseServices.ni.dll
		4.0.30319.33440 built by: FX45W81RTMRELC:\Windows\assembly\NativeImages_v4.0.30319_32\System.Ente96d83b35#\c9ab71df4c1c005a0c93a84bc49a75c8\System.EnterpriseServices.Wrapper.dll
		4.0.30319.33440 built by: FX45W81RTMRELC:\Windows\Microsoft.Net\assembly\GAC_32\System.EnterpriseServices\v4.0_4.0.0.0__b03f5f7f11d50a3a\System.EnterpriseServices.Wrapper.dll
		4.0.30319.34209 built by: FX452RTMGDRC:\Windows\assembly\NativeImages_v4.0.30319_32\System.Numerics\780d94e5d6c1620ed4556ed4d6586007\System.Numerics.ni.dll
		4.0.30319.33440 built by: FX45W81RTMRELC:\Windows\assembly\NativeImages_v4.0.30319_32\System.Data86569bbf#\9ab60266467988ac9afd4863fe687c99\System.Data.OracleClient.ni.dll
		4.0.30319.33440 built by: FX45W81RTMRELC:\Windows\Microsoft.Net\assembly\GAC_32\System.Data.OracleClient\v4.0_4.0.0.0__b77a5c561934e089\System.Data.OracleClient.dll
		12.50.1096.0                  D:\Program Files (x86)\HP\Performance Center Host\bin\HP.LR.VuGen.ScriptHandlerComWrapper.dll
		12.50.1096.0                  D:\Program Files (x86)\HP\Performance Center Host\bin\lrscripthandler.DLL
		12.50.1096.0                  D:\Program Files (x86)\HP\Performance Center Host\bin\webscripthandler.DLL
		12.50.1096.0                  D:\Program Files (x86)\HP\Performance Center Host\bin\WebStepClsShared.dll
		12.50.1096.0                  D:\Program Files (x86)\HP\Performance Center Host\bin\WebStepClsDesign.dll
		3, 6, 0, 0                    D:\Program Files (x86)\HP\Performance Center Host\bin\icuuc36.dll
		12.50.1096.0                  D:\Program Files (x86)\HP\Performance Center Host\bin\mshtmtr.dll
		12.50.1096.0                  D:\Program Files (x86)\HP\Performance Center Host\bin\DynWininet.dll
		12.50.855.0                   D:\Program Files (x86)\HP\Performance Center Host\bin\wraplwcrypto.dll
		3, 6, 0, 0                    D:\Program Files (x86)\HP\Performance Center Host\bin\icudt36.dll
		12.50.1096.0                  D:\Program Files (x86)\HP\Performance Center Host\bin\LrXmlScriptHandler.DLL
		12.50.1096.0                  D:\Program Files (x86)\HP\Performance Center Host\bin\ReplayBinaryUtils32.dll
		6.3.9600.16384 (winblue_rtm.130821-1623)C:\Windows\SYSTEM32\WSOCK32.dll
		12.50.1096.0                  D:\Program Files (x86)\HP\Performance Center Host\bin\websteps_scripthandler.DLL
		12.50.1096.0                  D:\Program Files (x86)\HP\Performance Center Host\bin\base_scripthandler.dll
		6.3.9600.17415 (winblue_r4.141028-1500)C:\Windows\SYSTEM32\RICHED32.DLL
		12.50.1096.0                  D:\Program Files (x86)\HP\Performance Center Host\bin\WebUIRes.DLL
		12.50.1096.0                  D:\Program Files (x86)\HP\Performance Center Host\bin\webservice_scripthandler.DLL
		12.50.1096.0                  D:\Program Files (x86)\HP\Performance Center Host\bin\WSDLSDK.dll
		12.50.1096.0                  D:\Program Files (x86)\HP\Performance Center Host\bin\ServiceManagementLight.dll
		12.50.1096.0                  D:\Program Files (x86)\HP\Performance Center Host\bin\SoapRecordFilter.dll
		12.50.1096.0                  D:\Program Files (x86)\HP\Performance Center Host\bin\WebServicesSDK.dll
		12.50.855.0                   D:\Program Files (x86)\HP\Performance Center Host\bin\XmlParserInterface.dll
		12.50.1096.0                  D:\Program Files (x86)\HP\Performance Center Host\bin\LrJni.dll
		12.50.1096.0                  D:\Program Files (x86)\HP\Performance Center Host\bin\WSDLParser.dll
		12.50.1096.0                  D:\Program Files (x86)\HP\Performance Center Host\bin\WsCommonLogger.dll
		12.50.1096.0                  D:\Program Files (x86)\HP\Performance Center Host\bin\ConfigurationUtil.dll
		12.50.1096.0                  D:\Program Files (x86)\HP\Performance Center Host\bin\HttpUtils.dll
		2, 7, 0                       D:\Program Files (x86)\HP\Performance Center Host\bin\xerces-c_2_7.dll
		1, 10, 0, 0                   D:\Program Files (x86)\HP\Performance Center Host\bin\Xalan-C_1_10Mic.dll
		12.50.855.0                   D:\Program Files (x86)\HP\Performance Center Host\bin\mic_regex.dll
		12.50.1096.0                  D:\Program Files (x86)\HP\Performance Center Host\bin\MicXMLDiffTool.dll
		12.50.1096.0                  D:\Program Files (x86)\HP\Performance Center Host\bin\WSDLToolkits.dll
		                              D:\Program Files (x86)\HP\Performance Center Host\bin\XalanMessages_1_10.DLL
		3, 6, 0, 0                    D:\Program Files (x86)\HP\Performance Center Host\bin\icuin36.dll
		12.50.1096.0                  D:\Program Files (x86)\HP\Performance Center Host\bin\soap_scripthandler.DLL
		4.0.30319.33440               C:\Windows\assembly\NativeImages_v4.0.30319_32\Microsoft.CSharp\a5d28ed231a5fda37b18e69526da99e4\Microsoft.CSharp.ni.dll
		4.0.30319.33440               C:\Windows\assembly\NativeImages_v4.0.30319_32\System.Dynamic\e3ef1676292d91c65c948c0e2423dae5\System.Dynamic.ni.dll
		6.3.9600.17031 (winblue_gdr.140221-1952)C:\Windows\SYSTEM32\powrprof.dll
		6.3.9600.17415 (winblue_r4.141028-1500)C:\Windows\SYSTEM32\WtsApi32.dll
		6.3.9600.17415 (winblue_r4.141028-1500)C:\Windows\SYSTEM32\WINSTA.dll
		4.0.30319.34209 built by: FX452RTMGDRC:\Windows\Microsoft.NET\Framework\v4.0.30319\WPF\PenIMC.dll
		4.0.30319.33440               C:\Windows\assembly\NativeImages_v4.0.30319_32\Presentatio4b37ff64#\e96c288774a3db94e3cb9cb59e9e32a6\PresentationFramework-SystemXmlLinq.ni.dll
		4.0.30319.33440               C:\Windows\assembly\NativeImages_v4.0.30319_32\Presentatio84a6349c#\6d352750d0ac2521363055d875c0256d\PresentationFramework-SystemCore.ni.dll
		4.0.30319.33440               C:\Windows\assembly\NativeImages_v4.0.30319_32\Presentatio84a7b877#\53b2311d031acb35de5ab30ef205e38d\PresentationFramework-SystemData.ni.dll
		6.3.9600.16384 (winblue_rtm.130821-1623)C:\Windows\system32\msctfui.dll
		6.3.9600.16384 (winblue_rtm.130821-1623)C:\Windows\system32\explorerframe.dll
		6.3.9600.16384 (winblue_rtm.130821-1623)C:\Windows\system32\DUser.dll
		6.3.9600.16384 (winblue_rtm.130821-1623)C:\Windows\system32\DUI70.dll
		12.50.1096.0                  D:\Program Files (x86)\HP\Performance Center Host\bin\HP.LR.VuGen.LrVugHelper.dll
		12.50.1096.0                  D:\Program Files (x86)\HP\Performance Center Host\bin\TextContainer.dll
		12.50.1096.0                  D:\Program Files (x86)\HP\Performance Center Host\bin\vugen_record_api.dll
		12.50.1096.0                  D:\Program Files (x86)\HP\Performance Center Host\bin\insp_gen.dll
		12.50.1096.0                  D:\Program Files (x86)\HP\Performance Center Host\bin\inspdll.dll
		12.50.1096.0                  D:\Program Files (x86)\HP\Performance Center Host\bin\pefile.dll
		12.50.1096.0                  D:\Program Files (x86)\HP\Performance Center Host\bin\HTTPSnapshotsWrapper.dll
		12.50.855.0                   D:\Program Files (x86)\HP\Performance Center Host\bin\wrapzlib.dll
		12.50.1096.0                  D:\Program Files (x86)\HP\Performance Center Host\bin\unknown_only_helper.dll
		12.50.1096.0                  D:\Program Files (x86)\HP\Performance Center Host\bin\type_info_pool.dll
		12.50.1096.0                  D:\Program Files (x86)\HP\Performance Center Host\bin\CodeGenerationAPI.dll
		12.50.1096.0                  D:\Program Files (x86)\HP\Performance Center Host\bin\LRSDKUtilities.dll
		12.50.1096.0                  D:\Program Files (x86)\HP\Performance Center Host\bin\InternalSDKUtils.dll
		12.50.1096.0                  D:\Program Files (x86)\HP\Performance Center Host\bin\VuGenCallback.dll
		                              D:\Program Files (x86)\HP\Performance Center Host\bin\pcre-8.10.dll
		12.50.855.0                   D:\Program Files (x86)\HP\Performance Center Host\bin\wrapicu.dll
		12.50.855.0                   D:\Program Files (x86)\HP\Performance Center Host\bin\JsonParser.dll
		12.50.1096.0                  D:\Program Files (x86)\HP\Performance Center Host\bin\Base64Dfe.dll
		12.50.1096.0                  D:\Program Files (x86)\HP\Performance Center Host\bin\BinaryXmlDfe.dll
		12.50.1096.0                  D:\Program Files (x86)\HP\Performance Center Host\bin\BinaryXmlDfeUtil.dll
		12.50.1096.0                  D:\Program Files (x86)\HP\Performance Center Host\bin\GwtDfe.dll
		12.50.1096.0                  D:\Program Files (x86)\HP\Performance Center Host\bin\HttpHeadersDfe.dll
		12.50.1096.0                  D:\Program Files (x86)\HP\Performance Center Host\bin\JsonXmlDfe.dll
		2, 1, 0                       D:\Program Files (x86)\HP\Performance Center Host\bin\xerces-c_2_1_0.dll
		7.0.9600.17415 (winblue_r4.141028-1500)C:\Windows\SYSTEM32\MSVCIRT.dll
		12.50.1096.0                  D:\Program Files (x86)\HP\Performance Center Host\bin\PrefixPostfixDfe.dll
		12.50.1096.0                  D:\Program Files (x86)\HP\Performance Center Host\bin\RemedyDfe.dll
		7.26.0                        D:\Program Files (x86)\HP\Performance Center Host\bin\libcurl.dll
		12.50.1096.0                  D:\Program Files (x86)\HP\Performance Center Host\bin\UrlEncodingDfe.dll
		12.50.1096.0                  D:\Program Files (x86)\HP\Performance Center Host\bin\XmlDfe.dll
		12.50.1096.0                  D:\Program Files (x86)\HP\Performance Center Host\bin\AttributeEncodingDfe.dll
		12.50.1096.0                  D:\Program Files (x86)\HP\Performance Center Host\bin\CSSEncodingDfe.dll
		12.50.1096.0                  D:\Program Files (x86)\HP\Performance Center Host\bin\XSSDfe.dll
		12.50.1096.0                  D:\Program Files (x86)\HP\Performance Center Host\bin\HtmlEncodingDfe.dll
		12.50.1096.0                  D:\Program Files (x86)\HP\Performance Center Host\bin\JavaScriptEncodingDfe.dll
		12.50.1096.0                  D:\Program Files (x86)\HP\Performance Center Host\bin\ThreadSafeFileOperator.dll
		12.0.135.0                    D:\Program Files (x86)\HP\Performance Center Host\bin\TulipAppInfo.dll
		12.50.855.0                   D:\Program Files (x86)\HP\Performance Center Host\bin\JsonParserWrapper.dll
		12.0.135.0                    D:\Program Files (x86)\HP\Performance Center Host\bin\SSFMgrWrapper.dll
		12.0.135.0                    D:\Program Files (x86)\HP\Performance Center Host\bin\RealFileSystem.dll
		8.110.9600.17931              C:\Windows\System32\msxml3.dll
		VSCORE.15.1.0.500.x86         C:\Program Files (x86)\Common Files\McAfee\SystemCore\ScriptSn.20150501173434.dll
		11.00.9600.17031 (winblue_gdr.140221-1952)C:\Windows\system32\JScript9.dll
		5.8.9600.16384                C:\Windows\system32\JScript.dll
		5.8.9600.16384                C:\Windows\system32\VBScript.dll
		6.3.9600.17415 (winblue_r4.141028-1500)C:\Windows\SYSTEM32\ondemandconnroutehelper.dll
		12.0.20806.33440 built by: FX45W81RTMRELC:\Windows\Microsoft.NET\Framework\v4.0.30319\diasymreader.dll
		4.0.30319.33440               C:\Windows\assembly\NativeImages_v4.0.30319_32\Presentatio1da2af67#\e90dab023f171a63e47a31317d7b4dcc\PresentationFramework-SystemDrawing.ni.dll
		4.0.30319.33440               C:\Windows\assembly\NativeImages_v4.0.30319_32\System.Comp46f2b404#\51199887c2c908b72a3a0b1293b7718c\System.ComponentModel.DataAnnotations.ni.dll
		12.50.1096.0                  D:\Program Files (x86)\HP\Performance Center Host\bin\api_inspector.dll
		12.50.855.0                   D:\Program Files (x86)\HP\Performance Center Host\bin\trpfnc32.dll
		12.50.1096.0                  D:\Program Files (x86)\HP\Performance Center Host\bin\script_language_helper.dll
		12.50.1096.0                  D:\Program Files (x86)\HP\Performance Center Host\bin\api_scrinfo.dll
		12.50.1096.0                  D:\Program Files (x86)\HP\Performance Center Host\bin\Api_Filter_Helper.dll
		12.50.1096.0                  D:\Program Files (x86)\HP\Performance Center Host\bin\lrc_basic_filters.dll
		12.50.1096.0                  D:\Program Files (x86)\HP\Performance Center Host\bin\api_event_parser.dll
		12.50.1096.0                  D:\Program Files (x86)\HP\Performance Center Host\bin\traffic_filter.dll
		12.50.1096.0                  D:\Program Files (x86)\HP\Performance Center Host\bin\api_sock_filter.dll
		12.50.855.0                   D:\Program Files (x86)\HP\Performance Center Host\bin\ipng_utils.dll
		12.50.1096.0                  D:\Program Files (x86)\HP\Performance Center Host\bin\WebDataFormatsCodeGen.dll
		12.50.1096.0                  D:\Program Files (x86)\HP\Performance Center Host\bin\DataFormatsEngine.dll
		12.50.1096.0                  D:\Program Files (x86)\HP\Performance Center Host\bin\WebSnapshotsCommon.dll
		12.50.1096.0                  D:\Program Files (x86)\HP\Performance Center Host\bin\WebSocketFilter.dll
		12.50.1096.0                  D:\Program Files (x86)\HP\Performance Center Host\bin\VnpLog.dll
		12.50.1096.0                  D:\Program Files (x86)\HP\Performance Center Host\bin\VnpUtils.dll
		12.50.1096.0                  D:\Program Files (x86)\HP\Performance Center Host\bin\WebHTMLCodeGen.dll
		12.50.1096.0                  D:\Program Files (x86)\HP\Performance Center Host\bin\WebRecorder.dll
		12.50.1096.0                  D:\Program Files (x86)\HP\Performance Center Host\bin\LrwiWebInfra.dll
		1.0.2d                        D:\Program Files (x86)\HP\Performance Center Host\bin\libeay32_lt.dll
		1.0.2d                        D:\Program Files (x86)\HP\Performance Center Host\bin\ssleay32_lt.dll
		12.50.1096.0                  D:\Program Files (x86)\HP\Performance Center Host\bin\WebCorrelation.dll
		12.50.855.0                   D:\Program Files (x86)\HP\Performance Center Host\bin\jconv_str.dll
		                              D:\Program Files (x86)\HP\Performance Center Host\bin\duktape.dll
		12.50.855.0                   D:\Program Files (x86)\HP\Performance Center Host\bin\http_auth.dll
		12.50.855.0                   D:\Program Files (x86)\HP\Performance Center Host\bin\LRUN50.dll
		12.50.1096.0                  D:\Program Files (x86)\HP\Performance Center Host\bin\LrXml.dll
		12.50.1096.0                  D:\Program Files (x86)\HP\Performance Center Host\bin\LrJson.dll
		12.50.855.0                   D:\Program Files (x86)\HP\Performance Center Host\bin\trans.dll
		12.50.855.0                   D:\Program Files (x86)\HP\Performance Center Host\bin\merc_uuid.dll
		12.50.855.0                   D:\Program Files (x86)\HP\Performance Center Host\bin\faserver.dll
		12.50.1096.0                  D:\Program Files (x86)\HP\Performance Center Host\bin\VnpReport.dll
		12.50.855.0                   D:\Program Files (x86)\HP\Performance Center Host\bin\lr_exp.dll
		12.50.855.0                   D:\Program Files (x86)\HP\Performance Center Host\bin\trans_server.dll
		12.50.855.0                   D:\Program Files (x86)\HP\Performance Center Host\bin\libdatatypes.dll
		12.50.855.0                   D:\Program Files (x86)\HP\Performance Center Host\bin\data_types_ifs.dll
		12.50.855.0                   D:\Program Files (x86)\HP\Performance Center Host\bin\timediff_ext.dll
		12.50.855.0                   D:\Program Files (x86)\HP\Performance Center Host\bin\jrequestor_srv.dll
		12.50.855.0                   D:\Program Files (x86)\HP\Performance Center Host\bin\dc_requests.dll
		12.50.1096.0                  D:\Program Files (x86)\HP\Performance Center Host\bin\WebConvertFromFormattedFilter.dll
		12.50.1096.0                  D:\Program Files (x86)\HP\Performance Center Host\bin\WebConvertFromFormattedPostFilter.dll
		12.50.1096.0                  D:\Program Files (x86)\HP\Performance Center Host\bin\WebExtractServerNameFilter.dll
		12.50.1096.0                  D:\Program Files (x86)\HP\Performance Center Host\bin\lrc_com_filters.dll
		12.50.1096.0                  D:\Program Files (x86)\HP\Performance Center Host\bin\WebRemoveLongBodyFilter.DLL
		12.50.1096.0                  D:\Program Files (x86)\HP\Performance Center Host\bin\lrc_code_gen_filter.dll
