"{\n"
"   "availabilityRequest":{\n"
"      "viewName":"US BOPIS",\n"
"      "availabilityCriteria":{\n"
"         "itemNames":{\n"
"            "itemName":[\n"
"               "1097633004"\n"
"            ]\n"
"         },\n"
"         "facilityNames":{\n"
"            "facilityName":[\n"
"               "4104",\n"
"               "4105",\n"
"               "4106",\n"
"               "4108",\n"
"               "4109",\n"
"               "4110",\n"
"               "4111",\n"
"               "4112",\n"
"               "4113",\n"
"               "4114",\n"
"               "4115",\n"
"               "4116",\n"
"               "4120",\n"
"               "4124",\n"
"               "4127",\n"
"               "4142",\n"
"               "4145",\n"
"               "4161",\n"
"               "4163",\n"
"               "4165",\n"
"               "4168",\n"
"               "4173",\n"
"               "4176",\n"
"               "4177",\n"
"               "4178"\n"
"            ]\n"
"         }\n"
"      }\n"
"   }\n"
"}"
