Start auto log messages stack - Iteration 1.	[MsgId: MMSG-10545]
Action.c(57):     \r\n
Action.c(57):     0\r\n
Action.c(57):     \r\n
Action.c(57): t=86154ms: 108-byte chunked response body for "http://eom-ca-perf.tcphq.tcpcorp.local.com:30000/services/olm/customerorder/customerOrderAndTransactionList?_dc=1465973780171&page=1&start=0&limit=50&sort=%5B%7B%22property%22%3A%22orderCreatedDate%22%2C%22direction%22%3A%22DESC%22%7D%5D" (RelFrameId=1, Internal ID=14)
Action.c(57):     {"error":"unauthorized","error_description":"An Authentication object was not found in the
Action.c(57):      SecurityContext"}
Action.c(57): Error -26547: Authentication required, please use web_set_user, e.g. web_set_user("user", "password", "host:port");, Snapshot Info [MSH 1 6]  	[MsgId: MERR-26547]
Action.c(57): Error -26630: HTTP Status-Code=401 (Unauthorized) for "http://eom-ca-perf.tcphq.tcpcorp.local.com:30000/services/olm/customerorder/customerOrderAndTransactionList?_dc=1465973780171&page=1&start=0&limit=50&sort=%5B%7B%22property%22%3A%22orderCreatedDate%22%2C%22direction%22%3A%22DESC%22%7D%5D", Snapshot Info [MSH 1 6]  	[MsgId: MERR-26630]
Action.c(57): Error -26377: No match found for the requested parameter "c_First_Name". Either the specified boundaries were not found in the response or the matched text is longer than current max html parameter size of 9999 bytes. The total length of the response is 108 bytes. You can use web_set_max_html_param_len to increase the max parameter size., Snapshot Info [MSH 1 6]  	[MsgId: MERR-26377]
End auto log messages stack.	[MsgId: MMSG-10544]


Start auto log messages stack - Iteration 1.	[MsgId: MMSG-10545]
Action.c(57): Notify: Saving Parameter "c_First_Name = ".	[MsgId: MMSG-13798]
Action.c(57): Error -26377: No match found for the requested parameter "c_Last_Name". Either the specified boundaries were not found in the response or the matched text is longer than current max html parameter size of 9999 bytes. The total length of the response is 108 bytes. You can use web_set_max_html_param_len to increase the max parameter size., Snapshot Info [MSH 1 6]  	[MsgId: MERR-26377]
End auto log messages stack.	[MsgId: MMSG-10544]


Start auto log messages stack - Iteration 1.	[MsgId: MMSG-10545]
Action.c(57): Notify: Saving Parameter "c_Last_Name = ".	[MsgId: MMSG-13798]
Action.c(57): Error -26377: No match found for the requested parameter "c_Phone_Number". Either the specified boundaries were not found in the response or the matched text is longer than current max html parameter size of 9999 bytes. The total length of the response is 108 bytes. You can use web_set_max_html_param_len to increase the max parameter size., Snapshot Info [MSH 1 6]  	[MsgId: MERR-26377]
End auto log messages stack.	[MsgId: MMSG-10544]


Start auto log messages stack - Iteration 1.	[MsgId: MMSG-10545]
Action.c(57): Notify: Saving Parameter "c_Phone_Number = ".	[MsgId: MMSG-13798]
Action.c(57): Error -26377: No match found for the requested parameter "c_Email_Id". Either the specified boundaries were not found in the response or the matched text is longer than current max html parameter size of 9999 bytes. The total length of the response is 108 bytes. You can use web_set_max_html_param_len to increase the max parameter size., Snapshot Info [MSH 1 6]  	[MsgId: MERR-26377]
End auto log messages stack.	[MsgId: MMSG-10544]


Start auto log messages stack - Iteration 1.	[MsgId: MMSG-10545]
Action.c(57): Notify: Saving Parameter "c_Email_Id = ".	[MsgId: MMSG-13798]
Action.c(57): Error -26377: No match found for the requested parameter "c_externalCustomerId". Either the specified boundaries were not found in the response or the matched text is longer than current max html parameter size of 9999 bytes. The total length of the response is 108 bytes. You can use web_set_max_html_param_len to increase the max parameter size., Snapshot Info [MSH 1 6]  	[MsgId: MERR-26377]
End auto log messages stack.	[MsgId: MMSG-10544]


Start auto log messages stack - Iteration 1.	[MsgId: MMSG-10545]
Action.c(57):     \r\n
Action.c(57):     0\r\n
Action.c(57):     \r\n
Action.c(57): t=106317ms: 108-byte chunked response body for "http://eom-ca-perf.tcphq.tcpcorp.local.com:30000/services/olm/customerorder/customerOrderAndTransactionList?_dc=1465973780171&page=1&start=0&limit=50&sort=%5B%7B%22property%22%3A%22orderCreatedDate%22%2C%22direction%22%3A%22DESC%22%7D%5D" (RelFrameId=1, Internal ID=14)
Action.c(57):     {"error":"unauthorized","error_description":"An Authentication object was not found in the
Action.c(57):      SecurityContext"}
Action.c(57): Error -26547: Authentication required, please use web_set_user, e.g. web_set_user("user", "password", "host:port");, Snapshot Info [MSH 1 6]  	[MsgId: MERR-26547]
Action.c(57): Error -26630: HTTP Status-Code=401 (Unauthorized) for "http://eom-ca-perf.tcphq.tcpcorp.local.com:30000/services/olm/customerorder/customerOrderAndTransactionList?_dc=1465973780171&page=1&start=0&limit=50&sort=%5B%7B%22property%22%3A%22orderCreatedDate%22%2C%22direction%22%3A%22DESC%22%7D%5D", Snapshot Info [MSH 1 6]  	[MsgId: MERR-26630]
Action.c(57): Error -26377: No match found for the requested parameter "c_First_Name". Either the specified boundaries were not found in the response or the matched text is longer than current max html parameter size of 9999 bytes. The total length of the response is 108 bytes. You can use web_set_max_html_param_len to increase the max parameter size., Snapshot Info [MSH 1 6]  	[MsgId: MERR-26377]
End auto log messages stack.	[MsgId: MMSG-10544]


Start auto log messages stack - Iteration 1.	[MsgId: MMSG-10545]
Action.c(57): Notify: Saving Parameter "c_First_Name = ".	[MsgId: MMSG-13798]
Action.c(57): Error -26377: No match found for the requested parameter "c_Last_Name". Either the specified boundaries were not found in the response or the matched text is longer than current max html parameter size of 9999 bytes. The total length of the response is 108 bytes. You can use web_set_max_html_param_len to increase the max parameter size., Snapshot Info [MSH 1 6]  	[MsgId: MERR-26377]
End auto log messages stack.	[MsgId: MMSG-10544]


Start auto log messages stack - Iteration 1.	[MsgId: MMSG-10545]
Action.c(57): Notify: Saving Parameter "c_Last_Name = ".	[MsgId: MMSG-13798]
Action.c(57): Error -26377: No match found for the requested parameter "c_Phone_Number". Either the specified boundaries were not found in the response or the matched text is longer than current max html parameter size of 9999 bytes. The total length of the response is 108 bytes. You can use web_set_max_html_param_len to increase the max parameter size., Snapshot Info [MSH 1 6]  	[MsgId: MERR-26377]
End auto log messages stack.	[MsgId: MMSG-10544]


Start auto log messages stack - Iteration 1.	[MsgId: MMSG-10545]
Action.c(57): Notify: Saving Parameter "c_Phone_Number = ".	[MsgId: MMSG-13798]
Action.c(57): Error -26377: No match found for the requested parameter "c_Email_Id". Either the specified boundaries were not found in the response or the matched text is longer than current max html parameter size of 9999 bytes. The total length of the response is 108 bytes. You can use web_set_max_html_param_len to increase the max parameter size., Snapshot Info [MSH 1 6]  	[MsgId: MERR-26377]
End auto log messages stack.	[MsgId: MMSG-10544]


Start auto log messages stack - Iteration 1.	[MsgId: MMSG-10545]
Action.c(57): Notify: Saving Parameter "c_Email_Id = ".	[MsgId: MMSG-13798]
Action.c(57): Error -26377: No match found for the requested parameter "c_externalCustomerId". Either the specified boundaries were not found in the response or the matched text is longer than current max html parameter size of 9999 bytes. The total length of the response is 108 bytes. You can use web_set_max_html_param_len to increase the max parameter size., Snapshot Info [MSH 1 6]  	[MsgId: MERR-26377]
End auto log messages stack.	[MsgId: MMSG-10544]


Start auto log messages stack - Iteration 1.	[MsgId: MMSG-10545]
Action.c(57):     \r\n
Action.c(57):     0\r\n
Action.c(57):     \r\n
Action.c(57): t=126234ms: 108-byte chunked response body for "http://eom-ca-perf.tcphq.tcpcorp.local.com:30000/services/olm/customerorder/customerOrderAndTransactionList?_dc=1465973780171&page=1&start=0&limit=50&sort=%5B%7B%22property%22%3A%22orderCreatedDate%22%2C%22direction%22%3A%22DESC%22%7D%5D" (RelFrameId=1, Internal ID=14)
Action.c(57):     {"error":"unauthorized","error_description":"An Authentication object was not found in the
Action.c(57):      SecurityContext"}
Action.c(57): Error -26547: Authentication required, please use web_set_user, e.g. web_set_user("user", "password", "host:port");, Snapshot Info [MSH 1 6]  	[MsgId: MERR-26547]
Action.c(57): Error -26630: HTTP Status-Code=401 (Unauthorized) for "http://eom-ca-perf.tcphq.tcpcorp.local.com:30000/services/olm/customerorder/customerOrderAndTransactionList?_dc=1465973780171&page=1&start=0&limit=50&sort=%5B%7B%22property%22%3A%22orderCreatedDate%22%2C%22direction%22%3A%22DESC%22%7D%5D", Snapshot Info [MSH 1 6]  	[MsgId: MERR-26630]
Action.c(57): Error -26377: No match found for the requested parameter "c_First_Name". Either the specified boundaries were not found in the response or the matched text is longer than current max html parameter size of 9999 bytes. The total length of the response is 108 bytes. You can use web_set_max_html_param_len to increase the max parameter size., Snapshot Info [MSH 1 6]  	[MsgId: MERR-26377]
End auto log messages stack.	[MsgId: MMSG-10544]


Start auto log messages stack - Iteration 1.	[MsgId: MMSG-10545]
Action.c(57): Notify: Saving Parameter "c_First_Name = ".	[MsgId: MMSG-13798]
Action.c(57): Error -26377: No match found for the requested parameter "c_Last_Name". Either the specified boundaries were not found in the response or the matched text is longer than current max html parameter size of 9999 bytes. The total length of the response is 108 bytes. You can use web_set_max_html_param_len to increase the max parameter size., Snapshot Info [MSH 1 6]  	[MsgId: MERR-26377]
End auto log messages stack.	[MsgId: MMSG-10544]


Start auto log messages stack - Iteration 1.	[MsgId: MMSG-10545]
Action.c(57): Notify: Saving Parameter "c_Last_Name = ".	[MsgId: MMSG-13798]
Action.c(57): Error -26377: No match found for the requested parameter "c_Phone_Number". Either the specified boundaries were not found in the response or the matched text is longer than current max html parameter size of 9999 bytes. The total length of the response is 108 bytes. You can use web_set_max_html_param_len to increase the max parameter size., Snapshot Info [MSH 1 6]  	[MsgId: MERR-26377]
End auto log messages stack.	[MsgId: MMSG-10544]


Start auto log messages stack - Iteration 1.	[MsgId: MMSG-10545]
Action.c(57): Notify: Saving Parameter "c_Phone_Number = ".	[MsgId: MMSG-13798]
Action.c(57): Error -26377: No match found for the requested parameter "c_Email_Id". Either the specified boundaries were not found in the response or the matched text is longer than current max html parameter size of 9999 bytes. The total length of the response is 108 bytes. You can use web_set_max_html_param_len to increase the max parameter size., Snapshot Info [MSH 1 6]  	[MsgId: MERR-26377]
End auto log messages stack.	[MsgId: MMSG-10544]


Start auto log messages stack - Iteration 1.	[MsgId: MMSG-10545]
Action.c(57): Notify: Saving Parameter "c_Email_Id = ".	[MsgId: MMSG-13798]
Action.c(57): Error -26377: No match found for the requested parameter "c_externalCustomerId". Either the specified boundaries were not found in the response or the matched text is longer than current max html parameter size of 9999 bytes. The total length of the response is 108 bytes. You can use web_set_max_html_param_len to increase the max parameter size., Snapshot Info [MSH 1 6]  	[MsgId: MERR-26377]
End auto log messages stack.	[MsgId: MMSG-10544]


