Start auto log messages stack.	[MsgId: MMSG-10546]
vuser_init.c(72): Redirecting "https://EOM-MIP-Perf.childrensplace.com:15001/Authn/RemoteUser?loginContextKey=493d9637-90d6-4a56-96b9-211212d56d57" (redirection depth is 1)  	[MsgId: MMSG-26694]
vuser_init.c(72): To location "https://EOM-MIP-Perf.childrensplace.com:15001/profile/SAML2/POST/SSO"  	[MsgId: MMSG-26693]
vuser_init.c(72): Redirecting "https://EOM-MIP-Perf.childrensplace.com:15001/profile/SAML2/POST/SSO" (redirection depth is 2)  	[MsgId: MMSG-26694]
vuser_init.c(72): To location "http://eom-ca-perf.tcphq.tcpcorp.local.com:30000/saml/SSO/alias/ca?SAMLart=AAQAAP5QSaNfZd4JBmYl5vT6TLHqylbw8QhJU9dXApGmz7eJKTGB5NKZp%2Bc%3D"  	[MsgId: MMSG-26693]
vuser_init.c(72): Error -26547: Authentication required, please use web_set_user, e.g. web_set_user("domain\\user", "password", "host:port");, Snapshot Info [MSH 1 3]  	[MsgId: MERR-26547]
vuser_init.c(72): Error -26630: HTTP Status-Code=401 (Unauthorized) for "http://eom-ca-perf.tcphq.tcpcorp.local.com:30000/saml/SSO/alias/ca?SAMLart=AAQAAP5QSaNfZd4JBmYl5vT6TLHqylbw8QhJU9dXApGmz7eJKTGB5NKZp%2Bc%3D", Snapshot Info [MSH 1 3]  	[MsgId: MERR-26630]
vuser_init.c(72): Error -26366: "Text=Manhattan Associates" not found for web_reg_find, Snapshot Info [MSH 1 3]  	[MsgId: MERR-26366]
End auto log messages stack.	[MsgId: MMSG-10544]


Start auto log messages stack.	[MsgId: MMSG-10546]
vuser_init.c(72): To location "https://EOM-MIP-Perf.childrensplace.com:15001/Authn/RemoteUser?loginContextKey=d3fee9ff-582d-41d5-8c89-1d3d4983f880"  	[MsgId: MMSG-26693]
vuser_init.c(72): Redirecting "https://EOM-MIP-Perf.childrensplace.com:15001/Authn/RemoteUser?loginContextKey=d3fee9ff-582d-41d5-8c89-1d3d4983f880" (redirection depth is 1)  	[MsgId: MMSG-26694]
vuser_init.c(72): To location "https://EOM-MIP-Perf.childrensplace.com:15001/profile/SAML2/POST/SSO"  	[MsgId: MMSG-26693]
vuser_init.c(72): Redirecting "https://EOM-MIP-Perf.childrensplace.com:15001/profile/SAML2/POST/SSO" (redirection depth is 2)  	[MsgId: MMSG-26694]
vuser_init.c(72): To location "http://eom-ca-perf.tcphq.tcpcorp.local.com:30000/saml/SSO/alias/ca?SAMLart=AAQAAP5QSaNfZd4JBmYl5vT6TLHqylbwdsJhc1ucIr6Jo8T4oee4oJZugZQ%3D"  	[MsgId: MMSG-26693]
vuser_init.c(72): Error -26547: Authentication required, please use web_set_user, e.g. web_set_user("domain\\user", "password", "host:port");, Snapshot Info [MSH 1 3]  	[MsgId: MERR-26547]
vuser_init.c(72): Error -26630: HTTP Status-Code=401 (Unauthorized) for "http://eom-ca-perf.tcphq.tcpcorp.local.com:30000/saml/SSO/alias/ca?SAMLart=AAQAAP5QSaNfZd4JBmYl5vT6TLHqylbwdsJhc1ucIr6Jo8T4oee4oJZugZQ%3D", Snapshot Info [MSH 1 3]  	[MsgId: MERR-26630]
vuser_init.c(72): Error -26366: "Text=Manhattan Associates" not found for web_reg_find, Snapshot Info [MSH 1 3]  	[MsgId: MERR-26366]
End auto log messages stack.	[MsgId: MMSG-10544]


Start auto log messages stack - Iteration 1.	[MsgId: MMSG-10545]
Abort was called from an action.	[MsgId: MMSG-10447]
Ending Vuser...	[MsgId: MMSG-15966]
Starting action vuser_end.	[MsgId: MMSG-15919]
vuser_end.c(5): Notify: Parameter Substitution: parameter "sTestCaseName" =  "TCP_31_2_BOPIS_Submit_Order_DOM"	[MsgId: MMSG-13992]
vuser_end.c(5): Notify: Transaction "TCP_31_2_BOPIS_Submit_Order_DOM_09_Logout" started.	[MsgId: MMSG-16999]
vuser_end.c(7): web_add_cookie started  	[MsgId: MMSG-26355]
vuser_end.c(7): web_add_cookie was successful  	[MsgId: MMSG-26392]
vuser_end.c(9): web_url("user.png") started  	[MsgId: MMSG-26355]
vuser_end.c(9): Aborting pending download of URL="http://eom-ca-perf.tcphq.tcpcorp.local.com:30000/eem/instorepickup/InStorePickupSolution.xhtml" (RelFrameId=1, Internal ID=87)  	[MsgId: MMSG-27656]
vuser_end.c(9): Notify: Parameter Substitution: parameter "pURL" =  "http://eom-ca-perf.tcphq.tcpcorp.local.com:30000"	[MsgId: MMSG-13992]
vuser_end.c(9): Notify: Parameter Substitution: parameter "pURL" =  "http://eom-ca-perf.tcphq.tcpcorp.local.com:30000"	[MsgId: MMSG-13992]
vuser_end.c(9): Error -26377: No match found for the requested parameter "cViewState_03". Check whether the requested boundaries exist in the response data. Also, if the data you want to save exceeds 9999 bytes, use web_set_max_html_param_len to increase the parameter size, Snapshot Info [MSH 1 15]  	[MsgId: MERR-26377]
End auto log messages stack.	[MsgId: MMSG-10544]


Start auto log messages stack - Iteration 1.	[MsgId: MMSG-10545]
vuser_end.c(9): Notify: Saving Parameter "cViewState_03 = ".	[MsgId: MMSG-13798]
vuser_end.c(9): Error -26377: No match found for the requested parameter "cScanOrderList". Check whether the requested boundaries exist in the response data. Also, if the data you want to save exceeds 9999 bytes, use web_set_max_html_param_len to increase the parameter size, Snapshot Info [MSH 1 15]  	[MsgId: MERR-26377]
End auto log messages stack.	[MsgId: MMSG-10544]


Start auto log messages stack - Iteration 1.	[MsgId: MMSG-10545]
Abort was called from an action.	[MsgId: MMSG-10447]
Ending Vuser...	[MsgId: MMSG-15966]
Starting action vuser_end.	[MsgId: MMSG-15919]
vuser_end.c(5): Notify: Parameter Substitution: parameter "sTestCaseName" =  "TCP_31_2_BOPIS_Submit_Order_DOM"	[MsgId: MMSG-13992]
vuser_end.c(5): Notify: Transaction "TCP_31_2_BOPIS_Submit_Order_DOM_09_Logout" started.	[MsgId: MMSG-16999]
vuser_end.c(7): web_add_cookie started  	[MsgId: MMSG-26355]
vuser_end.c(7): web_add_cookie was successful  	[MsgId: MMSG-26392]
vuser_end.c(9): web_url("user.png") started  	[MsgId: MMSG-26355]
vuser_end.c(9): Aborting pending download of URL="http://eom-ca-perf.tcphq.tcpcorp.local.com:30000/eem/instorepickup/InStorePickupSolution.xhtml" (RelFrameId=1, Internal ID=87)  	[MsgId: MMSG-27656]
vuser_end.c(9): Notify: Parameter Substitution: parameter "pURL" =  "http://eom-ca-perf.tcphq.tcpcorp.local.com:30000"	[MsgId: MMSG-13992]
vuser_end.c(9): Notify: Parameter Substitution: parameter "pURL" =  "http://eom-ca-perf.tcphq.tcpcorp.local.com:30000"	[MsgId: MMSG-13992]
vuser_end.c(9): Error -26377: No match found for the requested parameter "cViewState_03". Check whether the requested boundaries exist in the response data. Also, if the data you want to save exceeds 9999 bytes, use web_set_max_html_param_len to increase the parameter size, Snapshot Info [MSH 1 15]  	[MsgId: MERR-26377]
End auto log messages stack.	[MsgId: MMSG-10544]


Start auto log messages stack - Iteration 1.	[MsgId: MMSG-10545]
vuser_end.c(9): Notify: Saving Parameter "cViewState_03 = ".	[MsgId: MMSG-13798]
vuser_end.c(9): Error -26377: No match found for the requested parameter "cScanOrderList". Check whether the requested boundaries exist in the response data. Also, if the data you want to save exceeds 9999 bytes, use web_set_max_html_param_len to increase the parameter size, Snapshot Info [MSH 1 15]  	[MsgId: MERR-26377]
End auto log messages stack.	[MsgId: MMSG-10544]


