/*
 * File: mps/model/menu/Menu.js
 *
 */

Ext.define('Manh.mps.model.menu.Menu', {
    extend : 'Ext.data.Model',

    fields : [{
            name : 'id',
            useNull : true,
            type : 'int'
        }, {
            name : 'appId',
            type : 'int'
        }, {
            name : 'solutionId',
            type : 'int'
        }, {
            name : 'uclUserId',
            type : 'int'
        }
    ],

    hasMany : {
        model : 'Manh.mps.model.menu.Section',
        name : 'sections'
    }
});
