1ca
{"TCHPModData":[{"modCode":"16B","modFlag":"TRUE","companyId":1},{"modCode":"N05","modFlag":"TRUE","companyId":1},{"modCode":"N11","modFlag":"TRUE","companyId":1},{"modCode":"N12","modFlag":"TRUE","companyId":1},{"modCode":"X01","modFlag":"TRUE","companyId":1},{"modCode":"X06","modFlag":"TRUE","companyId":1},{"modCode":"X11","modFlag":"TRUE","companyId":1},{"modCode":"X12","modFlag":"TRUE","companyId":1},{"modCode":"X15","modFlag":"TRUE","companyId":1}]}
0

