Start auto log messages stack - Iteration 7.	[MsgId: MMSG-10545]
Action.c(8): Notify: Parameter Substitution: parameter "pURL" =  "http://eom-ca-perf.tcphq.tcpcorp.local.com:30000"	[MsgId: MMSG-13992]
Action.c(8): web_url("ping.jsp_3") was successful, 4664 body bytes, 286 header bytes  	[MsgId: MMSG-26386]
Action.c(18): web_url("ping.jsp_4") started  	[MsgId: MMSG-26355]
Action.c(18): Notify: Parameter Substitution: parameter "pURL" =  "http://eom-ca-perf.tcphq.tcpcorp.local.com:30000"	[MsgId: MMSG-13992]
Action.c(18): Notify: Parameter Substitution: parameter "pURL" =  "http://eom-ca-perf.tcphq.tcpcorp.local.com:30000"	[MsgId: MMSG-13992]
Action.c(18): web_url("ping.jsp_4") was successful, 4664 body bytes, 226 header bytes  	[MsgId: MMSG-26386]
Action.c(28): web_custom_request("windows") started  	[MsgId: MMSG-26355]
Action.c(28): Notify: Parameter Substitution: parameter "pURL" =  "http://eom-ca-perf.tcphq.tcpcorp.local.com:30000"	[MsgId: MMSG-13992]
Action.c(28): Notify: Parameter Substitution: parameter "pURL" =  "http://eom-ca-perf.tcphq.tcpcorp.local.com:30000"	[MsgId: MMSG-13992]
Action.c(28): Error -26547: Authentication required, please use web_set_user, e.g. web_set_user("user", "password", "host:port");, Snapshot Info [MSH 7 9]  	[MsgId: MERR-26547]
Action.c(28): Error -26630: HTTP Status-Code=401 (Unauthorized) for "http://eom-ca-perf.tcphq.tcpcorp.local.com:30000/services/rest/lps/WindowLifecycleService/windows?windowId=screen-7761256&regionId=-1&businessUnitId=-1", Snapshot Info [MSH 7 9]  	[MsgId: MERR-26630]
End auto log messages stack.	[MsgId: MMSG-10544]


Start auto log messages stack - Iteration 7.	[MsgId: MMSG-10545]
Action.c(8): Notify: Parameter Substitution: parameter "pURL" =  "http://eom-ca-perf.tcphq.tcpcorp.local.com:30000"	[MsgId: MMSG-13992]
Action.c(8): web_url("ping.jsp_3") was successful, 4656 body bytes, 286 header bytes  	[MsgId: MMSG-26386]
Action.c(18): web_url("ping.jsp_4") started  	[MsgId: MMSG-26355]
Action.c(18): Notify: Parameter Substitution: parameter "pURL" =  "http://eom-ca-perf.tcphq.tcpcorp.local.com:30000"	[MsgId: MMSG-13992]
Action.c(18): Notify: Parameter Substitution: parameter "pURL" =  "http://eom-ca-perf.tcphq.tcpcorp.local.com:30000"	[MsgId: MMSG-13992]
Action.c(18): web_url("ping.jsp_4") was successful, 4656 body bytes, 226 header bytes  	[MsgId: MMSG-26386]
Action.c(28): web_custom_request("windows") started  	[MsgId: MMSG-26355]
Action.c(28): Notify: Parameter Substitution: parameter "pURL" =  "http://eom-ca-perf.tcphq.tcpcorp.local.com:30000"	[MsgId: MMSG-13992]
Action.c(28): Notify: Parameter Substitution: parameter "pURL" =  "http://eom-ca-perf.tcphq.tcpcorp.local.com:30000"	[MsgId: MMSG-13992]
Action.c(28): Error -26547: Authentication required, please use web_set_user, e.g. web_set_user("user", "password", "host:port");, Snapshot Info [MSH 7 9]  	[MsgId: MERR-26547]
Action.c(28): Error -26630: HTTP Status-Code=401 (Unauthorized) for "http://eom-ca-perf.tcphq.tcpcorp.local.com:30000/services/rest/lps/WindowLifecycleService/windows?windowId=screen-7761256&regionId=-1&businessUnitId=-1", Snapshot Info [MSH 7 9]  	[MsgId: MERR-26630]
End auto log messages stack.	[MsgId: MMSG-10544]


Start auto log messages stack - Iteration 7.	[MsgId: MMSG-10545]
Action.c(8): Notify: Parameter Substitution: parameter "pURL" =  "http://eom-ca-perf.tcphq.tcpcorp.local.com:30000"	[MsgId: MMSG-13992]
Action.c(8): web_url("ping.jsp_3") was successful, 4660 body bytes, 286 header bytes  	[MsgId: MMSG-26386]
Action.c(18): web_url("ping.jsp_4") started  	[MsgId: MMSG-26355]
Action.c(18): Notify: Parameter Substitution: parameter "pURL" =  "http://eom-ca-perf.tcphq.tcpcorp.local.com:30000"	[MsgId: MMSG-13992]
Action.c(18): Notify: Parameter Substitution: parameter "pURL" =  "http://eom-ca-perf.tcphq.tcpcorp.local.com:30000"	[MsgId: MMSG-13992]
Action.c(18): web_url("ping.jsp_4") was successful, 4664 body bytes, 226 header bytes  	[MsgId: MMSG-26386]
Action.c(28): web_custom_request("windows") started  	[MsgId: MMSG-26355]
Action.c(28): Notify: Parameter Substitution: parameter "pURL" =  "http://eom-ca-perf.tcphq.tcpcorp.local.com:30000"	[MsgId: MMSG-13992]
Action.c(28): Notify: Parameter Substitution: parameter "pURL" =  "http://eom-ca-perf.tcphq.tcpcorp.local.com:30000"	[MsgId: MMSG-13992]
Action.c(28): Error -26547: Authentication required, please use web_set_user, e.g. web_set_user("user", "password", "host:port");, Snapshot Info [MSH 7 9]  	[MsgId: MERR-26547]
Action.c(28): Error -26630: HTTP Status-Code=401 (Unauthorized) for "http://eom-ca-perf.tcphq.tcpcorp.local.com:30000/services/rest/lps/WindowLifecycleService/windows?windowId=screen-7761256&regionId=-1&businessUnitId=-1", Snapshot Info [MSH 7 9]  	[MsgId: MERR-26630]
End auto log messages stack.	[MsgId: MMSG-10544]


Start auto log messages stack - Iteration 7.	[MsgId: MMSG-10545]
Action.c(8): Notify: Parameter Substitution: parameter "pURL" =  "http://eom-ca-perf.tcphq.tcpcorp.local.com:30000"	[MsgId: MMSG-13992]
Action.c(8): web_url("ping.jsp_3") was successful, 4664 body bytes, 286 header bytes  	[MsgId: MMSG-26386]
Action.c(18): web_url("ping.jsp_4") started  	[MsgId: MMSG-26355]
Action.c(18): Notify: Parameter Substitution: parameter "pURL" =  "http://eom-ca-perf.tcphq.tcpcorp.local.com:30000"	[MsgId: MMSG-13992]
Action.c(18): Notify: Parameter Substitution: parameter "pURL" =  "http://eom-ca-perf.tcphq.tcpcorp.local.com:30000"	[MsgId: MMSG-13992]
Action.c(18): web_url("ping.jsp_4") was successful, 4660 body bytes, 226 header bytes  	[MsgId: MMSG-26386]
Action.c(28): web_custom_request("windows") started  	[MsgId: MMSG-26355]
Action.c(28): Notify: Parameter Substitution: parameter "pURL" =  "http://eom-ca-perf.tcphq.tcpcorp.local.com:30000"	[MsgId: MMSG-13992]
Action.c(28): Notify: Parameter Substitution: parameter "pURL" =  "http://eom-ca-perf.tcphq.tcpcorp.local.com:30000"	[MsgId: MMSG-13992]
Action.c(28): Error -26547: Authentication required, please use web_set_user, e.g. web_set_user("user", "password", "host:port");, Snapshot Info [MSH 7 9]  	[MsgId: MERR-26547]
Action.c(28): Error -26630: HTTP Status-Code=401 (Unauthorized) for "http://eom-ca-perf.tcphq.tcpcorp.local.com:30000/services/rest/lps/WindowLifecycleService/windows?windowId=screen-7761256&regionId=-1&businessUnitId=-1", Snapshot Info [MSH 7 9]  	[MsgId: MERR-26630]
End auto log messages stack.	[MsgId: MMSG-10544]


