HTTP/1.1 200 OK
Content-Type: text/xml
Content-Length: 1901
Connection: keep-alive
Date: Tue, 03 Oct 2017 02:43:05 GMT
Last-Modified: Mon, 05 Dec 2016 13:04:44 GMT
ETag: "40598e7146de804feaadf126c4bd90c1"
Accept-Ranges: bytes
Server: AmazonS3
Age: 53223
X-Cache: Hit from cloudfront
Via: 1.1 860a40311d1bfbc15b0c06f9a6cf38bf.cloudfront.net (CloudFront)
X-Amz-Cf-Id: NhEkN1VRDCdN032Qne9W981e7tX1N5AihBjRvC9K-xAHqSqaW5D_qQ==

