"{\n"
"   "availabilityRequest":{\n"
"      "viewName":"US BOPIS",\n"
"      "availabilityCriteria":{\n"
"         "itemNames":{\n"
"            "itemName":[\n"
"               "1124491007"\n"
"            ]\n"
"         },\n"
"         "facilityNames":{\n"
"            "facilityName":[\n"
"               "4209",\n"
"               "4210",\n"
"               "4211",\n"
"               "4212",\n"
"               "4213",\n"
"               "4214",\n"
"               "4216",\n"
"               "4218",\n"
"               "4219",\n"
"               "4220",\n"
"               "4225",\n"
"               "4229",\n"
"               "4237",\n"
"               "4238",\n"
"               "4239",\n"
"               "4242",\n"
"               "4246",\n"
"               "4248",\n"
"               "4250",\n"
"               "4253",\n"
"               "4255",\n"
"               "4258",\n"
"               "4261",\n"
"               "4266",\n"
"               "4267"\n"
"            ]\n"
"         }\n"
"      }\n"
"   }\n"
"}"
