"{\n"
"   "availabilityRequest":{\n"
"      "viewName":"US BOPIS",\n"
"      "availabilityCriteria":{\n"
"         "itemNames":{\n"
"            "itemName":[\n"
"               "2054923001"\n"
"            ]\n"
"         },\n"
"         "facilityNames":{\n"
"            "facilityName":[\n"
"               "4253",\n"
"               "4255",\n"
"               "4258",\n"
"               "4261",\n"
"               "4266",\n"
"               "4267",\n"
"               "4269",\n"
"               "4270",\n"
"               "4271",\n"
"               "4272",\n"
"               "4273",\n"
"               "4274",\n"
"               "4275",\n"
"               "4276",\n"
"               "4277",\n"
"               "4278",\n"
"               "4280",\n"
"               "4281",\n"
"               "4282",\n"
"               "4283",\n"
"               "4285",\n"
"               "4287",\n"
"               "4289",\n"
"               "4290",\n"
"               "4291"\n"
"            ]\n"
"         }\n"
"      }\n"
"   }\n"
"}"
