"{\n"
"   "availabilityRequest":{\n"
"      "viewName":"US BOPIS",\n"
"      "availabilityCriteria":{\n"
"         "itemNames":{\n"
"            "itemName":[\n"
"               "1124491006"\n"
"            ]\n"
"         },\n"
"         "facilityNames":{\n"
"            "facilityName":[\n"
"               "1088",\n"
"               "1089",\n"
"               "1091",\n"
"               "1092",\n"
"               "1094",\n"
"               "1096",\n"
"               "1097",\n"
"               "1100",\n"
"               "1102",\n"
"               "1103",\n"
"               "1106",\n"
"               "1107",\n"
"               "1108",\n"
"               "1201",\n"
"               "1203",\n"
"               "1204",\n"
"               "1207",\n"
"               "1210",\n"
"               "1211",\n"
"               "1215",\n"
"               "1218",\n"
"               "1220",\n"
"               "1221",\n"
"               "1234",\n"
"               "1239"\n"
"            ]\n"
"         }\n"
"      }\n"
"   }\n"
"}"
