"{\n"
"   "availabilityRequest":{\n"
"      "viewName":"US BOPIS",\n"
"      "availabilityCriteria":{\n"
"         "itemNames":{\n"
"            "itemName":[\n"
"               "2006941004"\n"
"            ]\n"
"         },\n"
"         "facilityNames":{\n"
"            "facilityName":[\n"
"               "1408",\n"
"               "1410",\n"
"               "1411",\n"
"               "1413",\n"
"               "1414",\n"
"               "1420",\n"
"               "1423",\n"
"               "1428",\n"
"               "1432",\n"
"               "1434",\n"
"               "1443",\n"
"               "1447",\n"
"               "1450",\n"
"               "1452",\n"
"               "1453",\n"
"               "1455",\n"
"               "1458",\n"
"               "1462",\n"
"               "1464",\n"
"               "1466",\n"
"               "1467",\n"
"               "1470",\n"
"               "1474",\n"
"               "1623",\n"
"               "1634"\n"
"            ]\n"
"         }\n"
"      }\n"
"   }\n"
"}"
