"{\n"
"   "availabilityRequest":{\n"
"      "viewName":"US BOPIS",\n"
"      "availabilityCriteria":{\n"
"         "itemNames":{\n"
"            "itemName":[\n"
"               "1101084006"\n"
"            ]\n"
"         },\n"
"         "facilityNames":{\n"
"            "facilityName":[\n"
"               "1083",\n"
"               "1084",\n"
"               "1085",\n"
"               "1086",\n"
"               "1088",\n"
"               "1089",\n"
"               "1091",\n"
"               "1092",\n"
"               "1094",\n"
"               "1096",\n"
"               "1097",\n"
"               "1100",\n"
"               "1102",\n"
"               "1103",\n"
"               "1106",\n"
"               "1107",\n"
"               "1108",\n"
"               "1201",\n"
"               "1203",\n"
"               "1204",\n"
"               "1207",\n"
"               "1210",\n"
"               "1211",\n"
"               "1215",\n"
"               "1218"\n"
"            ]\n"
"         }\n"
"      }\n"
"   }\n"
"}"
