HTTP/1.1 200 OK
Content-Type: text/xml
Content-Length: 1901
Connection: keep-alive
Date: Thu, 28 Sep 2017 15:28:25 GMT
Last-Modified: Mon, 05 Dec 2016 13:04:44 GMT
ETag: "40598e7146de804feaadf126c4bd90c1"
Accept-Ranges: bytes
Server: AmazonS3
Age: 5999
X-Cache: Hit from cloudfront
Via: 1.1 5721fe095cb09ed4b9d47c16bd7621e5.cloudfront.net (CloudFront)
X-Amz-Cf-Id: 4sq6OcxHU9wbJQcAYuP5Cw5e406LndvywfpOR9Y3miIR-AMHCZ_F5Q==

