HTTP/1.1 200 OK
Content-Type: text/xml
Content-Length: 1901
Connection: keep-alive
Date: Tue, 03 Oct 2017 02:43:05 GMT
Last-Modified: Mon, 05 Dec 2016 13:04:44 GMT
ETag: "40598e7146de804feaadf126c4bd90c1"
Accept-Ranges: bytes
Server: AmazonS3
Age: 53219
X-Cache: Hit from cloudfront
Via: 1.1 50ce79d11488558ae66a3f9bac6f0faa.cloudfront.net (CloudFront)
X-Amz-Cf-Id: 5Ei9H0Yk2DxiYcCz8HJCBYcHUX-CN-MBdeqaz-Ly5wgd3bsmLNi_Yw==

