Registry settings:
	COM Options
	General Options
		ThinkTimeThreshold	false
		ThinkTimeThresholdVal	3
		GenerateRecordingLog	false
		RecordPreInvocationMessages	true
		RecordPostInvocationMessages	true
		RecoverDeletedActions	false
		NumberOfLinesPerFile	false
		NumberOfLinesPerFileVal	60000
		CloseAUT	false
		FixedThinkTime	true
		FixedThinkTimeVal	3
		TrapLocalServer	true
		GenLongStrInSeparateFile	true
		default	100
		DumpProceeses	true
		PrintOutParamsValues	false
		DeclarePrimitivesAsLocals	true
		ReusePrimitiveVariables	true
		UseFullTypeNames	false
		UseProtectedAppRecording	false
		UseRecordingMalfunctiondiagnostics	true
		ReportLibraries	false
		RecordingMalfuctiondiagnostics
			DetectApplicationCrashEnableDetect	true
			EnableCancelButton	true
			DetectApplicationCrashDetectable	true
			DetectZeroEventNeedDetect	true
			DetectZeroEventInterval	180
	JS Options
		JSComRecordingSupport	false
		AjaxSnapshots	0
	Protocol Options
		WS_SOAP
			Recording
				WSDL
					wsiTestAssertionFileLocation	\common\profiles\basicprofiletestassertions.xml
					wsiXslFileLocation	\common\xsl\report.xsl
					wsiNs	http://www.ws-i.org/testing/2003/03/analyzerConfig/
					wsiJavaExecutable	\java\bin\analyzer.bat
					wsiCsExecutable	\cs\bin\analyzer.exe
					wsi11TestAssertionFileLocation	\common\profiles\SSBP10_BP11_TAD.xml
	Script Options
		CorrelateSmallNumbers	false
		CorrelateLargeNumbers	false
		CorrelateStrings	false
		CorrelateArrays	true
		CorrelateStructures	true
		CastArrayReferences	false
		CastObjectReferences	false

