HTTP/1.1 200 OK
Server: Apache-Coyote/1.1
X-Frame-Options: SAMEORIGIN
Cache-Control: max-age=86400
Accept-Ranges: bytes
ETag: W/"330-1464185353000"
Last-Modified: Wed, 25 May 2016 14:09:13 GMT
Content-Type: image/png;charset=UTF-8
Content-Length: 330
Date: Wed, 01 Jun 2016 09:45:01 GMT

