b26
{"LabelList":{"labels":{"collection":[{"caption":"CHARGED AMOUNT","name":"chargedAmountUC"},{"caption":"SHIP FROM","name":"shipFromUC"},{"caption":"NO SHIPMENTS EXIST FOR THIS RETURN","name":"shipmentNotExist"},{"caption":"Style","name":"itemStyle"},{"caption":"Return","name":"refund"},{"caption":"SHIP RETURNS FROM","name":"shipReturnsFromUC"},{"caption":"Order No.","name":"orderNumber"},{"caption":"ESTIMATED REFUND","name":"estimatedrefundUC"},{"caption":"SHIPMENTS","name":"shipmentHeaderTitle"},{"caption":"Add new payment","name":"addNewPayment"},{"caption":"Date created","name":"dateCreated"},{"caption":"Promotions  &","name":"promotionsAnd"},{"caption":"ESTIMATED CHARGE","name":"estimatedChargeUC"},{"caption":"REFUND AMOUNT","name":"refundamountUC"},{"caption":"SAVE","name":"saveUC"},{"caption":"OUTBOUND","name":"outboundUC"},{"caption":"Coupons","name":"coupons"},{"caption":"HAS BEEN CREATED SUCCESSFULLY","name":"hasBeenCreatedSuccessfully"},{"caption":"Status","name":"transactionStatus"},{"caption":"NOTE TYPE","name":"noteTypeUC"},{"caption":"CANCEL","name":"cancelUC"},{"caption":"RETURN","name":"returnUC"},{"caption":"Fees","name":"fees"},{"caption":"Return No.","name":"returnNumber"},{"caption":"Total fees","name":"totalFees"},{"caption":"Return Qty.","name":"returnQty"},{"caption":"Return Status","name":"returnStatusLink"},{"caption":"Receipt not expected","name":"receiptNotExpected"},{"caption":"No payment details available","name":"noPaymentDetailsAvailable"},{"caption":"Line charge","name":"lineCharge"},{"caption":"ESTIMATED REFUND","name":"estimatedRefundUC"},{"caption":"NOTE","name":"noteUC"},{"caption":"Order status","name":"orderStatus"},{"caption":"NO SHIPMENTS ARE CURRENTLY IN PROCESS FOR THIS ORDER","name":"plannedShipmentNotPresent"},{"caption":"Cancel","name":"cancelLink"},{"caption":"Resend Labels","name":"resendLabels"},{"caption":"Receipt expected","name":"receiptExpected"},{"caption":"Received Qty.","name":"receivedQty"},{"caption":"TOTAL AMOUNT CHARGED ON CORRESPONDING CO IS LESS THAN ESTIMATED REFUND","name":"chargeLessThanRefundMessageUC"},{"caption":"Size","name":"itemSize"},{"caption":"Received on","name":"receivedOn"},{"caption":"Save","name":"save"},{"caption":"RETURNS \/ EXCHANGES","name":"returnorExchangeUC"},{"caption":"NO SHIPMENTS ARE COMPLETED FOR THIS ORDER","name":"shipmentNotPresent"},{"caption":"Total","name":"total"},{"caption":"No. of packages","name":"nbrOfPackages"},{"caption":"EXCHANGE","name":"exchangeUC"},{"caption":"CANCELED","name":"canceledUC"},{"caption":"Estimated refund","name":"estimatedRefund"},{"caption":"Cancel","name":"cancel"},{"caption":"Color","name":"itemColor"},{"caption":"SHIP RETURN TO","name":"shipReturnToUC"},{"caption":"Return","name":"return"},{"caption":"INBOUND","name":"inboundUC"},{"caption":"Shipped Qty.","name":"shippedQty"}]}}}
0

