Ext.define('Eem.selector.model.Shipper', {
    extend : 'Ext.data.Model',
    //idProperty : 'id',
    fields : [{
            name : 'key',         
            mapping : 'key.value'		
        },
		{
            name : 'value',        
            mapping : 'value'		
        }    
	   
    ]
	
});