HTTP/1.1 200 OK
Content-Type: text/xml
Content-Length: 1901
Connection: keep-alive
Date: Tue, 03 Oct 2017 02:43:05 GMT
Last-Modified: Mon, 05 Dec 2016 13:04:44 GMT
ETag: "40598e7146de804feaadf126c4bd90c1"
Accept-Ranges: bytes
Server: AmazonS3
Age: 53233
X-Cache: Hit from cloudfront
Via: 1.1 3e02771664c190d7cb950aae2fb3783b.cloudfront.net (CloudFront)
X-Amz-Cf-Id: R6-rahU6LYeIull7I_X6-oTOIfXRnsom8QFUJHeVF5KC4lytGbHWeg==

