HTTP/1.1 200 OK
Content-Type: text/xml
Content-Length: 1901
Connection: keep-alive
Date: Thu, 28 Sep 2017 15:28:25 GMT
Last-Modified: Mon, 05 Dec 2016 13:04:44 GMT
ETag: "40598e7146de804feaadf126c4bd90c1"
Accept-Ranges: bytes
Server: AmazonS3
Age: 6028
X-Cache: Hit from cloudfront
Via: 1.1 a671d72b8f28cc1d91c971b88590952d.cloudfront.net (CloudFront)
X-Amz-Cf-Id: t5wMWRPoYT23aafwnSA4oouzccKBCR90ivI8nBlaXIZ4mhcpm27pig==

