HTTP/1.1 200 OK
Content-Type: text/xml
Content-Length: 1901
Connection: keep-alive
Date: Tue, 03 Oct 2017 02:43:05 GMT
Last-Modified: Mon, 05 Dec 2016 13:04:44 GMT
ETag: "40598e7146de804feaadf126c4bd90c1"
Accept-Ranges: bytes
Server: AmazonS3
Age: 53233
X-Cache: Hit from cloudfront
Via: 1.1 b2566c33186e0b7da4759cb2082b0f5d.cloudfront.net (CloudFront)
X-Amz-Cf-Id: 52wRxZuC2aEwlbpVrLaGfKidR72v3sqU24zePGJBZNxLhZmjj35CUQ==

