HTTP/1.1 200 OK
Content-Type: text/xml
Content-Length: 1876
Connection: keep-alive
Date: Sun, 28 Feb 2016 05:31:46 GMT
Last-Modified: Tue, 06 Oct 2015 07:07:14 GMT
ETag: "da8b7b6f1283ec2dca0923b3d7e300f0"
Accept-Ranges: bytes
Server: AmazonS3
Age: 79874
X-Cache: Hit from cloudfront
Via: 1.1 4ee6cbd5f14ab44f81cd41b0f1148c25.cloudfront.net (CloudFront)
X-Amz-Cf-Id: -_4FPiyftOYWs89bxtSr2Q73OEbZ-1cM2oI1kJJ8MSw_jxkwLIl3mg==

