"{\n"
"   "availabilityRequest":{\n"
"      "viewName":"US BOPIS",\n"
"      "availabilityCriteria":{\n"
"         "itemNames":{\n"
"            "itemName":[\n"
"               "1124491006"\n"
"            ]\n"
"         },\n"
"         "facilityNames":{\n"
"            "facilityName":[\n"
"               "1704",\n"
"               "1705",\n"
"               "1706",\n"
"               "1707",\n"
"               "1708",\n"
"               "1709",\n"
"               "1710",\n"
"               "1711",\n"
"               "1713",\n"
"               "1720",\n"
"               "1727",\n"
"               "1733",\n"
"               "1734",\n"
"               "1736",\n"
"               "1739",\n"
"               "1744",\n"
"               "1745",\n"
"               "1749",\n"
"               "1750",\n"
"               "1751",\n"
"               "1752",\n"
"               "1755",\n"
"               "1801",\n"
"               "1803",\n"
"               "1806"\n"
"            ]\n"
"         }\n"
"      }\n"
"   }\n"
"}"
