HTTP/1.1 200 OK
Content-Type: text/xml
Content-Length: 1901
Connection: keep-alive
Date: Tue, 03 Oct 2017 02:43:05 GMT
Last-Modified: Mon, 05 Dec 2016 13:04:44 GMT
ETag: "40598e7146de804feaadf126c4bd90c1"
Accept-Ranges: bytes
Server: AmazonS3
Age: 53217
X-Cache: Hit from cloudfront
Via: 1.1 400a1d6d49b59bb68b7dc9d180a3fe2d.cloudfront.net (CloudFront)
X-Amz-Cf-Id: dGYCF67v_9A9M0MlMIuwGcKlaysEcxMgv8vN-HXQNB53vZQBF3jE4g==

